*                                                                       00200021
*        %GOTO CVTBSL;       /* BILINGUAL MAPPING                       00300021
         MACRO                                                          00400000
&CVTNAME CVT   &SYS=MVT,&OPTIONS=(NOSLICE,INTERVAL,0),&TSO=NO,         *00410000
               &PREFIX=NO,&FLAG=00,&FLAGB=00,&PATCH=NO,&RPS=NO,        *00476721
               &WARN=0                                           S21167 00486721
*                                                                       00510000
*              OS/360                                                   00560000
*        COMMUNICATION VECTOR TABLE                                     00800000
*                                                                       00810000
*    RELEASES 21.6, 21.7 AND 21.8, 10/10/73, LEVEL=5                    01050021
*                                                                       01200000
.*       CALLED DURING PCP & MFT SYSGEN STAGE I BY SGIEA2CV             01200400
.*       CALLED DURING MVT & MPS SYSGEN STAGE II BY IEAQBK              01200800
.*                                                                      01200900
.*             OPERATING SYSTEM OPTIONS                                 01201000
         LCLB  &CVTPCP,&CVTMFT,&CVTMVT,&CVTMPS,&CVTMUL                  01210000
.*                                                                      01210100
.*             UNIPROGRAMMING PRIMARY CONTROL PROGRAM                   01211000
&CVTPCP  SETB  (('&SYS' EQ 'PCP') OR ('&SYS' EQ 'MIN'))                 01220000
.*                                                                      01220100
.*             MULTIPROGRAMMING WITH A FIXED NUMBER OF PARTITION TASKS  01221000
&CVTMFT  SETB  (('&SYS' EQ 'MFT') OR ('&SYS' EQ 'INT'))                 01230000
.*                                                                      01230100
.*             MULTIPROGRAMMING WITH A VARIABLE NUMBER OF REGION TASKS  01231000
&CVTMVT  SETB  (('&SYS' EQ 'MVT') OR ('&SYS' EQ 'VMS'))                 01240000
.*                                                                      01240200
.*             MULTIPROCESSING ON THE MODEL 65 UNDER MVT                01240400
&CVTMPS  SETB  ('&SYS' EQ 'MPS')                                        01241000
.*                                                                      01242000
.*             EITHER OF THE LAST TWO OPTIONS                           01242100
&CVTMUL  SETB  (&CVTMVT OR &CVTMPS)                                     01243000
.*                                                                      01250000
CVTPTR   EQU   16 -          ABSOLUTE ADDRESS OF POINTER TO CVT         01400000
*                                                                       01600000
*              BEGINNING OF CVT PROPER                                  01601000
*                                                                       01610000
         DS    0F                                                       01611000
         AIF   ('&CVTNAME' EQ '').CVT01                                 01620000
&CVTNAME EQU   * -           CVTPTR CONTENT POINTS HERE                 01820000
         AGO   .CVT02                                                   01821000
.CVT01   ANOP                                                           01830000
CVTMAP   EQU   * -           CVTPTR CONTENT POINTS HERE                 01840000
.CVT02   ANOP                                                           01850000
*                                                                       02000000
CVTTCBP  DC    V(IEATCBP) -  ADDR OF NEXT AND CURRENT TCB POINTER LIST  02200000
CVT0EF00 DC    V(IEA0EF00) - ADDR OF ROUTINE TO SCHEDULE                02610000
*                              ASYNCHRONOUS EXITS                       02620000
CVTLINK  DC    V(IEFLINK) -  ADDR OF SYS1.LINKLIB DCB                   02800000
CVTJOB   DC    V(IEFJOB) -   ADDR OF SYS1.JOBQE DCB                     03000000
CVTBUF   DC    A(0) -        ADDR OF BUFFER FOR RESIDENT                03200000
*                              CONSOLE INTERRUPTION ROUTINE             03400000
CVTXAPG  DC    V(IECXAPG) -  ADDR OF IOS APPENDAGE VECTOR TABLE         03600000
CVT0VL00 DC    V(IEA0VL00) - ENTRY POINT ADDR OF ADDR VALIDITY CHECKING 03800000
*                              ROUTINE FOR SUPERVISOR                   04000000
CVTPCNVT DC    V(IECPCNVT) - ENTRY POINT ADDR OF ROUTINE FOR CONVERTING 04200000
*                              RELATIVE TRACK ADDR TO ABSOLUTE          04400000
CVTPRLTV DC    V(IECPRLTV) - ENTRY POINT ADDR OF ROUTINE FOR CONVERTING 04600000
*                              ABSOLUTE TRACK ADDR TO RELATIVE          04800000
CVTILK1  DC    V(IECILK1) -  ADDR OF CHANNEL AND CONTROL UNIT SECTION   05000000
*                              IN UCB LOOKUP TABLE                      05200000
CVTILK2  DC    V(IECILK2) -  ADDR OF UCB HALFWORD ADDR LIST SECTION     05400000
*                              IN UCB LOOKUP TABLE                      05600000
CVTXTLER DC    V(IECXTLER) - ENTRY POINT ADDR TO XCTL ROUTINE           05800000
*                              FOR SYSTEM ERROR TRANSIENT AREA ROUTINES 06000000
CVTSYSAD DC    A(0) -        ADDR OF SYSTEM RESIDENCE VOLUME ENTRY      06200000
*                              IN UCB LOOKUP TABLE                      06400000
CVTBTERM DC    V(IEA0AB00) - ENTRY POINT ADDR OF ABTERM ROUTINE         06600000
CVTDATE  DC    F'0' -        CURRENT DATE IN PACKED DECIMAL             06800000
.*                                                                      06801000
.*             CVTMSLT: PCP, MFT/MVT                                    06802000
.*                                                                      06803000
         AIF   (NOT &CVTPCP).CVT11                                      06810000
CVTMSLT  DC    V(IEEMSLT) -  ADDR OF MASTER RESIDENT CORE (PCP)         07000000
         AGO   .CVT12                                                   07200400
.CVT11   ANOP                                                           07201000
CVTMSLT  DC    V(IEEMSER) -  ADDR OF MASTER COMMON AREA (MVT/MFT)       07210000
*                              PLEASE USE CVTMSER INSTEAD TO ADDRESS    07220000
*                              MASTER SCHEDULER RESIDENT DATA AREA      07221000
.CVT12   ANOP                                                           07230000
.*                                                                      07240000
CVTZDTAB DC    V(IECZDTAB) - ADDR OF I/O DEVICE CHARACTERISTIC TABLE    07400000
CVTXITP  DC    V(IECXITP) -  ADDR OF ERROR INTERPRETER ROUTINE          07600000
CVTDAR   DC    A(0) -        ADDR OF SYS1.DUMP I/O CONTROL BLOCKS       08000000
*                              FOR DAMAGE ASSESSMENT ROUTINES           08200000
.*                                                                      08401000
.*             CVT0FN00: PCP/MFT, MVT                                   08402000
.*                                                                      08403000
         AIF   (&CVTMUL).CVT21                                          08410000
CVT0FN00 DC    V(IEA0FN00) - ENTRY POINT ADDR TO FINCH (PCP/MFT)        08420000
         AGO   .CVT22                                                   08601000
.CVT21   ANOP                                                           08602000
CVT0FN00 DC    A(0) -        RESERVED (MVT)                             08610000
.CVT22   ANOP                                                           08620000
.*                                                                      08630000
CVTEXIT  SVC   3 -           EXIT TO DISPATCHER                         08800000
CVTBRET  BR    14 -          RETURN TO CALLER                           09000000
CVTSVDCB DC    V(IEASVDCB) - ADDR OF SYS1.SVCLIB DCB                    09200000
.*                                                                      09201000
.*             CVTTPC: INTERVAL TIMING, NONE                            09202000
.*                                                                      09203000
         AIF   ('&OPTIONS(2)' EQ 'INTERVAL').CVT31                      09210000
CVTTPC   DC    A(0) -        RESERVED (NO INTERVAL TIMER)               09410000
         AGO   .CVT32                                                   09410400
.CVT31   ANOP                                                           09410500
CVTTPC   DC    V(IEATPC) -   ADDR OF PSEUDOCLOCK FOR INTERVAL TIMER     09411000
*                              ROUTINE (SHPC FIRST)                     09412000
.CVT32   ANOP                                                           09420000
.*                                                                      09421000
CVTPBLDL DC    V(IECPBLDL) - BALR ENTRY POINT ADDR OF BLDL              09430000
.*                                                                      09440000
.*             CVTSJQ: PCP/MFT, MVT                                     09441000
.*                                                                      09442000
         AIF   (&CVTMUL).CVT41                                          09450000
CVTSJQ   DC    V(IEESJQ) -   ADDR OF SELECTED JOB QUEUE (PCP/MFT)       09800000
         AGO   .CVT42                                                   09801000
.CVT41   ANOP                                                           09802000
CVTSJQ   DC    A(0) -        RESERVED (MVT)                             09810000
.CVT42   ANOP                                                           09820000
.*                                                                      09830000
CVTCUCB  DC    V(IEECUCB) -  ADDR OF TABLE CONTAINING CONSOLE UCB ADDR  10000000
.*                                                                      10001000
.*             CVTQTE00, CVTQTD00: INTERVAL TIMING, NONE                10001100
.*                                                                      10002000
         AIF   ('&OPTIONS(2)' EQ 'INTERVAL').CVT51                      10010000
CVTQTE00 DC    A(0) -        RESERVED (NO INTERVAL TIMER)               10200000
CVTQTD00 DC    A(0) -        RESERVED (NO INTERVAL TIMER)               10400000
         AGO   .CVT52                                                   10401000
.CVT51   ANOP                                                           10402000
CVTQTE00 DC    V(IEAQTE00) - ADDR OF TIMER ENQUEUE ROUTINE              10410000
*                              FOR INTERVAL TIMER                       10411000
CVTQTD00 DC    V(IEAQTD00) - ADDR OF TIMER DEQUEUE ROUTINE              10420000
*                              FOR INTERVAL TIMER                       10421000
.CVT52   ANOP                                                           10430000
.*                                                                      10440000
CVTSTB   DC    V(IECSTB) -   ADDR OF I/O DEVICE STATISTIC TABLE         10600000
.*                                                                      10610000
.*             CVTDCB, CVTDCBA: PCP, MFT, MPS, MVT                      10620000
.*                                                                      10630000
         AIF   (NOT &CVTPCP).CVT61                                      11010000
CVTDCB   DC    XL1'40' -     OPERATING SYSTEM                           11200000
CVT1SSS  EQU   X'40' -       OPTION 1 (PCP) SSS                         11200100
CVT2SPS  EQU   X'20' -       OPTION 2 (MFT) SPS                         11200200
CVT4MS1  EQU   X'10' -       OPTION 4 (MVT) MS1                         11200300
CVT4MPS  EQU   X'04' -       MODEL 65 MULTIPROCESSING                   11200400
CVTDCBA  DC    VL3(IFBDCB) - ADDR OF DCB FOR SER SYS1.LOGREC            11201000
         AGO   .CVT64                                                   11210000
.CVT61   ANOP                                                           11220000
         AIF   (NOT &CVTMFT).CVT62                                      11230000
CVTDCB   DC    XL1'20' -     OPERATING SYSTEM                           11400000
CVT1SSS  EQU   X'40' -       OPTION 1 (PCP) SSS                         11400100
CVT2SPS  EQU   X'20' -       OPTION 2 (MFT) SPS                         11400200
CVT4MS1  EQU   X'10' -       OPTION 4 (MVT) MS1                         11400300
CVT4MPS  EQU   X'04' -       MODEL 65 MULTIPROCESSING                   11400400
CVTDCBA  DC    VL3(IFBDCB) - ADDR OF DCB FOR SER SYS1.LOGREC            11401000
         AGO   .CVT64                                                   11410000
.CVT62   ANOP                                                           11420000
         AIF   (NOT &CVTMPS).CVT63                                      11430000
CVTDCB   DC    XL1'14' -     OPERATING SYSTEM                           11440000
CVT1SSS  EQU   X'40' -       OPTION 1 (PCP) SSS                         11440100
CVT2SPS  EQU   X'20' -       OPTION 2 (MFT) SPS                         11440200
CVT4MS1  EQU   X'10' -       OPTION 4 (MVT) MS1                         11440300
CVT4MPS  EQU   X'04' -       MODEL 65 MULTIPROCESSING                   11440400
CVTDCBA  DC    VL3(IFBDCB) - ADDR OF DCB FOR SER SYS1.LOGREC            11441000
         AGO   .CVT64                                                   11450000
.CVT63   ANOP                                                           11460000
CVTDCB   DC    XL1'10' -     OPERATING SYSTEM                           11600000
CVT1SSS  EQU   X'40' -       OPTION 1 (PCP) SSS                         11600100
CVT2SPS  EQU   X'20' -       OPTION 2 (MFT) SPS                         11600200
CVT4MS1  EQU   X'10' -       OPTION 4 (MVT) MS1                         11600300
CVT4MPS  EQU   X'04' -       MODEL 65 MULTIPROCESSING                   11600400
CVTDCBA  DC    VL3(IFBDCB) - ADDR OF DCB FOR SER SYS1.LOGREC            11601000
.CVT64   ANOP                                                           11610000
.*                                                                      11620000
CVTIOQET DC    V(IECIOQET) - ADDR OF I/O QUEUE ELEMENT TABLE            11820000
CVTIXAVL DC    V(IECIXAVL) - ADDR OF I/O SUPERVISOR FREELIST POINTER    12400000
CVTNUCB  DC    A(0) -        LEAST UPPER BOUND OF NUCLEUS               12600000
CVTFBOSV DC    V(IEWFBOSV) - ADDR OF PROGRAM FETCH ROUTINE              12800000
CVT0DS   DC    V(IEA0DS) -   ENTRY POINT ADDR OF DISPATCHER             13000000
CVTILCH  DC    V(IECILCH) -  ADDR OF LOGICAL CHANNEL WORD TABLE         13200000
CVTIERLC DC    V(IECIERLC) - ADDR OF ASYNCHRONOUS EXIT QUEUE            13400000
.*                                                                      13401000
.*             CVTMSER: PCP, MFT/MVT                                    13402000
.*                                                                      13403000
         AIF   (NOT &CVTPCP).CVT71                                      13410000
CVTMSER  DC    A(0) -        ADDR OF MAJOR QCB (PCP)                    13600000
         AGO   .CVT72                                                   13801000
.CVT71   ANOP                                                           13802000
CVTMSER  DC    V(IEEMSER) -  ADDR OF MASTER SCHEDULER RESIDENT          13810000
*                              DATA AREA (MVT/MFT)                      13820000
.CVT72   ANOP                                                           13830000
.*                                                                      13840000
CVT0PT01 DC    V(IEA0PT01) - BRANCH ENTRY POINT ADDR OF POST ROUTINE    14000000
CVTTRMTB DC    A(0) -        ADDR OF QTAM TERMINAL TABLE                14200000
CVTHEAD  DC    V(IEAHEAD) -  ADDR OF FIRST TCB ON READY QUEUE           14400000
CVTMZ00  DC    A(0) -        HIGHEST STORAGE ADDRESS                    14600000
CVT1EF00 DC    A(0) -        RESERVED (FORMERLY CIRB ROUTINE ADDR)      14601000
.*                                                                      14610000
.*             CVTQOCR, CVTQMWR, CVTSNCTR, CVTOPTA+FLAGS: PCP, MFT, MVT 14610100
.*                                                                      14610500
         AIF   (NOT &CVTPCP).CVT81                                      14611000
CVTQOCR  DC    A(0) -        RESERVED (PCP)                             14630000
CVTQMWR  DC    A(0) -        RESERVED (PCP)                             15400000
CVTSNCTR DC    H'0' -        SERIAL DATA SET SEQUENCE NUMBER COUNTER    15800000
CVTOPTA  DC    AL1(&FLAG) -     MISCELLANEOUS FLAGS                     16000021
CVTCCH   EQU   X'80' -       RESERVED (PCP)                             16200000
CVTNIP   EQU   X'10' -       NIP RUNNING                                16400000
CVTHIAR  EQU   X'04' -       MAIN STORAGE HIERARCHY SUPPORT OPERATIVE   16410000
CVTASCII EQU   X'02' -       USAS(CI)I OPTION PRESENT                   16420000
CVTXPFP  EQU   X'01' -       CPU HAS EXTENDED PRECISION FLOATING POINT  16470000
CVTOPTB  DC    AL1(&FLAGB) -     MISCELLANEOUS FLAGS                    16600021
         AGO   .CVT82                                                   16615521
.CVT81   ANOP                                                           16617821
.*                                                                      16620121
.*             CVTQOCR: MFT, MVT                                        16622421
.*                                                                      16624721
         AIF   (NOT &CVTMFT).CVT83                                      16630000
CVTQOCR  DC    V(IEAQOCR) -  ADDR OF SEVENTH GFX PARM LIST WORD         16631000
*                              (0 IF GFX INACTIVE) MFT                  16631621
         AGO   .CVT84                                                   16633921
.CVT83   ANOP                                                           16636221
CVTQOCR  DC    A(0) -        ADDR OF SEVENTH GFX PARM LIST WORD         16638521
*                              (0 IF GFX INACTIVE) MVT                  16640821
.CVT84   ANOP                                                           16643121
.*                                                                      16645421
CVTQMWR  DC    V(IEFQMWR) -  ADDR OF QMGR COMMUNICATION DATA AREA       16647721
*                              (MVT/MFT)                                16650000
CVTSNCTR DC    H'0' -        SERIAL DATA SET SEQUENCE NUMBER COUNTER    16660000
CVTOPTA  DC    AL1(&FLAG) -     MISCELLANEOUS FLAGS                     16670021
CVTCCH   EQU   X'80' -       CCH OPTION PRESENT (MVT/MFT)               16680000
CVTAPR   EQU   X'40' -       AUTOMATIC PATH RETRY --                    16681000
*                              I/O RECOVERY MANAGEMENT (MVT/MFT)        16681100
CVTDDR   EQU   X'20' -       DYNAMIC DEVICE RECONFIGURATION --          16683000
*                              I/O RECOVERY MANAGEMENT (MVT/MFT)        16683200
CVTNIP   EQU   X'10' -       NIP RUNNING                                16690000
CVTATTCH EQU   X'08' -       ATTACH OPERATIVE (MFT)                     16691000
CVTHIAR  EQU   X'04' -       MAIN STORAGE HIERARCHY SUPPORT OPERATIVE   16692000
CVTASCII EQU   X'02' -       USAS(CI)I OPTION PRESENT                   16693000
CVTXPFP  EQU   X'01' -       CPU HAS EXTENDED PRECISION FLOATING POINT  16695000
CVTOPTB  DC    AL1(&FLAGB) - MISCELLANEOUS FLAGS                        16700021
CVTPROT  EQU   X'80' -       STORE PROTECTION SYSGENED (MFT)            16702000
CVTTOD   EQU   X'20' -       CPU HAS TIME OF DAY CLOCK (MVT/MFT)        16704000
.CVT82   ANOP                                                           16710000
*                                                                       16800000
*              PCP OVERLAY                                              17000000
*                                                                       17200000
CVTCRTTR DS    CL3 -         TTR OF MODIFIED JCT FOR RESTART            17400000
CVTSTUSA DS    B -           STATUS BYTE A                              17600000
CVTCHPTR EQU   X'08' -       REQUESTED AUTOMATIC CHECKPOINT RESTART     17800000
*                              WAS INITIATED INTRASTEP                  18000000
CVTSTEPR EQU   X'04' -       REQUESTED AUTOMATIC STEP RESTART           18200000
*                              WAS INITIATED INTERSTEP                  18400000
CVTDATA  EQU   X'02' -       DD DATA STATEMENT IN INPUT STREAM          18600000
*                              AND DATA HAS NOT BEEN READ               18800000
         DS    CL2 -         RESERVED                                   19000000
         DS    CL2 -         RESERVED                                   19200000
.*                                                                      19210000
         AIF   (&CVTPCP).CVT93                                          19220000
*                                                                       19400000
*              MVT/MFT OVERLAY                                          19600000
*                                                                       19800000
         ORG   CVTCRTTR                                                 20000000
*                                                                       20200000
.*             CVTQCDSR, CVTQLPAQ: MVT, MFT                             20202000
.*                                                                      20203000
         AIF   (&CVTMFT).CVT91                                          20210000
CVTQCDSR DC    V(IEAQCDSR) - MVT/MFT: CDE SEARCH ROUTINE ADDR           20400000
CVTQLPAQ DC    V(IEAQLPAQ) - MVT/MFT: ADDR OF TOP CDE IN LPA QUEUE      21000000
         AGO   .CVT92                                                   21600000
.CVT91   ANOP                                                           21601000
CVTQCDSR DC    A(0) -        MVT/MFT: CDE SEARCH ROUTINE ADDR           21620000
CVTQLPAQ DC    A(0) -        MVT/MFT: ADDR OF TOP CDE IN LPA QUEUE      21641000
.CVT92   ANOP                                                           21661000
.*                                                                      21662000
.CVT93   ANOP                                                           21663000
*                                                                       21670000
*              END OF OVERLAYS                                          21800000
*                                                                       22000000
.*             CVTMPCVT: MULTIPROCESSING, NONE                          22001000
.*                                                                      22002000
         AIF   (NOT &CVTMPS).CVTA1                                      22010000
CVTMPCVT DC    V(IEAMPCVT) - ADDR OF M65MP SECONDARY CVT (M65MP)        22200000
         AGO   .CVTA2                                                   22410000
.CVTA1   ANOP                                                           22420000
CVTMPCVT DC    A(0) -        RESERVED (NOT M65MP)                       22421000
.CVTA2   ANOP                                                           22430000
.*                                                                      22440000
CVTSMCA  DC    A(0) -        ADDR OF SYSTEM MGT CONTROL AREA            22600000
.*                                                                      22602000
.*             CVTABEND: MVT, MFT/PCP                                   22603000
.*                                                                      22604000
         AIF   (NOT &CVTMUL).CVTB1                                      22605000
CVTABEND DC    V(IEABEND) -  ADDR OF SECONDARY CVT FOR ABEND IN EOT     22610000
*                              (MVT/MPS)                                22610100
         AGO   .CVTB2                                                   22611000
.CVTB1   ANOP                                                           22612000
CVTABEND DC    A(0) -        RESERVED (PCP/MFT)                         22613000
.CVTB2   ANOP                                                           22614000
.*                                                                      22615000
CVTUSER  DC    V(UNVT)                                                  22620000
.*                                                                      22630000
         AIF   (&CVTPCP).CVTD1                                          22640000
*                                                                       23000000
*              MFT/MVT CVT EXTENSION                                    24000000
*                                                                       24200000
CVTMDLDS DC    A(0) -        RESERVED FOR MODEL-DEPENDENT SUPPORT       24400021
CVTQABST SVC   13 -          AN ABEND INSTRUCTION (MVT)                 24600000
CVTLNKSC SVC   6 -           A LINK INSTRUCTION (MFT WITH SUBTASKING)   25000000
.*                                                                      25001000
.*             CVTTSCE: TIME SLICING, NONE                              25002000
.*                                                                      25003000
         AIF   ('&OPTIONS(1)' NE 'TSLICE').CVTC1                        25010000
CVTTSCE  DC    V(IEATSCE) -  ADDR OF FIRST TIME SLICE CONTROL ELEMENT   25400000
         AGO   .CVTC2                                                   25410000
.CVTC1   ANOP                                                           25420000
CVTTSCE  DC    A(0) -        ADDR OF FIRST TIME SLICE CONTROL ELEMENT   25421000
.CVTC2   ANOP                                                           25430000
.*                                                                      25440000
.*             CVTPATCH: PATCH AREA, NONE                               25450000
.*                                                                      25460000
         AIF   ('&PATCH' NE 'YES').CVTC3                                25490000
CVTPATCH DC    V(IEAPATCH) - ADDR OF FE PATCH AREA                      25540000
         AGO   .CVTC4                                                   25590000
.CVTC3   ANOP                                                           25592000
CVTPATCH DC    A(0) -        ADDR OF FE PATCH AREA                      25594000
.CVTC4   ANOP                                                           25596000
.*                                                                      25600000
CVTRMS   DC    A(0) -        ADDR OF RESIDENT RECOVERY MANAGEMENT AREA  25800000
*                              (MVT/MFT)                                25810000
CVTTSCVT DS    0A -          ADDR OF TIME SHARING CVT (TSO)             26000000
CVTTSFLG DC    B'0' -        TIME SHARING FLAGS (TSO)                   26050000
CVTTSRDY EQU   X'80' -       TIME SHARING READY                         26100000
CVTTSCVB DC    AL3(0) -      ADDR OF TIME SHARING CVT (TSO)             26150000
         AIF   ('&RPS' EQ 'NO').CVTC5                                   26200021
CVT0SCR1 DC    V(IEC0SCR1) - ADDR OF RPS SECTOR CONVERTER (MVT/MFT)     26650021
         AGO   .CVTC6                                                   27392421
.CVTC5   ANOP                                                           27392821
CVT0SCR1 DC    A(0) -        ADDR OF RPS SECTOR CONVERTER (MVT/MFT)     27393221
.CVTC6   ANOP                                                           27393621
CVTGTF   DS    0A -          GENERALIZED TRACE FACILITY (MPS/MVT/MFT)   27394021
CVTGTFST DC    B'0' -        STATUS FLAGS                               27396021
CVTGTFS  EQU   X'C0' -       STATE                                      27398021
*/       00    CVTGTFIN      INACTIVE                                   27398421
*/       01    CVTGTFSR      STARTING                                   27398821
*/       10    CVTGTFSP      STOPPING                                   27399221
*/       11    CVTGTFAC      ACTIVE                                     27399621
CVTSTATE EQU   X'20' -       IN CONTROL                                 27399721
CVTMODE  EQU   X'10' -       EXT MODE                                   27399821
CVTFORM  EQU   X'08' -       ABDUMP TO FORMAT TRACE DATA                27399921
CVTUSR   EQU   X'04' -       USR TRACE                                  27449921
CVTMCTYP EQU   X'02' -       MC INSTRUCTION VALID                       27459921
CVTCMT   DC    VL3(IHLCMT) - ADDRESS OF CLASS MASK TABLE                27469921
CVTTCMFG DS    0B -          TCAM FLAGS                                 27499921
CVTTCRDY EQU   X'80' -       TCAM RUNNING (MVT)                         27600000
CVTAQAVT DC    A(0) -        PTR TO WORD CONTAINING ADDR OF             27610000
*                            TCAM ADDRESS VECTOR TABLE                  27620021
         AIF   (NOT &CVTMFT).CVTP2                               S21167 27720021
*                                                                       28000000
*              MFT WITH SUBTASKING CVT EXTENSION                        28200000
*                                                                       28400000
CVTTATA  DS    0A -          ADDR OF TCB ADDR TAB (P0 TCB POINTER)      28410000
CVTTSKS  DC    FL1'0' -      MAXIMAL NUMBER OF TCB ADDR TAB ENTRIES     28800000
CVTTAT   DC    AL3(0) -      ADDR OF TCB ADDR TAB (P0 TCB POINTER)      29000000
CVTATER  DS    0A -          SAME AS CVTATERA BELOW              ICB306 29002021
.*                                                                      29010000
.*             CVTSYST: OPTIONS(3)                                      29012000
.*                                                                      29020000
         AIF   ('&OPTIONS(3)' EQ '').CVT85                              29050000
CVTSYST  DC    AL1(&OPTIONS(3)) -      NUMBER OF TCB ADDR TAB ENTRIES   29060021
         AGO   .CVT86                                                   29190000
.CVT85   ANOP                                                           29192000
CVTSYST  DC    AL1(0) -       NUMBER OF TCB ADDR TAB ENTRIES            29200021
.CVT86   ANOP                                                           29250000
CVTATERA DC    VL3(IEASETCB) ADDRESS OF SYSTEM ERROR TCB (ICB306) 41451 29400021
         AGO   .CVTP3                                                   29400421
.CVTP2   ANOP                                                           29400821
*                                                                       29401221
*              MVT CVT EXTENSION                                        29401321
*                                                                       29401421
CVTVOLM2 DS    0A -          ADDRESS OF TABLE FOR POWER WARNING FEATURE 29401521
*                            (PWF)                               S21167 29401621
CVTVOLF2 DC    X'80' -       PWF FLAG BYTE.  THIS BYTE IS OVERLAID BY   29404021
*                            CVTVOLM2 AFTER PWF INITIALIZATION.  S21167 29404221
CVTVOLI2 EQU   X'80' -       PWF INITIALIZATION HAS NOT OCCURRED S21167 29404421
CVTVOLT2 DC    AL3(&WARN) -  PWF RECHECK TIME DELAY.  THIS VALUE IS     29404621
*                            OVERLAID BY CVTVOLM2 AFTER PWF             29404821
*                            INITIALIZATION                      S21167 29405021
         DC    A(0) -        RESERVED                                   29405221
.CVTP3   ANOP                                                           29406021
*                                                                       29407021
*              MVT/MFT CVT EXTENSION                                    29408021
*                                                                       29408821
CVTEXT1  DC    A(CVTXTNT1) - ADDRESS OF COMMON EXTENSION 1              29410821
*                            (ICB421)                APAR'S 47331,47332 29413221
         DS    F -           RESERVED                                   29414221
CVTPURG  DS    0A -          ADDRESS OF SUBSYSTEM PURGE ROUTINE         29415221
         DS    X -           RESERVED                                   29416421
CVTPURGA DC    VL3(IEAASPRG) ADDRESS OF SUBSYSTEM PURGE ROUTINE         29417421
         DS    F -           RESERVED                                   29418421
CVTQMSG  DS    0A -          SAME AS CVTQMSGA BELOW              ICB307 29419421
         DS    X -           RESERVED                            ICB307 29420421
CVTQMSGA DC    VL3(IEAQMSGS) ADDRESS OF TYPE 1 SVC - ABEND              29421421
*                            COMMUNICATION AREA                  ICB307 29422421
CVTDMSR  DS    0A -          SAME AS CVTDMSRA BELOW              ICB308 29423421
         DS    X -           RESERVED                            ICB308 29424421
CVTDMSRA DC    VL3(IFG019RA) ADDRESS OF OPEN/CLOSE/EOV SUPERVISORY      29425421
*                            ROUTINE                             ICB308 29426421
*                                                                       29427421
*              COMMON EXTENSION 1                                       29435721
*              ADDRESS OF EXTENSION IS IN CVTEXT1                       29445721
*                                                                       29455721
*              TO REFERENCE ANY FIELDS IN THIS EXTENSION,               29456121
*              YOU SHOULD CODE -                                        29462521
*                                                                       29464521
*              L     REG,CVTEXT1                                        29466521
*              USING CVTXTNT1,REG                                       29468521
*                                                                       29468621
*              WHERE REG IS ANY REGISTER OTHER THAN ZERO.               29468721
*                                                                       29468821
CVTXTNT1 EQU   * -           START OF COMMON EXTENSION 1                29475221
*                            (ICB421)                APAR'S 47331,47332 29475721
CVTFACHN DC    A(0) -        ADDRESS OF CHAIN OF DCB FIELD AREAS        29477221
*                            (ISAM) (ICB421)         APAR'S 47331,47332 29479221
.*                                                                      29481621
.CVTD1   ANOP                                                           29488021
*                                                                       29494421
*              END OF CVT PROPER                                        29513521
*                                                                       29532621
         AIF   ('&PREFIX' EQ 'NO').CVTE1                                29551721
.*                                                                      29570821
*              BEGINNING OF CVT PREFIX                                  29589921
*                                                                       29609021
CVTFIX   DSECT -             CVTMAP-256 - PREFIX                        29628121
*                                                                       29647221
         DS    CL248 -       RESERVED                                   29666321
         DS    H -           RESERVED                                   29685421
CVTMDL   DS    CL2 -         CPU MODEL NUMBER IN SIGNLESS PACKED        29704521
*                            DECIMAL, I.E., A MODEL 50 WOULD BE         29723621
*                            REPRESENTED AS 0050 HEX                    29742721
CVTRELNO DS    CL4 -         OS RELEASE NUMBER (CHAR)                   29761821
*                                                                       29780921
*              END OF CVT PREFIX                                        29800000
*                                                                       29810000
         AGO   .CVTE2                                                   29820000
.CVTE1   ANOP                                                           29860000
*                                                                       29870000
*              CODE CVT PREFIX=YES TO OBTAIN CVT PREFIX DSECT           29880000
*                                                                       29890000
.CVTE2   ANOP                                                           29910000
         MEND  , */                                                     30000000
* %CVTBSL  :  ;                                                         30600000
*                                                                       30610000
* /*     COMMUNICATION VECTOR TABLE                                  */ 30800000
* /* RELEASES 21.6, 21.7 AND 21.8, 10/08/73, LEVEL=5                 */ 31050021
*                                                                       31200000
* /*                   CVT PROPER                                    */ 31400000
*                                                                       31600000
* DECLARE                                                               31800000
*   1 CVTMAP   BASED(CVTPTR),                                           32000000
*                                                                       32200000
*    2 CVTTCBP  PTR(31),             /* PTR TO ADDRESSES FOR NEXT       32400000
*                                       AND CURRENT TCB              */ 32600000
*    2 CVT0EF00 PTR(31),             /* ADDR OF ROUTINE TO SCHEDULE     32800000
*                                       ASYNCHRONOUS EXITS           */ 33000000
*    2 CVTLINK  PTR(31),             /* ADDR OF DCB FOR SYS1.LINKLIB */ 33200000
*    2 CVTJOB   PTR(31),             /* ADDR OF WORK QUEUE CONTROL      33400000
*                                       BLOCKS                       */ 33600000
*    2 CVTBUF   PTR(31),             /* ADDR OF BUFFER FOR RESIDENT     33800000
*                                       CONSOLE INTERRUPTION ROUTINE */ 34000000
*    2 CVTXAPG  PTR(31),             /* ADDR OF IOS APPENDAGE TABLE  */ 34200000
*    2 CVT0VL00 PTR(31),             /* ENTRY POINT ADDR OF ADDR        34400000
*                                       VALIDITY CHECKING ROUTINE    */ 34600000
*    2 CVTPCNVT PTR(31),             /* ENTRY POINT ADDR OF ROUTINE     34800000
*                                       FOR CONVERTING RELATIVE         35000000
*                                       TRACK ADDR TO ABSOLUTE       */ 35200000
*    2 CVTPRLTV PTR(31),             /* ENTRY POINT ADDR OF ROUTINE     35400000
*                                       FOR CONVERTING ABSOLUTE         35600000
*                                       TRACK ADDR TO RELATIVE       */ 35800000
*    2 CVTILK1  PTR(31),             /* ADDR OF CHANNEL AND CONTROL     36000000
*                                       UNIT SECTION IN UCB LOOKUP      36200000
*                                       TABLE                        */ 36400000
*    2 CVTILK2  PTR(31),             /* ADDR OF UCB ADDR LIST           36600000
*                                       SECTION IN UCB LOOKUP TABLE  */ 36800000
*    2 CVTXTLER PTR(31),             /* ENTRY POINT ADDR TO XCTL        37000000
*                                       ROUTINE FOR SYSTEM ERROR        37200000
*                                       ROUTINES                     */ 37400000
*    2 CVTSYSAD PTR(31),             /* ADDR OF SYSTEM RESIDENCE        37600000
*                                       VOLUME ENTRY IN UCB TABLE    */ 37800000
*    2 CVTBTERM PTR(31),             /* ENTRY POINT ADDR OF ABTERM      38000000
*                                       ROUTINE                      */ 38200000
*    2 CVTDATE  CHAR(4),             /* CURRENT DATE IN PACKED          38400000
*                                       DECIMAL                      */ 38600000
*    2 CVTMSLT  PTR(31),             /* ADDR OF MASTER COMMON AREA      38800000
*                                         (MASTER RESIDENT CORE IN PCP) 39000000
*                                       PLEASE USE CVTMSER INSTEAD      39210000
*                                         TO ADDRESS MASTER SCHEDULER   39220000
*                                         RESIDENT DATA AREA         */ 39230000
*    2 CVTZDTAB PTR(31),             /* ADDR OF I/O DEVICE              39400000
*                                       CHARACTERISTIC TABLE         */ 39600000
*    2 CVTXITP  PTR(31),             /* ADDR OF ERROR INTERPRETER       39800000
*                                       ROUTINE                      */ 40000000
*                                                                       40200000
*    2 CVTDAR   PTR(31),             /* ADDR OF I/O CONTROL BLOCK       40400000
*                                       COMPLEX ACCESSED BY DAR      */ 40600000
*                                                                       40800000
*                                                                       41000000
*    2 CVT0FN00 PTR(31),             /* ENTRY POINT ADDR TO FINCH    */ 41200000
*    2 CVTEXIT  CHAR(2),             /* AN SVC 3 INSTRUCTION         */ 41400000
*    2 CVTBRET  CHAR(2),             /* A BCR 15,14 INSTRUCTION      */ 41600000
*    2 CVTSVDCB PTR(31),             /* ADDR OF DCB FOR SYS1.SVCLIB  */ 41800000
*    2 CVTTPC   PTR(31),             /* ADDR OF PSEUDO CLOCK FOR        42000000
*                                       TIMER ROUTINE                */ 42200000
*    2 CVTPBLDL PTR(31),             /* BRANCH AND LINK ENTRY POINT     42400000
*                                       TO BLDL ROUTINE              */ 42600000
*    2 CVTSJQ   PTR(31),             /* ADDR OF SELECTED JOB QUEUE   */ 42800000
*    2 CVTCUCB  PTR(31),             /* ADDR OF TABLE WITH CONSOLE      43000000
*                                       UCB ADDR                     */ 43200000
*    2 CVTQTE00 PTR(31),             /* ADDR OF TIMER ENQUEUE           43400000
*                                       ROUTINE                      */ 43600000
*    2 CVTQTD00 PTR(31),             /* ADDR OF TIMER DEQUEUE           43800000
*                                       ROUTINE                      */ 44000000
*    2 CVTSTB   PTR(31),             /* ADDR OF I/O DEVICE STATISTIC    44200000
*                                       TABLE                        */ 44400000
*    2 CVTDCB   CHAR(1),             /* OPERATING SYSTEM                44800021
*                                       CONFIGURATION                */ 45000000
*      4 *        BIT(1),            /* RESERVED                     */ 45200000
*      4 CVT1SSS  BIT(1),            /* - PCP                        */ 45400021
*      4 CVT2SPS  BIT(1),            /* - MFT                        */ 45600021
*      4 CVT4MS1  BIT(1),            /* - MVT                        */ 45800000
*      4 *        BIT(1),            /* RESERVED                     */ 46000000
*      4 CVT4MPS  BIT(1),            /* - MULTIPROCESSING            */ 46200000
*      4 *        BIT(1),            /* RESERVED                     */ 46400000
*      4 *        BIT(1),            /* RESERVED                     */ 46600000
*    2 CVTDCBA   PTR(24)  BDY(WORD,2),                                  46800021
*                                    /* ADDR OF DCB FOR SYS1.LOGREC  */ 47000000
*    2 CVTIOQET PTR(31),             /* ADDR OF REQUEST ELEMENT         47200000
*                                       TABLE                        */ 47400000
*    2 CVTIXAVL PTR(31),             /* ADDR OF I/O SUPERVISOR'S        47600000
*                                       FREELIST POINTER             */ 47800000
*    2 CVTNUCB  PTR(31),             /* LOWEST ADDRESS NOT IN           48000000
*                                       NUCLEUS                      */ 48200000
*    2 CVTFBOSV PTR(31),             /* ADDR OF PROGRAM FETCH           48400000
*                                       ROUTINE                      */ 48600000
*    2 CVT0DS   PTR(31),             /* ADDR OF ENTRY POINT OF          48800000
*                                       DISPATCHER                   */ 49000000
*    2 CVTILCH  PTR(31),             /* ADDR OF LOGICAL CHANNEL WORD    49200000
*                                       TABLE                        */ 49400000
*    2 CVTIERLC PTR(31),             /* ADDR OF ASYNCHRONOUS EXIT       49600000
*                                       QUEUE                        */ 49800000
*    2 CVTMSER  PTR(31),             /* ADDR OF MASTER SCHEDULER        50000000
*                                       RESIDENT DATA AREA (ADDR OF     50200000
*                                       MAJOR QCB IN PCP)            */ 50400000
*    2 CVT0PT01 PTR(31),             /* ADDR OF BRANCH ENTRY POINT      50600000
*                                       OF POST ROUTINE              */ 50800000
*    2 CVTTRMTB PTR(31),             /* ADDR OF QTAM TERMINAL TABLE  */ 51000000
*    2 CVTHEAD  PTR(31),             /* ADDR OF HIGHEST PRIORITY TCB    51200000
*                                       IN READY QUEUE               */ 51400000
*    2 CVTMZ00  PTR(31),             /* HIGHEST STORAGE ADDRESS      */ 51600000
*    2 CVT1EF00 PTR(31),             /* ADDR OF ROUTINE WHICH           51800000
*                                       CREATES IRBS FOR EXITS       */ 52000000
*    2 CVTQOCR  PTR(31),             /* ADDR OF A GFX PARM LIST         52200000
*                                       WORD, OR ZERO (RESERVED IN      52400000
*                                       PCP)                         */ 52600000
*    2 CVTQMWR  PTR(31),             /* ADDR OF QMGR COMMUNICATION      52800000
*                                       DATA AREA (RESERVED IN PCP)  */ 53000000
*    2 CVTSNCTR FIXED(15),           /* SERIAL DATA SET SEQUENCE        53200000
*                                       NUMBER COUNTER               */ 53400000
*    2 CVTOPTA  CHAR(1),             /* FLAGS                        */ 53600000
*     3 CVTCCH   BIT(1),             /* - CCH OPTION PRESENT            53800000
*                                       (MVT/MFT)                    */ 54000000
*     3 CVTAPR   BIT(1),             /* AUTOMATIC PATH RETRY --         54400000
*                                       I/O RECOVERY MGT (MVT/MFT) */   54401000
*     3 CVTDDR   BIT(1),             /* DYNAMIC DEVICE RECONFIGURATION  54430000
*                                       --I/O RECOVERY MGT (MVT/MFT) */ 54440000
*     3 CVTNIP   BIT(1),             /* - NIP PROCESSING             */ 54600000
*     3 CVTATTCH BIT(1),             /* ATTACH OPERATIVE (MFT)       */ 54800000
*     3 CVTHIAR  BIT(1),             /* MAIN STORAGE HIERARCHY          55000000
*                                         SUPPORT OPERATIVE          */ 55010000
*     3 CVTASCII BIT(1),             /* USAS(CI)I OPTION PRESENT     */ 55200000
*     3 *        BIT(1),             /* RESERVED                     */ 55400000
*    2 CVTOPTB  CHAR(1),             /* RESERVED                     */ 55600000
*     3 CVTPROT  BIT(1),             /* STORE PROTECTION SYSGENED    */ 55650000
*     3 *        BIT(1),             /* RESERVED                     */ 55700021
*     3 CVTTOD   BIT(1),             /* CPU HAS TIME OF DAY CLOCK    */ 55750000
*     3 *        BIT(5),             /* RESERVED                     */ 55760021
*                                                                       55770000
*    2 CVTQCDSR PTR(31),             /* MVT/MFT: CDE SEARCH ROUTINE     60600000
*                                         ADDR */                       60610000
*    2 CVTQLPAQ PTR(31),             /* MVT/MFT: ADDR OF TOP CDE IN LPA 61400000
*                                       QUEUE */                        61600000
*                                                                       61650000
*    2 CVTMPCVT PTR(31),             /* MVT: ADDR OF M65MP SECONDARY    62400000
*                                       CVT -- MFT/PCP: RESERVED     */ 62600000
*    2 CVTSMCA  PTR(31),             /* ADDR OF SMCA                 */ 62800000
*    2 CVTABEND PTR(31),             /* MVT: ADDR OF SECONDARY CVT      63200000
*                                       --  MFT/PCP: RESERVED        */ 63400000
*    2 CVTUSER  PTR(31),             /* FIELD AVAILABLE TO USER      */ 63600000
*                                                                       63800000
*                                                                       64000000
* /*                   MFT/MVT CVT EXTENSION                         */ 64200000
*                                                                       64400000
*    2 CVTMDLDS PTR(31),             /* RESERVED FOR MODEL-DEPENDENT    64600021
*                                       SUPPORT                      */ 64650021
*    2 CVTQABST CHAR (2),            /* MVT: AN SVC 13 INSTRUCTION      64800000
*                                       --  MFT: RESERVED            */ 65000000
*    2 CVTLNKSC CHAR(2),             /* AN SVC 6 (LINK) INSTRUCTION     65200000
*                                       (MFT WITH SUBTASKING)        */ 65400000
*    2 CVTTSCE  PTR(31),             /* ADDR OF FIRST TSCE           */ 65600000
*    2 CVTPATCH PTR(31),             /* ADDR OF FE PATCH AREA        */ 65800000
*    2 CVTRMS   PTR(31),             /* ADDRESS OF RMS WORK AREA     */ 66000000
*    2 CVTTSCVT PTR(31),             /* ADDR OF TIME SHARING CVT     */ 66200000
*     3 CVTTSFLG CHAR(1),            /* TIME SHARING OPTION FLAGS    */ 66250000
*      4 CVTTSRDY BIT(1),            /* TSO READY AND INIT           */ 66300000
*      4 *        BIT(7),            /* RESERVED                     */ 66350000
*     3 CVTTSCVB PTR(24),            /* ADDR OF TIME SHARING CVT     */ 66360000
*    2 CVT0SCR1 PTR(31),             /* ADDR OF RPS SECTOR              66400021
*                                         CONVERTER                  */ 66410000
*    2 CVTGTF   PTR(31),             /* GENERALIZED TRACE FACILITY   */ 67400021
*     3 CVTGTFST CHAR(1),            /* STATUS FLAGS                 */ 67450021
*      4 CVTGTFS  BIT(2),            /* STATE                        */ 67500021
*% CVTGTFIN = '''00''B' ;            /* INACTIVE                     */ 67550021
*% CVTGTFSR = '''01''B' ;            /* STARTING                     */ 67560021
*% CVTGTFSP = '''10''B' ;            /* STOPPING                     */ 67570021
*% CVTGTFAC = '''11''B' ;            /* ACTIVE                       */ 67580021
*      4 CVTSTATE BIT(1),            /* IN CONTROL                   */ 67590021
*      4 CVTMODE  BIT(1),            /* EXT MODE                     */ 67592021
*      4 CVTFORM  BIT(1),            /* ABDUMP TO FORMAT TRACE DATA  */ 67594021
*      4 CVTUSR   BIT(1),            /* USR TRACE                    */ 67596021
*      4 CVTMCTYP BIT(1),            /* MC INSTRUCTION VALID         */ 67598021
*      4 *        BIT(1),            /* RESERVED                     */ 67598421
*     3 CVTCMT   PTR(24) BDY(WORD,2),/* ADDRESS OF CLASS MASK TABLE  */ 67598821
*    2 CVTAQAVT  PTR(31),            /* POINTER TO WORD CONTAINING      67600000
*                                         ADDR OF TCAM VECTOR TABLE  */ 67610000
*     3 CVTTCMFG CHAR(1),            /* TCAM FLAGS                   */ 67800000
*      4 CVTTCRDY BIT(1),            /* TCAM RUNNING                 */ 68000000
*      4 *        BIT(7),            /* RESERVED                     */ 68200000
*     3 CVTAQAVB PTR(24),            /* POINTER TO WORD CONTAINING      68210021
*                                       ADDR OF TCAM VECTOR TABLE    */ 68220021
*                                                                       68600000
* /*            MFT WITH SUBTASKING OR MVT CVT EXTENSION             */ 68800021
*                                                                       69000000
*    2 CVTVOLM2 PTR(31),             /* ADDRESS OF TABLE FOR POWER      69050021
*                                       WARNING FEATURE (PWF)           69100021
*                                       (MVT)                  S21167*/ 69150021
*     3 CVTTATA  PTR(31),            /* ADDR OF P0 TCB POINTER (MFT) */ 69200021
*      4 CVTTSKS  PTR(8),            /* MAXIMAL NUMBER OF TCB ADDR      69260021
*                                       TAB ENTRIES (MFT)            */ 69320021
*       5 CVTVOLF2 BIT(8),           /* PWF FLAG BYTE.  THIS BYTE IS    69380021
*                                       OVERLAID BY CVTVOLM2 AFTER      69440021
*                                       PWF INITIALIZATION.  (MVT)      69500021
*                                                              S21167*/ 69560021
*        6 CVTVOLI2 BIT(1),          /* PWF INITIALIZATION HAS NOT      69620021
*                                       OCCURRED (MVT)         S21167*/ 69680021
*      4 CVTTAT   PTR(24),           /* ADDR OF P0 TCB POINTER (MFT) */ 69800021
*       5 CVTVOLT2 PTR(24),          /* PWF RECHECK TIME DELAY.  THIS   69850021
*                                       VALUE IS OVERLAID BY CVTVOLM2   69900021
*                                       AFTER PWF INITIALIZATION.       69950021
*                                       (MVT)                  S21167*/ 70000021
*    2 CVTATER  PTR(31),             /* POINTER TO SYSTEM ERROR         70050021
*                                       TCB (MFT)              ICB306*/ 70100021
*     3 CVTSYST  PTR(8),             /* NUMBER OF SYSGEN'D TCB'S        70150021
*                                       (MFT)                        */ 70200021
*     3 CVTATERA PTR(24),            /* ADDRESS OF SYSTEM ERROR         70250021
*                                       TCB (MFT)              ICB306*/ 70300021
*                                                                       70410021
* /*          MVT/MFT CVT CONTINUATION                               */ 70460021
*                                                                       70470021
*    2 CVTEXT1  PTR(31),             /* ADDRESS OF COMMON EXTENSION 1   70480021
*                                       (ICB421)   APAR'S 47331,47332*/ 70482021
*    2 *        PTR(31),             /* RESERVED                     */ 70490021
*    2 CVTPURG  PTR(31),             /* ADDRESS OF SUBSYSTEM PURGE      70492021
*                                       ROUTINE                      */ 70494021
*     3 *        CHAR(1),            /* RESERVED                     */ 70496021
*     3 CVTPURGA PTR(24),            /* ADDRESS OF SUBSYSTEM PURGE      70498021
*                                       ROUTINE                      */ 70498421
*    2 *        PTR(31),             /* RESERVED                     */ 70498521
*    2 CVTQMSG  PTR(31),             /* SAME AS CVTQMSGA BELOW ICB307*/ 70498621
*     3 *        CHAR(1),            /* RESERVED               ICB307*/ 70498721
*     3 CVTQMSGA PTR(24),            /* ADDRESS OF TYPE 1 SVC - ABEND   70511521
*                                       COMMUNICATION AREA     ICB307*/ 70521521
*    2 CVTDMSR  PTR(31),             /* SAME AS CVTDMSRA BELOW ICB308*/ 70523521
*     3 *        CHAR(1),            /* RESERVED               ICB308*/ 70523921
*     3 CVTDMSRA PTR(24);            /* ADDRESS OF OPEN/CLOSE/EOV       70524321
*                                       SUPERVISORY ROUTINE    ICB308*/ 70528621
*                                                                       70530621
* /*                                                                 */ 70532621
* /*           COMMON EXTENSION 1                                    */ 70532721
* /*                                                                 */ 70534721
*                                                                       70537121
* DECLARE                                                               70539121
*   1 CVTXTNT1 BASED(CVTEXT1),       /* START OF COMMON EXTENSION 1     70541121
*                                       (ICB421)   APAR'S 47331,47332*/ 70541221
*    2 CVTFACHN PTR(31);             /* ADDRESS OF CHAIN OF DCB FIELD   70541321
*                                       AREAS (ISAM) (ICB421)           70545021
*                                                  APAR'S 47331,47332*/ 70547721
*                                                                       70548921
* /*                      PCP OVERLAY                                */ 70552621
*                                                                       70556321
* DECLARE                                                               70560000
*   1 * BASED(ADDR(CVTQCDSR ) ),     /* PCP OVERLAY                  */ 70570000
*    2 CVTCRTTR CHAR(3),             /* TTR OF JCT FOR RESTART (PCP) */ 70600000
*    2 CVTSTUSA CHAR(1),             /* STATUS BYTE A                */ 70610000
*     3 *        BIT(1),             /* RESERVED                     */ 70612000
*     3 *        BIT(1),             /* RESERVED                     */ 70612400
*     3 *        BIT(1),             /* RESERVED                     */ 70612800
*     3 *        BIT(1),             /* RESERVED                     */ 70612900
*     3 CVTCHPTR BIT(1),             /* - REQUESTED AUTOMATIC           70633600
*                                       CHECKPOINT RESTART WAS          70635600
*                                       INITIATED                    */ 70637600
*     3 CVTSTEPR BIT(1),             /* - REQUESTED AUTOMATIC STEP      70639600
*                                       RESTART WAS INITIATED        */ 70640000
*     3 CVTDATA  BIT(1),             /* - DD DATA STATEMENT IN INPUT    70650000
*                                       STREAM AND DATA HAS NOT BEEN    70652000
*                                       READ                         */ 70654000
*     3 *        BIT(1),             /* RESERVED                     */ 70654400
*    2 *        CHAR(2),             /* RESERVED                     */ 70654800
*    2 *        CHAR(2);             /* RESERVED                     */ 70654900
*                                                                       70655000
* /*                      CVT PREFIX                                 */ 70655100
*                                                                       70668900
*    DCL 1 CVTFIX BASED (ADDR (CVTMAP) - 256), /* CVT PREFIX         */ 70675800
*    2 *        CHAR(248),           /* RESERVED                     */ 70727200
*    2 *        CHAR(2),             /* RESERVED                     */ 70737200
*    2 CVTMDL   CHAR(2),             /* CPU MODEL NUMBER IN SIGNLESS    70737621
*                                       PACKED DECIMAL, I.E., A MODEL   70751621
*                                       50 WOULD BE REPRESENTED AS      70761621
*                                       0050 HEX                     */ 70763621
*    2 CVTRELNO CHAR(4);             /* OS RELEASE NUMBER (EBCDIC)   */ 70765421
*                                                                       70779300
* /*                   END OF CVT MACRO                              */ 70800000
*                                                                       70810000
