         MACRO                                                          00020000
         IEAQTR &TRACE,&M65MP                                        MP 00040017
         LCLA  &NUMB,&NUMB4                                             00060000
         LCLB  &QNOTMP,&QM65MP                                       MP 00065017
&QM65MP  SETB  ('&M65MP' EQ '1'  OR  '&M65MP' EQ 'M65MP')            MP 00070017
&QNOTMP  SETB  (NOT &QM65MP)                                         MP 00075017
&NUMB    SETA  32*(&TRACE+1)                                       9301 00085017
&NUMB4   SETA  4*(&TRACE+1)                                        9301 00095017
IEAQTRCE START 0                                                        00120000
         AIF   (&QNOTMP).M65MP00                                     MP 00122017
         EJECT                                                          00124017
         IEAQFX 65,MCH,M65MP                                         MP 00126017
         EJECT                                                          00128017
IEAQTRCE CSECT                                                       MP 00130017
         USING IEAQFX00,0                                          MP65 00132017
.M65MP00 ANOP                                                        MP 00134017
         TITLE 'OPTION 4  TRACE ROUTINE'                                00140000
*...T R A C E   R O U T I N E...                                        00160000
         SPACE 2                                                        00180000
         TITLE '             COMMENTARY FOR TRACE ROUTINE'              00200000
* ROUTINE NAME                                                          00220000
         SPACE                                                          00240000
*        IEAQTRCE- OPTION 4 TRACE ROUTINE.                              00260000
         SPACE 2                                                        00280000
* FUNCTION                                                              00300000
         SPACE                                                          00320000
*        PROVIDES A TRACE FUNCTION FOR 6 EVENTS-                        00340000
*        1. EXTERNAL INTERRUPTS.                                        00360000
*        2. I/O INTERRUPTS.                                             00380000
*        3. PROGRAM INTERRUPTS                                          00400000
*        4. SVC INTERRUPTS.                                             00420000
*        5. START I/O (FROM IOS)                                        00440000
*        6. DISPATCHER EXIT CONDITIONS                                  00460000
         SPACE                                                          00480000
*        FORMATS FOR EACH EVENT FOLLOW THE COMMENTARY                   00500000
         SPACE 2                                                        00520000
* ENTRY POINT NAMES                                                     00540000
         SPACE                                                          00560000
*        1. TREX-  TRACE ENTRY FOR EXTERNAL INTERRUPTS.                 00580000
*        2. TRIO-  TRACE ENTRY FOR I/O INTERRUPTS.                      00600000
*        3. TRPI-  TRACE ENTRY FOR PROGRAM INTERRUPTS.                  00620000
*        4. TRSVC- TRACE ENTRY FOR SVC INTERRUPTS.                      00640000
*        5. TRSIO- TRACE ENTRY FOR START I/O.                           00660000
*        6. TRDISP-TRACE ENTRY FOR DISPATCHER.                          00680000
*        7. TRSAV- TRACE BUILD AREA.                                    00700000
*        8. IECXTRA- TRACE INHIBIT SWITCH.                              00720000
         SPACE 2                                                        00740000
* CONTAINED IN MODULE                                                   00760000
         SPACE                                                          00780000
*        IEAQTRCE- OPTION 4 TRACE ROUTINE.                              00800000
         SPACE 2                                                        00820000
* ATTRIBUTES                                                            00840000
         SPACE                                                          00860000
*        1. SUPERVISOR STATE.                                           00880000
*        2. DISABLED FOR ALL MASKABLE INTERRUPTS.                       00900000
*        3. RESIDENT.                                                   00920000
*        4. SERIALLY REUSABLE.                                          00940000
         SPACE 2                                                        00960000
* APPLICABILITY                                                         00980000
         SPACE                                                          01000000
*        OPTION 4 SYSTEMS                                               01020000
         SPACE 2                                                        01040000
* EXTERNAL REFERENCES                                                   01060000
         SPACE                                                          01080000
*        1. IEATCBP-   'NEW' AND 'OLD' TCB POINTERS                     01100000
*        2. IEATPC-    TIMER PSEUDO CLOCKS                              01120000
*        3. FUDGESTR-  TEMPORARY LOW CORE REGISTER SAVE AREA.           01140000
         SPACE 2                                                        01160000
* SVC USAGE                                                             01180000
         SPACE                                                          01200000
*        NONE                                                           01220000
         SPACE 2                                                        01240000
* INPUT                                                                 01260000
         SPACE                                                          01280000
*        1. EXTERNAL INTERRUPTS                                         01300000
*              .REGS 0,1,15                                             01320000
*              .EX OPSW                                                 01340000
*              .IF TIMER INTERRUPT, 1ST WORD OF TQE TRACED.             01360000
*              .TIMER VALUE                                             01380000
*        2. I/O INTERRUPTS                                              01400000
*              .IO OPSW                                                 01420000
*              .CSW                                                     01440000
*              .TIMER VALUE                                             01460000
*        3. PROGRAM INTERRUPTS                                          01480000
*              .REGS 0,1,15                                             01500000
*              .PI OPSW                                                 01520000
*              .CURRENT TCB                                             01540000
*              .TIMER VALUE                                             01560000
*        4. SVC INTERRUPT                                               01580000
*              .REGS 0,1,15                                             01600000
*              .SVC OPSW                                                01620000
*              .CURRENT TCB                                             01640000
*              .TIMER VALUE                                             01660000
*        5. START I/O                                                   01680000
*              .REGS 1,6,10                                             01700000
*              .CAW                                                     01720000
*              .CSW                                                     01740000
*              .TIMER VALUE                                             01760000
*        6. DISPATCHER                                                  01780000
*              .REGS 0,1,15                                             01800000
*              .PSW RECEIVING CONTROL.                                  01820000
*              .NEW TCB ADDRESS                                         01840000
*              .TIMER VALUE                                             01860000
         SPACE 2                                                        01880000
* OUTPUT                                                                01900000
         SPACE                                                          01920000
*        ENTRY IN TRACE TABLE (SEE FORMATS)                             01940000
         SPACE 2                                                        01960000
* ENTRY POINTS                                                          01980000
         SPACE                                                          02000000
*        1. TREX-   TRACE ENTRY FOR EXTERNAL INTERRUPTS.                02020000
*          .THE PSW IS DISABLED FOR SYSTEM INTERRUPTS, IS IN SUPERVISOR 02040000
*           STATE, AND HAS THE SUPERVISOR PROTECTION KEY.               02060000
*          .REGISTERS 0,1 ARE AS AT TIME OF INTERRUPT.                  02080000
*          .REGISTERS 2-9 ARE IRRELEVANT.                               02100000
*          .REGISTER 10 CONTAINS THE ENTRY POINT ADDRESS OF THE TRACE   02120000
*           CODE.                                                       02140000
*          .REGISTER 11 CONTAINS THE RETURN ADDRESS.                    02160000
*          .REGISTERS 12-14 ARE IRRELEVANT.                             02180000
*          .REGISTER 15 IS AS AT TIME OF INTERRUPT.                     02200000
*        2. TRIO-   TRACE ENTRY FOR I/O INTERRUPTS.                     02220000
*          .THE PSW IS DISABLED FOR SYSTEM INTERRUPTS, IS IN SUPERVISOR 02240000
*           STATE, AND HAS THE SUPERVISOR PROTECT KEY.                  02260000
*          .REGISTERS 0-2 ARE AS AT TIME OF INTERRUPT.                  02280000
*          .REGISTERS 3,4 ARE IRRELEVANT.                               02300000
*          .REGISTERS 5-9 ARE AS AT TIME OF INTERRUPT.                  02320000
*          .REGISTERS 10 CONTAINS THE ENTRY POINT ADDRESS OF THE TRACE  02340000
*           CODE.                                                       02360000
*          .REGISTER 11 CONTAINS THE RETURN ADDRESS.                    02380000
*          .REGISTERS 12-15 ARE AS AT TIME OF INTERRUPT.                02400000
*        3. TRPI-   TRACE ENTRY FOR PROGRAM INTERRUPTS.                 02420000
*          .THE PSW IS DISABLED FOR SYSTEM INTERRUPTS, IS IN SUPERVISOR 02440000
*           STATE, AND HAS THE SUPERVISOR PROTECT KEY.                  02460000
*          .REGISTERS 0-9,12-15 ARE AS AT TIME OF INTERRUPT.            02480000
*          .REGISTER 10 CONTAINS THE ENTRY POINT ADDRESS OF THE TRACE   02500000
*           CODE.                                                       02520000
*          .REGISTER 11 CONTAINS THE RETURN ADDRESS.                    02540000
*        4. TRSVC-  TRACE ENTRY FOR SVC INTERRUPTS.                     02560000
*          .THE PSW IS DISABLED FOR SYSTEM INTERRUPTS, IS IN SUPERVISOR 02580000
*           STATE, AND HAS THE SUPERVISOR PROTECT KEY.                  02600000
*          .REGISTERS 0-9,12-15 ARE AS AT TIME OF INTERRUPT.            02620000
*          .REGISTER 10 CONTAINS THE ENTRY POINT ADDRESS OF THE TRACE   02640000
*           CODE.                                                       02660000
*          .REGISTER 11 CONTAINS THE RETURN ADDRESS.                    02680000
*        5. TRSIO-  TRACE ENTRY FOR START I/O.                          02700000
*          .THE PSW IS DISABLED FOR SYSTEM INTERRUPTS, IS IN SUPERVISOR 02720000
*           STATE, AND HAS THE SUPERVISOR PROTECT KEY.                  02740000
*          .REGISTERS 0,2-5,7,8,11-15 CONTAIN IRRELEVANT DATA.          02760000
*          .REGISTER 1 CONTAINS THE 16* ADDRESS RELATED TO THE SIO.     02780000
*          .REGISTER 6 CONTAINS THE DEVICE ADDRESS.                     02800000
*          .REGISTER 9 CONTAINS THE ENTRY POINT ADDRESS OF TRSIO.       02820000
*          .REGISTER 10 CONTAINS THE CONDITION CODE.                    02840000
*        6. TRDISP- TRACE ENTRY FOR DISPATCHER.                         02860000
*          .THE PSW IS DISABLED FOR SYSTEM INTERRUPTS, IS IN SUPERVISOR 02880000
*           STATE, AND HAS THE SUPERVISOR PROTECT KEY.                  02900000
*          .REGISTERS 0-9,13,15 ARE IRRELEVANT.                         02920000
*          .REGISTER 10 CONTAINS THE ENTRY POINT ADDRESS OF THE TRACE   02940000
*           CODE.                                                       02960000
*          .REGISTER 11 CONTAINS THE RETURN ADDRESS.                    02980000
*          .REGISTER 12 CONTAINS THE NEW RB ADDRESS.                    03000000
*          .REGISTER 14 CONTAINS THE NEW TCB ADDRESS.                   03020000
         SPACE 2                                                        03040000
* EXIT POINTS                                                           03060000
         SPACE                                                          03080000
*        1. BRANCH BACK TO CALLER                                       03100000
*          .THE PSW IS DISABLED FOR SYSTEM INTERRUPTS, IS IN SUPERVISOR 03120000
*           STATE, AND HAS THE SUPERVISOR PROTECT KEY.                  03140000
*          .REGISTERS 0-9,12-15 ARE TRANSPARENT OVER ROUTINE EXCEPT FOR 03160000
*           DISPATCHER TRACE WHERE 12 AND 13 ARE VOLATILE.              03180000
*          .REGISTER 10- TRACE CODE BASE REG (IRRELEVANT).              03200000
*          .REGISTER 11- RETURN ADDRESS.                                03220000
         SPACE 2                                                        03240000
* ERROR EXIT POINTS                                                     03260000
         SPACE                                                          03280000
*        NONE                                                           03300000
         SPACE 2                                                        03320000
* TABLES AND CONTROL BLOCKS REFERENCED                                  03340000
         SPACE                                                          03360000
*        1. TRACE TABLE-           ALTERED                              03380000
*        2. IEATCBP (NEW AND OLD)- NOT ALTERED                          03400000
         SPACE 2                                                        03420000
* LIST ORIGINS, TABLES, CONTROL BLOCKS INCLUDED                         03440000
         SPACE                                                          03460000
*        1. TRACE TABLE                                                 03480000
         SPACE 2                                                        03500000
* RESTRICTIONS                                                          03520000
         SPACE                                                          03540000
*        NONE                                                           03560000
         SPACE 2                                                        03580000
* NOTES                                                                 03600000
         SPACE                                                          03620000
*        TO MINIMIZE SYSTEM DEGRADATION AND MAXIMIZE SYSTEM       21014 03630000
*        PERFORMANCE, THE GTF CODE (21014) SHOULD COME AS         21014 03640000
*        EARLY IN EACH ENTRY AS POSSIBLE.                         21014 03650000
         EJECT                                                          03660000
* NOTE THAT THE IDENTIFIER IS IN THE PSW FOR EXTERNAL, I/O, SVC, AND    03680000
* PROGRAM INTERRUPT AND DISPATCHER TRACES. IT IS LOCATED IN BIT         03700000
* POSITION 4 (THE 5TH BIT FROM THE LEFT).                               03720000
         SPACE 3                                                        03740000
* EXTERNAL INTERRUPT                                                    03760000
         SPACE                                                          03780000
* .................................................................     03800000
* .               .       .       .       .       .       .       .     03820000
* .    EXTERNAL   .  REG  .  REG  .  REG  . RE-   . TIMER . TIMER .     03840000
* .     OLD PSW   .   15  .   0   .   1   . SERVED. INTRPT. VALUE .     03860000
* . IDENTIFIER= 1 .       .       .       .       . TQE   .       .     03880000
* .               .       .       .       .       . 1ST WD.       .     03900000
* .0.......4.......8.......C.......0.......4.......8.......C.......     03920000
         SPACE 3                                                        03940000
* I/O INTERRUPT                                                         03960000
         SPACE                                                          03980000
* .................................................................     04000000
* .               .               .       .       .       .       .     04020000
* .      I/O      .      CSW      . RE-   . RE-   . RE-   . TIMER .     04040000
* .    OLD PSW    .               . SERVED. SERVED. SERVED. VALUE .     04060000
* . IDENTIFIER= 5 .               .       .       .       .       .     04080000
* .               .               .       .       .       .       .     04100000
* .0.......4.......8.......C.......0.......4.......8.......C.......     04120000
         SPACE 3                                                        04140000
* PROGRAM INTERRUPT                                                     04160000
         SPACE                                                          04180000
* .................................................................     04200000
* .               .       .       .       .       .       .       .     04220000
* .      PI       .       .       .       .       .       .       .     04240000
* .    OLD PSW    .  REG  .  REG  .  REG  . RE-   .CURRENT. TIMER .     04260000
* . IDENTIFIER= 3 .   15  .   0   .   1   . SERVED.  TCB  . VALUE .     04280000
* .               .       .       .       .       .       .       .     04300000
* .0.......4.......8.......C.......0.......4.......8.......C.......     04320000
         EJECT                                                          04340000
* SVC INTERRUPT                                                         04360000
         SPACE                                                          04380000
* .................................................................     04400000
* .               .       .       .       .       .       .       .     04420000
* .      SVC      .  REG  .  REG  .  REG  . RE-   .CURRENT. TIMER .     04440000
* .    OLD PSW    .   15  .   0   .   1   . SERVED.  TCB  . VALUE .     04460000
* . IDENTIFIER= 2 .       .       .       .       .       .       .     04480000
* .               .       .       .       .       .       .       .     04500000
* .0.......4.......8.......C.......0.......4.......8.......C.......     04520000
         SPACE 3                                                        04540000
* START I/O    IDENTIFIER = 0                                           04560000
         SPACE                                                          04580000
* .................................................................     04600000
* .   .   .       .               .               .       .       .     04620000
* . C . D .  CAW  .      CSW      .   RESERVED    . TCB   . TIMER .     04640000
* . C . E .       .               .               . FROM  . VALUE .     04660000
* .   . V .       .               .               . 16 *  .       .     04680000
* .   .   .       .               .               .       .       .     04700000
* .0.......4.......8.......C.......0.......4.......8.......C.......     04720000
         SPACE 3                                                        04740000
* DISPATCHER                                                            04760000
         SPACE                                                          04780000
* .................................................................     04800000
* .               .       .       .       .       .       .       .     04820000
* . NEW PSW TO BE .  REG  .  REG  .  REG  . RE-   .  NEW  . TIMER .     04840000
* .    LOADED     .   15  .   0   .   1   . SERVED.  TCB  . VALUE .     04860000
* . IDENTIFIER= D . (NEW) . (NEW) . (NEW) .       .       .       .     04880000
* .               .       .       .       .       .       .       .     04900000
* .0.......4.......8.......C.......0.......4.......8.......C.......     04920000
         SPACE 3                                                        04940000
*        ENTRY/EXTRN DEFINITION                                         04960000
         SPACE 1                                                        04980000
         ENTRY TREX,TRPI,TRSVC,TRIO,TRDISP,TRSIO                        05000000
         ENTRY TRACE                                                    05020000
         ENTRY TRPTR                    CURRENT TRACE POINTER           05040000
         ENTRY IECXTRA            TRACE INHIBIT SWITCH             FLSF 05050017
         SPACE 3                                                        05060000
*        REGISTER EQUATES                                               05080000
         SPACE 1                                                        05100000
R1       EQU   1                       REG 1                            05102017
RA       EQU   10                      .REG 10                          05104017
RB       EQU   11                      .REG 11                          05106017
RC       EQU   12                      .REG 12                          05108017
RD       EQU   13                      .REG 13                          05110017
RE       EQU   14                      .REG 14                          05112017
RF       EQU   15                      .REG 15                          05114017
XTRBASE  EQU   10                                                       05120000
XRET     EQU   11                                                       05140000
TRPTRG   EQU   12                                                       05160000
XPIAFFLK EQU   14                      .CVTAFFLK IN LAST BYTE      MP65 05170017
XWKA     EQU   14                                                       05180000
XWKB     EQU   15                                                       05200000
         SPACE 3                                                        05220000
*        COUNT-FIELD EQUATES.                                           05222017
C1       EQU   1                       .BYTE                            05224017
C2       EQU   2                       .HALF WORD.                      05226017
C3       EQU   3                       .ADDRESS OR THREE-BYTE TMR. MP65 05228017
C4       EQU   4                       .FULL WORD.                      05230017
C8       EQU   8                       .DOUBLE WORD.                    05232017
*        GENERAL EQUATES                                                05240000
         SPACE 1                                                        05260000
PSW      EQU   0                                                        05280000
REG      EQU   8                                                        05300000
DEV      EQU   0                                                        05320000
CAW      EQU   4                                                        05340000
CSW      EQU   8                                                        05360000
         AIF   (&QM65MP).NOTMP00                                     MP 05370017
VAR      EQU   20                                                       05380000
TCB      EQU   24                                                       05400000
TIMER    EQU   28                                                       05420000
.NOTMP00 ANOP                                                        MP 05421017
         AIF   (&QNOTMP).M65MP01                                     MP 05422017
TCB      EQU   16            .(SIO) TCB FROM 16*                   MP65 05422917
STM      EQU   20            .(EXT) SHOULDER-TAP MASK              MP65 05423817
TCBA     EQU   20            .(DISP) NEWA (SVC,SSM,PI) OLDA        MP65 05424717
AFFLK    EQU   TCBA          .(SSM) CVTAFFLK BEFORE ACTION OF SSM  MP65 05425617
TCBB     EQU   TCBA+4        .(DISP) NEWB (SVC,SSM,PI) OLDB        MP65 05426517
TQE      EQU   24            .(EXT) TQEFLAGS/TQETCB (TIMER INT)    MP65 05427417
TMR      EQU   28            .VALUE OF ACTIVE TIMER                MP65 05428317
CPU      EQU   TMR+3         .CPUID                                MP65 05429217
FLGTRSSM EQU   X'40'                   .ID FOR SSM-TRACE ENTRIES.  MP65 05430117
.M65MP01 ANOP                                                        MP 05431017
         SPACE 3                                                        05440000
         AIF   (&QM65MP).NOTMP01                                     MP 05450017
EXOPSW   EQU   X'18'                                                    05460000
IOOPSW   EQU   X'38'                                                    05480000
PIOPSW   EQU   X'28'                                                    05500000
SVCOPSW  EQU   X'20'                                                    05520000
.NOTMP01 ANOP                                                        MP 05530017
RBOPSW   EQU   16                       RESUME PSW IN RB                05540000
         SPACE 3                                                        05560000
***  TRACE ENTRY FOR SVC INTERRUPTS                                     05580000
         SPACE 1                                                        05600000
         USING *,XTRBASE                                                05620000
         SPACE 1                                                        05640000
TRSVC    ST    XRET,TREGSV              SAVE RETURN                     05660000
         BAL   XTRBASE,PRECOM           INITIAL PHASE                   05680000
         USING *,XTRBASE                                                05700000
*    RETURN FROM COMMON ROUTINE.                                        05720000
         MVC   PSW(8,TRPTRG),SVCOPSW    TRACE SVC OLD PSW               05740000
         OI    PSW+2(TRPTRG),X'20'      FLAG TRACE AS SVC               05760000
         AIF   (&QM65MP).NOTMP02                                     MP 05770017
         LA    XTRBASE,TRPI+8           SET BASE FOR COMMON             05780000
         USING TRPI+8,XTRBASE                                           05800000
         BC    15,TRCOMM                GO TO COMMON TRACE              05820000
.NOTMP02 ANOP                                                        MP 05824017
         AIF   (&QNOTMP).M65MP02                                     MP 05828017
         B     POSTCOM                 .PREPARE TO RETURN.         MP65 05832017
.M65MP02 ANOP                                                        MP 05836017
         SPACE 3                                                        05840000
***  TRACE ENTRY FOR I/O INTERRUPTS                                     05860000
         SPACE 1                                                        05880000
         USING *,XTRBASE                                                05900000
         SPACE 1                                                        05920000
TRIO     ST    XRET,TREGSV              SAVE RETURN                     05940000
         BAL   XTRBASE,PRECOM           INITIAL PHASE                   05960000
         USING *,XTRBASE                                                05980000
*    RETURN FROM COMMON ROUTINE.                                        06000000
         MVC   PSW(8,TRPTRG),IOOPSW     TRACE I/O OLD PSW               06020000
         OI    PSW+2(TRPTRG),X'50'      FALG TRACE AS IO                06040000
         MVC   CSW(8,TRPTRG),64         TRACE CSW                       06060000
         BC    15,POSTCOM               GO TO CLEAN UP                  06080000
         SPACE 3                                                        06100000
***  TRACE ENTRY FOR SIO                                                06120000
         SPACE 1                                                        06140000
TRACE    DS    0C                                                       06160000
         USING *,9                                                      06180000
TRSIO    STM   10,11,TREGSV-4           SAVE REGS                       06200000
         BAL   XTRBASE,PRECOM           INITIAL PHASE                   06220000
*    RETURN FROM COMMON ROUTINE                                         06240000
         L     10,TREGSV-4              RESTORE REG                     06260000
         ST    6,DEV(TRPTRG)            STORE DEVICE                    06280000
         STC   10,DEV(TRPTRG)           STORE COND CODE                 06300000
         NI    DEV(TRPTRG),X'30'        CLEAR ILC BITS                  06320000
         MVC   CAW(4,TRPTRG),72         TRACE CAW                       06340000
         MVC   CSW(8,TRPTRG),64         TRACE CSW                       06360000
         MVC   TCB(4,TRPTRG),12(1)      TRACE 16* TCB                   06380000
         BC    15,POSTCOM               CLEAN UP AND RETURN             06400000
         SPACE 3                                                        06420000
***  TRACE ENTRY FOR EXTERNAL INTERRUPT                                 06440000
         SPACE 1                                                        06460000
TQEPTR   EQU   12                       TQE PTR OFFSET FROM SHPC        06480000
TQETCB   EQU   0                                                        06500000
         SPACE 1                                                        06520000
         USING *,XTRBASE                                                06540000
TREX     ST    XRET,TREGSV              SAVE RETURN                     06560000
         BAL   XTRBASE,PRECOM           INITIAL PHASE                   06580000
         USING *,XTRBASE                                                06600000
*    RETURN FROM COMMON ROUTINE.                                        06620000
         AIF   (&QM65MP).NOTMPEX                                     MP 06630017
         L     RF,TREGSV+16        .RESTORE REG 15 FOR TRACE  AB  M0447 06632021
         STM   15,1,REG(TRPTRG)         TRACE 15,0,1                    06640000
.NOTMPEX ANOP                                                        MP 06650017
         MVC   PSW(8,TRPTRG),EXOPSW     TRACE EXTERNAL OLD PSW          06660000
         OI    PSW+2(TRPTRG),X'10'      FLAG TRACE AS EXTERNAL          06680000
         AIF   (&QNOTMP).M65MP03                                        06683017
         AIF   (&QNOTMP).M65MP03                                     MP 06685017
         L     RF,PREFIX2              .PREFIX FOR OTHER PSA       MP65 06687017
         MVC   STM(C4,TRPTRG),STMASK-IEAQFX00(RF) .STMASK OTH CPU. MP65 06689017
         XC    TQE(C4,TRPTRG),TQE(TRPTRG)   .(NON-TIMER CASE)      MP65 06691017
.M65MP03 ANOP                                                        MP 06693017
         TM    EXOPSW+3,X'80'           Q. IS IT TIMER INT              06700000
         BC    8,POSTCOM                NO, PREPARE TO EXIT             06720000
         L     XWKA,ASHPC               GET TIMER PSEUDO CLOCK ADDR     06740000
         L     XWKA,TQEPTR(XWKA)        GET TQE PTR VALUE               06760000
         AIF   (&QM65MP).NOTMP03                                     MP 06770017
         MVC   TCB(4,TRPTRG),TQETCB(XWKA)  TRACE TQE FLAG AND TCB       06780000
.NOTMP03 ANOP                                                        MP 06784017
         AIF   (&QNOTMP).M65MP04                                     MP 06788017
         MVC   TQE(C4,TRPTRG),TQETCB(XWKA)  .(TQEFLGS/TQETCB)      MP65 06792017
.M65MP04 ANOP                                                        MP 06796017
         BC    15,POSTCOM               TO CLEAN UP                     06800000
         SPACE 3                                                        06820000
***  TRACE ENTRY FOR DISPATCHER                                         06840000
         SPACE 1                                                        06860000
         USING *,XTRBASE                                                06880000
         SPACE 1                                                        06900000
TRDISP   ST    XRET,TREGSV              SAVE RETURN                     06920000
         BAL   XTRBASE,PRECOM           INITIAL PHASE                   06940000
         USING *,XTRBASE                                                06960000
*    RETURN FROM COMMON ROUTINE                                         06980000
         L     13,TREGSV+4              GET THE RB                      07000000
         MVC   PSW(8,TRPTRG),RBOPSW(13) TRACE THE RESUME PSW            07020000
         OI    PSW+2(TRPTRG),X'D0'      FLAG TRACE AS DISPATCHER        07040000
         AIF   (&QM65MP).NOTMP04                                     MP 07050017
         ST    14,TCB(TRPTRG)           TRACE NEW TCB                   07060000
.NOTMP04 ANOP                                                           07061017
         AIF   (&QNOTMP).M65MP05                                        07062017
*    STORE NEXT CURRENT TCB'S (NEW'S) IN TCBA AND TCBB             MP65 07063017
         L     RD,PREFIX2                                          MP65 07064017
         CLC   CPUID(C1),CPUID-IEAQFX00(RD)      .Q WHICH CPU      MP65 07065017
         L     RE,IEATCBP              .LOAD NEW1                  MP65 07066017
         L     RD,IEATCBP-IEAQFX00(RD)  .AND NEW2                  MP65 07067017
         BL    TRDISP2                 .B IF CPUID=A               MP65 07068017
         STM   RD,RE,TCBA(TRPTRG)                                  MP65 07069017
         B     TRDISP3                                             MP65 07070017
TRDISP2  ST    RE,TCBA(TRPTRG)                                     MP65 07071017
         ST    RD,TCBB(TRPTRG)                                     MP65 07072017
TRDISP3  DS    0H                      .(END BRANCH ON CPUID)      MP65 07073017
.M65MP05 ANOP                                                           07074017
         L     13,108(14)               GET REG 15 FROM NEW TASK        07080000
         LM    14,15,48(14)             GET REGS 081 FROM NEW TASK      07100000
         STM   13,15,REG(TRPTRG)        TRACE THE REGS                  07120000
         BC    15,POSTCOM               DO CLEAN UP AND RETURN          07140000
         SPACE 3                                                        07160000
         AIF   (&QNOTMP).M65MP06                                     MP 07161017
*** TRACE ENTRY FOR SSM INTERRUPTS                                 MP65 07162017
         ENTRY TRSSM                                               MP65 07163017
         SPACE 1                                                   MP65 07164017
         USING *,XTRBASE                                           MP65 07165017
         SPACE 1                                                   MP65 07166017
TRSSM    ST    XRET,TREGSV                                         MP65 07167017
         BAL   XTRBASE,PRECOM                                      MP65 07168017
         USING *,XTRBASE                                           MP65 07169017
*     RETURN FROM COMMON ROUTINE                                   MP65 07170017
         MVC   PSW(C8,TRPTRG),PIOPSW   .MOVE PIOPSW. TO TRT LINE.  MP65 07171017
         OI    PSW+2(TRPTRG),FLGTRSSM  .FLAG FOR SSM TRACE ENTRY.  MP65 07172017
         MVC   AFFLK(C1,TRPTRG),TREGSV15                           MP65 07173017
         B     POSTCOM                 .PREPARE TO RETURN.         MP65 07174017
         SPACE 3                                                   MP65 07175017
.M65MP06 ANOP                                                        MP 07176017
***  TRACE ENTRY FOR PROGRAM INTERRUPTS                                 07180000
         SPACE 1                                                        07200000
         USING *,XTRBASE                                                07220000
         SPACE 1                                                        07240000
TRPI     ST    XRET,TREGSV              SAVE RETURN                     07260000
         BAL   XTRBASE,PRECOM           INITIAL PHASE                   07280000
         USING *,XTRBASE                                                07300000
*    RETURN FROM COMMON ROUTINE                                         07320000
         MVC   PSW(8,TRPTRG),PIOPSW     TRACE PGM INT OLD PSW           07340000
         MVI   PSW+2(TRPTRG),X'30'      FLAG TRACE AS PI      AB A46031 07360021
         SPACE 3                                                        07380000
         AIF   (&QM65MP).NOTMP05                                     MP 07390017
*    THIS ROUTINE COMMON TO SVC AND PI TRACE                            07400000
         SPACE 1                                                        07420000
TRCOMM   EQU   *                                                        07430021
         L     RF,TREGSV+16        .RESTORE REG 15            AB  M0447 07432021
         STM   15,1,REG(TRPTRG)         TRACE REGS 15,0,1               07440021
         L     14,AIEATCBP              GET 'NEW/OLD'                   07460000
         MVC   TCB(4,TRPTRG),4(14)      TRACE CURRENT                   07480000
         BC    15,POSTCOM               TO CLEAN UP                     07500000
         SPACE 3                                                        07520000
.NOTMP05 ANOP                                                        MP 07524017
         AIF   (&QNOTMP).M65MP07                                     MP 07528017
         B     POSTCOM                 .PREPARE TO RETURN.         MP65 07532017
.M65MP07 ANOP                                                        MP 07536017
***  PRECOMMON                                                          07540000
*    PERFORM FUNCTIONS APPLICABLE TO ALL ENTRIES                        07560000
         SPACE 1                                                        07580000
PRECOM   DS    0C                                                       07600000
         BALR  XRET,0                   SET BASE VALUE                  07620000
         USING *,XRET                                                   07640000
         SPACE 1                                                        07660000
POINT    DS    0C                                                       07680000
*        MVZ   IECXTRA+1,X'20'          PICK UP SWITCH                  07700000
IECXTRA  BC    0,NOTRACE                BRANCH IF SWITCH ON             07720000
         STM   12,15,TREGSV+4           SAVE REGISTERS                  07740000
*  TO MINIMIZE SYSTEM DEGRADATION AND MAXIMIZE SYSTEM PERFORMANCE 21014 07742000
* THE GTF CODE SHOULD COME AS EARLY AS POSSIBLE                   21014 07744000
         L     XWKB,ADRCVT         GET ADDRESS OF THE CVT               07746021
*                                  USE INTERNAL POINTER                 07746321
*                                  IN CASE X'10' HAS BEEN               07746621
*                                  CLOBBERED SINCE ABTERM               07746921
*                                  HAS NOT  RE-INITIALIZED              07747221
*                                  X'10'                                07747521
         USING CVTDSECT,XWKB      GET CVT ADDRESSABILITY          21014 07748000
         TM    CVTGTF,CVTGTFS     IS GTF ACTIVE                   21014 07750000
         BO    POSTCOM            YES,IGNORE OLD TRACE,GO RETURN  21014 07752000
         L     TRPTRG,TRPTR       GET CURRENT ENTRY                     07760000
         LA    TRPTRG,32(TRPTRG)        ADVANCE IT                      07780000
         CL    TRPTRG,TREND             Q. ARE WE AT END OF TABLE       07800000
         BC    10,*+12                  YES, SKIP OVER                  07820000
STR      ST    TRPTRG,TRPTR             UPDATE CURRENT                  07840000
         BC    15,*+12                  SKIP OVER                       07860000
         L     TRPTRG,TRBEG             RESET TO BEGINNING OF TABLE     07880000
         BC    15,STR                   BACK TO STORE IT                07900000
         AIF   (&QM65MP).NOTMP06                                     MP 07910017
         MVC   TIMER(4,TRPTRG),80       TRACE TIMER                     07920000
.NOTMP06 ANOP                                                        MP 07921017
         AIF   (&QNOTMP).M65MP08                                     MP 07922017
         L    RF,TREGSV+16 .        RESTORE REG 15 FOR TRACE  AB  M0447 07922421
         STM   RF,R1,REG(TRPTRG)     .STORE REGS (15),(0),(1)      MP65 07923017
TRTIMER  L     RD,PREFTMRA             .UPPER THREE BYTES          MP65 07924017
         MVC   TMR(C3,TRPTRG),TIMER-IEAQFX00(RD) . OF ACTIVE TIMER MP65 07925017
TRCPUID  MVC   CPU(C1,TRPTRG),CPUID    .CPU ID TO UNUSED TMR BYTE  MP65 07926017
*    STORE CURRENT TCB'S (OLD'S) IN TCBA AND TCBB                  MP65 07927017
         L     RD,PREFIX2              .PREFIX FOR OTHER CPU.      MP65 07928017
         CLC   CPUID(C1),CPUID-IEAQFX00(RD)      .Q WHICH CPU      MP65 07929017
         BL    TRCPUID2                .B IF CPU-A.                MP65 07930017
         L     RE,IEATCBP+4-IEAQFX00(RD)                           MP65 07931017
         L     RF,IEATCBP+4                                        MP65 07932017
         B     TRCPUID3                                            MP65 07933017
TRCPUID2 L     RE,IEATCBP+4                                        MP65 07934017
         L     RF,IEATCBP+4-IEAQFX00(RD)    .'OLD' FOR OTH CPU.    MP65 07935017
TRCPUID3 STM   RE,RF,TCBA(TRPTRG)      .STORE 'OLD' POINTERS.      MP65 07936017
.M65MP08 ANOP                                                        MP 07937017
         BCR   15,XTRBASE               RETURN                          07940000
         SPACE 3                                                        07960000
***  POST COMMON                                                        07980000
*    CEAN UP BEFORE RETURN                                              08000000
         SPACE 1                                                        08020000
POSTCOM  BALR  XTRBASE,0                ESTABLISH ADDRESSING            08040000
         USING *,XTRBASE                                                08060000
         LM    11,15,TREGSV             RESTORE REGS                    08080000
         BCR   15,XRET                  RETURN                          08100000
         SPACE 1                                                        08120000
         DROP  XTRBASE                                                  08140000
         USING POINT,XRET                                               08160000
NOTRACE  LM    10,11,TREGSV-4           RESTORE REGS                    08180000
         BCR   15,11                    RETURN WITHOUT TRACING          08200000
***  REGISTER SAVE AREA                                                 08220000
         SPACE 1                                                        08240000
         DC    1F'0'                                                    08260000
TREGSV   DC    5F'0'                                                    08280000
TREGSV15 EQU   TREGSV+15               .(SSM) SAVED AFFIN BYTE.    MP65 08285017
         AIF   (&QM65MP).NOTMP07                                     MP 08290017
         EXTRN IEATCBP                                                  08300000
AIEATCBP DC    A(IEATCBP)                                               08320000
.NOTMP07 ANOP                                                        MP 08330017
         EXTRN IEATPC                                                   08340000
ASHPC    DC    A(IEATPC)                                                08360000
TRPTR    DC    A(IEAQTRA)                                               08380000
TRBEG    DC    A(IEAQTRA)                                               08400000
TREND    DC    A(IEAQTRA+&NUMB)                                         08420000
         DC    3D'0'                                                    08440000
ADRCVT   DC    A(IEACVT)           ADDRESS OF THE CVT                   08446021
         EXTRN  IEACVT                                                  08452021
IEAQTRA  DS    &NUMB4.D                                                 08460000
CVTDSECT DSECT                                                    21014 08466000
         CVT                                                            08472000
         MEND                                                           08480000
