         MACRO                                                          00020000
         SGIEE011   &A,&B,&C,&D,&E                                      00040014
*                                                                     * 00060000
*                                                                     * 00080000
*********************************************************************** 00100000
*                                                                     * 00120000
*              JFCB'S FOR START ROUTINE                               * 00140000
*                                                                     * 00160000
*********************************************************************** 00180000
*                                                                     * 00200000
* FUNCTION/OPERATION:  THIS MODULE CONTAINS THE PREFORMATTED JFCB'S   * 00220000
*        USED FOR START COMMAND EXECUTION.  THE MODULE IS LOADED INTO * 00240000
*        CORE BY IEEIC1PE, A JFCB IS MOVED INTO START ROUTINE LOCAL   * 00260000
*        CORE AND THE MODULE IS THEN DELETED.                         * 00280000
*                                                                     * 00300000
* ENTRY POINTS:  CSECT - IEEIC3JF      FROM:  CSECT - IEEIC1PE        * 00320000
*                                                                     * 00340000
* INPUT:  NONE.                                                       * 00360000
*                                                                     * 00380000
* OUTPUT:  NONE - IEEIC1PE PICKS OUT AND MOVES THE JFCB.              * 00400000
*                                                                     * 00420000
* EXTERNAL ROUTINES:  NONE.                                           * 00440000
*                                                                     * 00460000
* EXITS-NORMAL:  NONE - IEEIC1PE DELETES IEEIC3JF AFTER MOVING JFCB.  * 00480000
*                                                                     * 00500000
* EXITS-ERROR:  NONE.                                                 * 00520000
*                                                                     * 00540000
* TABLES/WORK AREAS:  NONE.                                           * 00560000
*                                                                     * 00580000
*********************************************************************** 00600000
*                                                                     * 00620000
*                                                                     * 00640000
         TITLE 'START COMMAND JFCB BLOCKS'                              00660000
IEEIC3JF CSECT                                                          00680000
*                                                                A34564 00685020
.* 024000                                                        A29897 00690019
         SPACE                                                          00700000
         DC    A(JFCBRDR)         INPUT (RDR) JFCB.                     00720000
         DC    A(JFCBWTR)         OUTPUT (WTR) JFCB.                    00740000
*                                      VERSION 3  7/27/65               00760000
         SPACE 2                                                        00780000
         TITLE 'START JFCB   INPUT     UNIT RECORD'                     00800000
JFCBRDR  EQU   *                                 READER                 00820000
         SPACE 2                                                        00840000
*                                 UNIT RECORD                           00860000
         SPACE                                                          00880000
         DC    CL24'SYSIN'        DATASET NAME        DSNM              00900000
         DC    CL20' '             ------.                              00920000
         DC    CL8' '             NAME OR VERSION.    ELNM              00940000
         DC    XL1'01'       OPEN MERGE               TSDM              00960000
         DC    XL13'0'       SYSTEM CODE                                00980000
         DC    XL1'02'            STANDARD LABEL.     LTYP              01000000
         DC    XL1'0'             SPARE.                                01020000
         DC    XL2'0'             FILE SEQUENCE.      FLSQ           *  01040000
         DC    XL2'0'             VOL SEQUENCE.       VLSQ              01060000
         DC    XL8'0'             SPARE MASK          MASK              01080000
         DC    XL6'0'             DATES.              CRDT,XPDT         01100000
         DC    XL1'0'             INDICATOR 1.        IND1              01120000
         DC    XL1'40'     OLD    INDICATOR 2.NEW/OLD IND2           *  01140000
*                       DCB FIELDS.                                     01160000
         DC    AL1(0)                  BUFNO,BUFRQ.                     01180000
         DC    BL1'01000010'           BFTEK,BFALN.                     01200000
         DC    AL2(80)                 BUFL.                            01220000
         DC    BL1'01000000'           EROPT.                           01240000
         DC    BL1'01000001'           MODE,STACK.                      01260000
         DC    AL1(0)                  DEN.                             01280000
         DC    AL3(0)                  LIMCT.                           01300000
         DC    BL2'0100000000000000'   DSORG.                           01320000
         DC    BL1'10111000'           RECFM.                           01340000
         DC    AL1(0)                  OPTCD.                           01360000
         DC    AL2(80)                 BLKSIZE.                         01380000
         DC    AL2(80)                 LRECL.                           01400000
         DC    AL1(0)                  NCP.                             01420000
         DC    AL1(0)                  NTM.                             01440000
         DC    AL2(0)                  RKP.                             01460000
         DC    AL1(0)                  CYLOFL.                          01480000
         DC    AL1(0)                  DBUFNO.                          01500000
         DC    AL1(0)                  INTVL.                           01520000
         DC    AL1(0)                  CPRI.                            01540000
         DC    AL2(0)                  SOWA.                            01560000
         DC    XL1'0'             BLOCK AND TRACK     NTCS              01580000
         DC    XL1'01'            VOL SERIAL COUNT.   NVOL           *  01600000
         DC    CL30'SYSIN'        VOL SERIALS         VOLS              01620000
         DC    XL4'0'             VOL INFO.           EXTL,EXAD         01640000
         DC    XL3'0'             PRIMARY DA QUANTITY PQTY              01660000
         DC    XL1'0'             DA QUANTITY TYPE.   CTRI              01680000
         DC    XL3'0'             2NDARY DA QUANTITY. SQTY              01700000
         DC    XL1'0'             INDICATOR EXTENT.   IND3              01720000
         DC    XL3'0'             DIRECTORY QUANTITY. DQTY              01740000
         DC    XL3'0'             SPLIT JFCB.         SPNM              01760000
         DC    XL2'0'             TTR 1ST ALLOC.      ABST              01780000
         DC    XL3'0'             JFCB SUBALLOC.      SBNM              01800000
         DC    XL3'0'             AV REC LENGTH.      DRLH              01820000
         DC    XL1'1'             VOL COUNT.          VLCT              01840000
         DC    XL1'0'             SPLIT               SPTN              01860000
         DC    XL4'0'                  TO 180                           01880000
         TITLE 'START JFCB   INPUT     TAPE LIKE'                       01900000
*                                 TAPE LIKE.                            01920000
         SPACE                                                          01940000
         DC    CL24'SYSIN'        DATASET NAME        DSNM              01960000
         DC    CL20' '             ------.                              01980000
         DC    CL8' '             NAME OR VERSION.    ELNM              02000000
         DC    XL1'01'       OPEN MERGE               TSDM              02020000
         DC    XL13'0'       SYSTEM CODE                                02040000
         DC    XL1'02'            STANDARD LABEL.     LTYP              02060000
         DC    XL1'0'             SPARE.                                02080000
         DC    XL2'0'             FILE SEQUENCE.      FLSQ           *  02100000
         DC    XL2'0'             VOL SEQUENCE.       VLSQ              02120000
         DC    XL8'0'             SPARE MASK          MASK              02140000
         DC    XL6'0'             DATES.              CRDT,XPDT         02160000
         DC    XL1'0'             INDICATOR 1.        IND1              02180000
         DC    XL1'40'     OLD    INDICATOR 2.NEW/OLD IND2           *  02200000
*                       DCB FIELDS.                                     02220000
         DC    AL1(0)                  BUFNO,BUFRQ.                     02240000
         DC    BL1'01000010'           BFTEK,BFALN.                     02260000
         DC    AL2(80)                 BUFL.                            02280000
         DC    BL1'01000000'           EROPT.                           02300000
         DC    BL1'00010011'           TRTCH.                           02320000
       DC      BL1'&B&A.000011'              DEN                        02340000
         DC    AL3(0)                  LIMCT.                           02360000
         DC    BL2'0100000000000000'   DSORG.                           02380000
         DC    BL1'10011000'           RECFM.                    A29897 02400019
         DC    AL1(0)                  OPTCD.                           02420000
         DC    AL2(80)                 BLKSIZE                          02440000
         DC    AL2(80)                 LRECL.                           02460000
         DC    AL1(0)                  NCP.                             02480000
         DC    AL1(0)                  NTM.                             02500000
         DC    AL2(0)                  RKP.                             02520000
         DC    AL1(0)                  CYLOFL.                          02540000
         DC    AL1(0)                  DBUFNO.                          02560000
         DC    AL1(0)                  INTVL.                           02580000
         DC    AL1(0)                  CPRI.                            02600000
         DC    AL2(0)                  SOWA.                            02620000
         DC    XL1'0'             BLOCK AND TRACK     NTCS              02640000
         DC    XL1'01'            VOL SERIAL COUNT.   NVOL           *  02660000
         DC    CL30'SYSIN'        VOL SERIALS         VOLS              02680000
         DC    XL4'0'             VOL INFO.           EXTL,EXAD         02700000
         DC    XL3'0'             PRIMARY DA QUANTITY PQTY              02720000
         DC    XL1'0'             DA QUANTITY TYPE.   CTRI              02740000
         DC    XL3'0'             2NDARY DA QUANTITY. SQTY              02760000
         DC    XL1'0'             INDICATOR EXTENT.   IND3              02780000
         DC    XL3'0'             DIRECTORY QUANTITY. DQTY              02800000
         DC    XL3'0'             SPLIT JFCB.         SPNM              02820000
         DC    XL2'0'             TTR 1ST ALLOC.      ABST              02840000
         DC    XL3'0'             JFCB SUBALLOC.      SBNM              02860000
         DC    XL3'0'             AV REC LENGTH.      DRLH              02880000
         DC    XL1'1'             VOL COUNT.          VLCT              02900000
         DC    XL1'0'             SPLIT               SPTN              02920000
         DC    XL4'0'                  TO 180                           02940000
         TITLE 'START JFCB   INPUT     DIRECT ACCESS'                   02960000
*                                 DIRECT ACCESS.                        02980000
         DC    CL24'SYSIN'        DATASET NAME        DSNM -            03000000
         DC    CL20' '             ------.                              03020000
         DC    CL8' '             NAME OR VERSION.    ELNM              03040000
         DC    XL1'01'       OPEN MERGE               TSDM              03060000
         DC    XL13'0'       SYSTEM CODE                                03080000
         DC    XL1'02'            STANDARD LABEL.     LTYP              03100000
         DC    XL1'0'             SPARE.                                03120000
         DC    XL2'0'             FILE SEQUENCE.      FLSQ           *  03140000
         DC    XL2'0'             VOL SEQUENCE.       VLSQ              03160000
         DC    XL8'0'             SPARE MASK          MASK              03180000
         DC    XL6'0'             DATES.              CRDT,XPDT         03200000
         DC    XL1'0'             INDICATOR 1.        IND1              03220000
         DC    XL1'40'     OLD    INDICATOR 2.NEW/OLD IND2           *  03240000
*                       DCB FIELDS.                                     03260000
         DC    AL1(0)                  BUFNO,BUFRQ.                     03280000
         DC    BL1'01000010'           BFTEK,BFALN.                     03300000
         DC    AL2(80)                 BUFL.                            03320000
         DC    BL1'01000000'           EROPT.                           03340000
         DC    AL1(0)                  KEYLEN.                          03360000
         DC    AL1(0)                  DEN.                             03380000
         DC    AL3(0)                  LIMCT.                           03400000
         DC    BL2'0100000000000000'   DSORG.                           03420000
         DC    BL1'10111000'           RECFM.                           03440000
         DC    AL1(0)                  OPTCD.                           03460000
         DC    AL2(141)        BLKSIZE                                  03480000
         DC    AL2(137)            LRECL                                03500000
         DC    AL1(0)                  NCP.                             03520000
         DC    AL1(0)                  NTM.                             03540000
         DC    AL2(0)                  RKP.                             03560000
         DC    AL1(0)                  CYLOFL.                          03580000
         DC    AL1(0)                  DBUFNO.                          03600000
         DC    AL1(0)                  INTVL.                           03620000
         DC    AL1(0)                  CPRI.                            03640000
         DC    AL2(0)                  SOWA.                            03660000
         DC    XL1'0'             BLOCK AND TRACK     NTCS              03680000
         DC    XL1'01'            VOL SERIAL COUNT.   NVOL           *  03700000
         DC    CL30'SYSIN'        VOL SERIALS         VOLS              03720000
         DC    XL4'0'             VOL INFO.           EXTL,EXAD         03740000
         DC    XL3'0'             PRIMARY DA QUANTITY PQTY              03760000
         DC    XL1'0'             DA QUANTITY TYPE.   CTRI              03780000
         DC    XL3'0'             2NDARY DA QUANTITY. SQTY              03800000
         DC    XL1'0'             INDICATOR EXTENT.   IND3              03820000
         DC    XL3'0'             DIRECTORY QUANTITY. DQTY              03840000
         DC    XL3'0'             SPLIT JFCB.         SPNM              03860000
         DC    XL2'0'             TTR 1ST ALLOC.      ABST              03880000
         DC    XL3'0'             JFCB SUBALLOC.      SBNM              03900000
         DC    XL3'0'             AV REC LENGTH.      DRLH              03920000
         DC    XL1'1'             VOL COUNT.          VLCT              03940000
         DC    XL1'0'             SPLIT               SPTN              03960000
         DC    XL4'0'                  TO 180                           03980000
         TITLE 'START JFCB    INPUT     TAPE LIKE'               A34564 03980120
* DUAL DENSITY TAPE                                              A34564 03980220
         SPACE                                                          03980320
         DC    CL24'SYSIN'   DATASET NAME        DSNM            A34564 03980420
         DC    CL20' '       ------.                             A34564 03980520
         DC    CL8' '        NAME OR VERSION     ELNM            A34564 03980620
         DC    XL1'01'       OPEN MERGE          TSDM            A34564 03980720
         DC    XL13'0'       SYSTEM CODE                         A34564 03980820
         DC    XL1'02'       STANDARD LABEL      LTYP            A34564 03980920
         DC    XL1'0'        SPARE                               A34564 03981020
         DC    XL2'0'        FILE SEQUENCE       FLSQ            A34564 03981120
         DC    XL2'0'        VOL SEQUENCE        VLSQ            A34564 03981220
         DC    XL8'0'        SPARE MASK          MASK            A34564 03981320
         DC    XL6'0'        DATES               CRDT,XPDT       A34564 03981420
         DC    XL1'0'        INDICATOR 1         IND1            A34564 03981520
         DC    XL1'40'       OLD INDICATOR 2.    IND2            A34564 03981620
*                            NEW/OLD DCB FIELDS                  A34564 03981720
         DC    AL1(0)             BUFNO,BUFRQ                    A34564 03981820
         DC    BL1'01000010'      BFTEK,BFALN                    A34564 03981920
         DC    AL2(80)            BUFL                           A34564 03982020
         DC    BL1'01000000'      EROPT                          A34564 03982120
         DC    BL1'00010011'      TRTCH                          A34564 03982220
         DC    BL1'1&E.000011'    DEN                            A34564 03982320
         DC    AL3(0)             LIMCT                          A34564 03982420
         DC    BL2'0100000000000000'   DSORG                     A34564 03982520
         DC    BL1'10011000'      RECFM                          A34564 03982620
         DC    AL1(0)             OPTCD                          A34564 03982720
         DC    AL2(80)            BLKSIZE                        A34564 03982820
         DC    AL2(80)            LRECL                          A34564 03982920
         DC    AL1(0)             NCP                            A34564 03983020
         DC    AL1(0)             NTM                            A34564 03983120
         DC    AL2(0)             RKP                            A34564 03983220
         DC    AL1(0)             CYLOFL                         A34564 03983320
         DC    AL1(0)             DBUFNO                         A34564 03983420
         DC    AL1(0)             INTVL                          A34564 03983520
         DC    AL1(0)             CPRI                           A34564 03983620
         DC    AL2(0)             SOWA                           A34564 03983720
         DC    XL1'0'        BLOCK AND TRACK     NTCS            A34564 03983820
         DC    XL1'01'       VOL SERIAL COUNT    NVOL            A34564 03983920
         DC    CL30'SYSIN'   VOL SERIALS         VOLS            A34564 03984020
         DC    XL4'0'        VOL INFO            EXTL,EXAD       A34564 03984120
         DC    XL3'0'        PRIMARY DA QUANTITY PQTY            A34564 03984220
         DC    XL1'0'        DA QUANTITY TYPE    CTRI            A34564 03984320
         DC    XL3'0'        2NDARY DA QUANTITY  SQTY            A34564 03984420
         DC    XL1'0'        INDICATOR EXTENT    IND3            A34564 03984520
         DC    XL3'0'        DIRECTORY QUANTITY  DQTY            A34564 03984620
         DC    XL3'0'        SPLIT JFCB          SPNM            A34564 03984720
         DC    XL2'0'        TTR 1ST ALLOC.      ABST            A34564 03984820
         DC    XL3'0'        JFCB SUBALLOC       SBNM            A34564 03984920
         DC    XL3'0'        AV REC LENGTH       DRLH            A34564 03985020
         DC    XL1'1'        VOL COUNT           VLCT            A34564 03985120
         DC    XL1'0'        SPLIT               SPTN            A34564 03985220
         DC    XL4'0'              TO 180                        A34564 03985320
         TITLE 'START JFCB    INPUT     TAPE LIKE'               A34564 03985420
*  PHASE ENCODED TAPE ONLY  (1600 BPI)                           A34564 03985520
         SPACE                                                          03985620
         DC    CL24'SYSIN'   DATASET NAME        DSNM            A34564 03985720
         DC    CL20' '       ------.                             A34564 03985820
         DC    CL8' '        NAME OR VERSION     ELNM            A34564 03985920
         DC    XL1'01'       OPEN MERGE          TSDM            A34564 03986020
         DC    XL13'0'       SYSTEM CODE                         A34564 03986120
         DC    XL1'02'       STANDARD LABEL      LTYP            A34564 03986220
         DC    XL1'0'        SPARE                               A34564 03986320
         DC    XL2'02'       FILE SEQUENCE       FLSQ            A34564 03986420
         DC    XL2'0'        VOL SEQUENCE        VLSQ            A34564 03986520
         DC    XL8'0'        SPARE MASK          MASK            A34564 03986620
         DC    XL6'0'        DATES               CRDT,XPDT       A34564 03986720
         DC    XL1'0'        INDICATOR 1         IND1            A34564 03986820
         DC    XL1'40'       OLD INDICATOR 2.    IND2            A34564 03986920
*                            NEW/OLD DCB FIELDS                  A34564 03987020
         DC    AL1(0)             BUFNO,BUFRQ                    A34564 03987120
         DC    BL1'01000010'      BFTEK,BFALN                    A34564 03987220
         DC    AL2(80)            BUFL                           A34564 03987320
         DC    BL1'01000000'      EROPT                          A34564 03987420
         DC    BL1'00010011'      TRTCH                          A34564 03987520
         DC    BL1'11000011'      DEN                            A34564 03987620
         DC    AL3(0)             LIMCT                          A34564 03987720
         DC    BL2'0100000000000000'   DSORG                     A34564 03987820
         DC    BL1'10011000'      RECFM                          A34564 03987920
         DC    AL1(0)             OPTCD                          A34564 03988020
         DC    AL2(80)            BLKSIZE                        A34564 03988120
         DC    AL2(80)            LRECL                          A34564 03988220
         DC    AL1(0)             NCP                            A34564 03988320
         DC    AL1(0)             NTM                            A34564 03988420
         DC    AL2(0)             RKP                            A34564 03988520
         DC    AL1(0)             CYLOFL                         A34564 03988620
         DC    AL1(0)             DBUFNO                         A34564 03988720
         DC    AL1(0)             INTVL                          A34564 03988820
         DC    AL1(0)             CPRI                           A34564 03988920
         DC    AL2(0)             SOWA                           A34564 03989020
         DC    XL1'0'        BLOCK AND TRACK     NTCS            A34564 03989120
         DC    XL1'01'       VOL SERIAL COUNT    NVOL            A34564 03989220
         DC    CL30'SYSIN'   VOL SERIALS         VOLS            A34564 03989320
         DC    XL4'0'        VOL INFO            EXTL,EXAD       A34564 03989420
         DC    XL3'0'        PRIMARY DA QUANTITY PQTY            A34564 03989520
         DC    XL1'0'        DA QUANTITY TYPE    CTRI            A34564 03989620
         DC    XL3'0'        2NDARY DA QUANTITY  SQTY            A34564 03989720
         DC    XL1'0'        INDICATOR EXTENT    IND3            A34564 03989820
         DC    XL3'0'        DIRECTORY QUANTITY  DQTY            A34564 03989920
         DC    XL3'0'        SPLIT JFCB          SPNM            A34564 03990020
         DC    XL2'0'        TTR 1ST ALLOC.      ABST            A34564 03990120
         DC    XL3'0'        JFCB SUBALLOC       SBNM            A34564 03990220
         DC    XL3'0'        AV REC LENGTH       DRLH            A34564 03990320
         DC    XL1'1'        VOL COUNT           VLCT            A34564 03990420
         DC    XL1'0'        SPLIT               SPTN            A34564 03990520
         DC    XL4'0'              TO 180                        A34564 03990620
         TITLE 'START JFCB   OUTPUT    UNIT RECORD'                     04000000
JFCBWTR  EQU   *                                 WRITER.                04020000
         SPACE 2                                                        04040000
*                                 UNIT RECORD.                          04060000
         SPACE                                                          04080000
         DC    CL24'SYSOUT'       DATASET NAME        DSNM -            04100000
         DC    CL20' '             ------.                              04120000
         DC    CL8' '             NAME OR VERSION.    ELNM              04140000
         DC    XL1'01'       OPEN MERGE               TSDM              04160000
         DC    XL13'0'       SYSTEM CODE                                04180000
         DC    XL1'02'            STANDARD LABEL.     LTYP              04200000
         DC    XL1'0'             SPARE.                                04220000
         DC    XL2'0'             FILE SEQUENCE.      FLSQ           *  04240000
         DC    XL2'0'             VOL SEQUENCE.       VLSQ              04260000
         DC    XL8'0'             SPARE MASK          MASK              04280000
         DC    XL6'0'             DATES.              CRDT,XPDT         04300000
         DC    XL1'0'             INDICATOR 1.        IND1              04320000
         DC    XL1'C0'     NEW    IND2 NEW/OLD                          04340000
*                       DCB FIELDS.                                     04360000
         DC    AL1(0)                  BUFNO,BUFRQ.                     04380000
         DC    BL1'01000010'           BFTEK,BFALN.                     04400000
         DC    AL2(80)                 BUFL.                            04420000
         DC    BL1'10000000'           EROPT.                           04440000
         DC    BL1'00000001'           PRTSP.                           04460000
         DC    AL1(0)                  DEN.                             04480000
         DC    AL3(0)                  LIMCT.                           04500000
         DC    BL2'0100000000000000'   DSORG.                           04520000
         DC    BL1'10111000'           RECFM.                           04540000
         DC    AL1(0)                  OPTCD.                           04560000
         DC    AL2(80)                 BLKSIZE.                         04580000
         DC    AL2(80)                 LRECL.                           04600000
         DC    AL1(0)                  NCP.                             04620000
         DC    AL1(0)                  NTM.                             04640000
         DC    AL2(0)                  RKP.                             04660000
         DC    AL1(0)                  CYLOFL.                          04680000
         DC    AL1(0)                  DBUFNO.                          04700000
         DC    AL1(0)                  INTVL.                           04720000
         DC    AL1(0)                  CPRI.                            04740000
         DC    AL2(0)                  SOWA.                            04760000
         DC    XL1'0'             BLOCK AND TRACK     NTCS              04780000
         DC    XL1'01'            VOL SERIAL COUNT.   NVOL           *  04800000
         DC    CL30'SYSOUT'       VOL SERIALS         VOLS              04820000
         DC    XL4'0'             VOL INFO.           EXTL,EXAD         04840000
         DC    XL3'0'             PRIMARY DA QUANTITY PQTY              04860000
         DC    XL1'0'             DA QUANTITY TYPE.   CTRI              04880000
         DC    XL3'0'             2NDARY DA QUANTITY. SQTY              04900000
         DC    XL1'0'             INDICATOR EXTENT.   IND3              04920000
         DC    XL3'0'             DIRECTORY QUANTITY. DQTY              04940000
         DC    XL3'0'             SPLIT JFCB.         SPNM              04960000
         DC    XL2'0'             TTR 1ST ALLOC.      ABST              04980000
         DC    XL3'0'             JFCB SUBALLOC.      SBNM              05000000
         DC    XL3'0'             AV REC LENGTH.      DRLH              05020000
         DC    XL1'1'             VOL COUNT.          VLCT              05040000
         DC    XL1'0'             SPLIT               SPTN              05060000
         DC    XL4'0'                  TO 180                           05080000
         TITLE 'START JFCB   OUTPUT    TAPE LIKE'                       05100000
*                                 TAPE LIKE                             05120000
         SPACE                                                          05140000
         DC    CL24'SYSOUT'       DATASET NAME        DSNM -            05160000
         DC    CL20' '             ------.                              05180000
         DC    CL8' '             NAME OR VERSION.    ELNM              05200000
         DC    XL1'01'       OPEN MERGE               TSDM              05220000
         DC    XL13'0'       SYSTEM CODE                                05240000
         DC    XL1'02'            STANDARD LABEL.     LTYP              05260000
         DC    XL1'0'             SPARE.                                05280000
         DC    XL2'0'             FILE SEQUENCE.      FLSQ           *  05300000
         DC    XL2'0'             VOL SEQUENCE.       VLSQ              05320000
         DC    XL8'0'         -   SPARE MASK          MASK              05340000
         DC    XL6'0'             DATES.              CRDT,XPDT         05360000
         DC    XL1'0'             INDICATOR 1.        IND1              05380000
         DC    XL1'C0'     NEW    IND2 NEW/OLD                          05400000
*                       DCB FIELDS.                                     05420000
         DC    AL1(0)                  BUFNO,BUFRQ.                     05440000
         DC    BL1'01000010'           BFTEK,BFALN.                     05460000
         DC    AL2(80)                 BUFL.                            05480000
         DC    BL1'00100000'           EROPT.                           05500000
         DC    BL1'00010011'           TRTCH. (DATA CONVERSION).        05520000
       DC      BL1'&D&C.000011'              DEN                        05540000
         DC    AL3(0)                  LIMCT.                           05560000
         DC    BL2'0100000000000000'   DSORG.                           05580000
         DC    FL1'0'             RECFM.                                05600000
         DC    AL1(0)                  OPTCD.                           05620000
         DC    AL2(141)        BLKSIZE                                  05640000
         DC    AL2(137)                                                 05660000
         DC    AL1(0)                  NCP.                             05680000
         DC    AL1(0)                  NTM.                             05700000
         DC    AL2(0)                  RKP.                             05720000
         DC    AL1(0)                  CYLOFL.                          05740000
         DC    AL1(0)                  DBUFNO.                          05760000
         DC    AL1(0)                  INTVL.                           05780000
         DC    AL1(0)                  CPRI.                            05800000
         DC    AL2(0)                  SOWA.                            05820000
         DC    XL1'0'             BLOCK AND TRACK     NTCS              05840000
         DC    XL1'01'            VOL SERIAL COUNT.   NVOL           *  05860000
         DC    CL30'SYSOUT'       VOL SERIALS         VOLS              05880000
         DC    XL4'0'             VOL INFO.           EXTL,EXAD         05900000
         DC    XL3'0'             PRIMARY DA QUANTITY PQTY              05920000
         DC    XL1'0'             DA QUANTITY TYPE.   CTRI              05940000
         DC    XL3'0'             2NDARY DA QUANTITY. SQTY              05960000
         DC    XL1'0'             INDICATOR EXTENT.   IND3              05980000
         DC    XL3'0'             DIRECTORY QUANTITY. DQTY              06000000
         DC    XL3'0'             SPLIT JFCB.         SPNM              06020000
         DC    XL2'0'             TTR 1ST ALLOC.      ABST              06040000
         DC    XL3'0'             JFCB SUBALLOC.      SBNM              06060000
         DC    XL3'0'             AV REC LENGTH.      DRLH              06080000
         DC    XL1'1'             VOL COUNT.          VLCT              06100000
         DC    XL1'0'             SPLIT               SPTN              06120000
         DC    XL4'0'                  TO 180                           06140000
         TITLE 'START JFCB   OUTPUT    DIRECT ACCESS'                   06160000
*                                 DIRECT ACCESS                         06180000
         SPACE                                                          06200000
         DC    CL24'SYSOUT'       DATASET NAME        DSNM -            06220000
         DC    CL20' '             ------.                              06240000
         DC    CL8' '             NAME OR VERSION.    ELNM              06260000
         DC    XL1'01'       OPEN MERGE               TSDM              06280000
         DC    XL13'0'       SYSTEM CODE                                06300000
         DC    XL1'02'            STANDARD LABEL.     LTYP              06320000
         DC    XL1'0'             SPARE.                                06340000
         DC    XL2'0'             FILE SEQUENCE.      FLSQ           *  06360000
         DC    XL2'0'             VOL SEQUENCE.       VLSQ              06380000
         DC    XL8'0'         -   SPARE MASK          MASK              06400000
         DC    XL6'0'             DATES.              CRDT,XPDT         06420000
         DC    XL1'0'             INDICATOR 1.        IND1              06440000
         DC    XL1'C0'     NEW    IND2 NEW/OLD                          06460000
*                       DCB FIELDS.                                     06480000
         DC    AL1(0)                  BUFNO,BUFRQ.                     06500000
         DC    BL1'01000010'           BFTEK,BFALN.                     06520000
         DC    AL2(80)                 BUFL.                            06540000
         DC    BL1'00100000'           EROPT.                           06560000
         DC    AL1(0)                  KEYLEN.                          06580000
         DC    AL1(0)                  DEN.                             06600000
         DC    AL3(0)                  LIMCT.                           06620000
         DC    BL2'0100000000000000'   DSORG.                           06640000
         DC    BL1'10111000'           RECFM.                           06660000
         DC    AL1(0)                  OPTCD.                           06680000
         DC    AL2(80)                 BLKSIZE.                         06700000
         DC    AL2(80)                 LRECL.                           06720000
         DC    AL1(0)                  NCP.                             06740000
         DC    AL1(0)                  NTM.                             06760000
         DC    AL2(0)                  RKP.                             06780000
         DC    AL1(0)                  CYLOFL.                          06800000
         DC    AL1(0)                  DBUFNO.                          06820000
         DC    AL1(0)                  INTVL.                           06840000
         DC    AL1(0)                  CPRI.                            06860000
         DC    AL2(0)                  SOWA.                            06880000
         DC    XL1'0'             BLOCK AND TRACK     NTCS              06900000
         DC    XL1'01'            VOL SERIAL COUNT.   NVOL           *  06920000
         DC    CL30'SYSOUT'       VOL SERIALS         VOLS              06940000
         DC    XL4'0'             VOL INFO.           EXTL,EXAD         06960000
         DC    XL3'1'             PRIMARY DA QUANTITY PQTY              06980000
         DC    XL1'86'            DA QUANTITY TYPE.   CTRI              07000000
         DC    XL3'0'             2NDARY DA QUANTITY. SQTY              07020000
         DC    XL1'0'             INDICATOR EXTENT.   IND3              07040000
         DC    XL3'0'             DIRECTORY QUANTITY. DQTY              07060000
         DC    XL3'0'             SPLIT JFCB.         SPNM              07080000
         DC    XL2'0'             TTR 1ST ALLOC.      ABST              07100000
         DC    XL3'0'             JFCB SUBALLOC.      SBNM              07120000
         DC    XL3'0'             AV REC LENGTH.      DRLH              07140000
         DC    XL1'1'             VOL COUNT.          VLCT              07160000
         DC    XL1'0'             SPLIT               SPTN              07180000
         DC    XL4'0'                  TO 180                           07200000
         TITLE 'START JFCB   OUTPUT    TAPE LIKE'                       08000018
* DUAL DENSITY TAPE.                                                    08800018
         SPACE                                                          09600018
         DC    CL24'SYSOUT'       DATASET NAME        DSNM -            10400018
         DC    CL20' '             ------.                              11200018
         DC    CL8' '             NAME OR VERSION.    ELNM              12000018
         DC    XL1'01'       OPEN MERGE               TSDM              12800018
         DC    XL13'0'       SYSTEM CODE                                13600018
         DC    XL1'02'            STANDARD LABEL.     LTYP              14400018
         DC    XL1'0'             SPARE.                                15200018
         DC    XL2'0'             FILE SEQUENCE.      FLSQ           *  16000018
         DC    XL2'0'             VOL SEQUENCE.       VLSQ              16800018
         DC    XL8'0'         -   SPARE MASK          MASK              17600018
         DC    XL6'0'             DATES.              CRDT,XPDT         18400018
         DC    XL1'0'             INDICATOR 1.        IND1              19200018
         DC    XL1'C0'     NEW    IND2 NEW/OLD                          20000018
*                       DCB FIELDS.                                     20800018
         DC    AL1(0)                  BUFNO,BUFRQ.                     21600018
         DC    BL1'01000010'           BFTEK,BFALN.                     22400018
         DC    AL2(80)                 BUFL.                            23200018
         DC    BL1'00100000'           EROPT.                           24000018
         DC    BL1'00010011'           TRTCH. (DATA CONVERSION).        24800018
         DC    BL1'1&E.000011'     DEN                                  25600018
         DC    AL3(0)                  LIMCT.                           26400018
         DC    BL2'0100000000000000'   DSORG.                           27200018
         DC    FL1'0'             RECFM.                                28000018
         DC    AL1(0)                  OPTCD.                           28800018
         DC    AL2(141)        BLKSIZE                                  29600018
         DC    AL2(137)                                                 30400018
         DC    AL1(0)                  NCP.                             31200018
         DC    AL1(0)                  NTM.                             32000018
         DC    AL2(0)                  RKP.                             32800018
         DC    AL1(0)                  CYLOFL.                          33600018
         DC    AL1(0)                  DBUFNO.                          34400018
         DC    AL1(0)                  INTVL.                           35200018
         DC    AL1(0)                  CPRI.                            36000018
         DC    AL2(0)                  SOWA.                            36800018
         DC    XL1'0'             BLOCK AND TRACK     NTCS              37600018
         DC    XL1'01'            VOL SERIAL COUNT.   NVOL           *  38400018
         DC    CL30'SYSOUT'       VOL SERIALS         VOLS              39200018
         DC    XL4'0'             VOL INFO.           EXTL,EXAD         40000018
         DC    XL3'0'             PRIMARY DA QUANTITY PQTY              40800018
         DC    XL1'0'             DA QUANTITY TYPE.   CTRI              41600018
         DC    XL3'0'             2NDARY DA QUANTITY. SQTY              42400018
         DC    XL1'0'             INDICATOR EXTENT.   IND3              43200018
         DC    XL3'0'             DIRECTORY QUANTITY. DQTY              44000018
         DC    XL3'0'             SPLIT JFCB.         SPNM              44800018
         DC    XL2'0'             TTR 1ST ALLOC.      ABST              45600018
         DC    XL3'0'             JFCB SUBALLOC.      SBNM              46400018
         DC    XL3'0'             AV REC LENGTH.      DRLH              47200018
         DC    XL1'1'             VOL COUNT.          VLCT              48000018
         DC    XL1'0'             SPLIT               SPTN              48800018
         DC    XL4'0'                  TO 180                           49600018
         TITLE 'START JFCB  OUTPUT    TAPE LIKE'                 A20959 50400018
*                                  PE ONLY TAPE                  A20959 51200018
         SPACE 1                                                 A20959 52000018
         DC    CL24'SYSOUT'        DATASET NAME            DSNM  A20959 52800018
         DC    CL20' '              ------.                      A20959 53600018
         DC    CL8' '              NAME OR VERSION         ELNM  A20959 54400018
         DC    XL1'01'             OPEN MERGE              TSDM  A20959 55200018
         DC    XL13'0'             SYSTEM CODE                   A20959 56000018
         DC    XL1'02'             STANDARD LABEL          LTYP  A20959 56800018
         DC    XL1'0'              SPARE                         A20959 57600018
         DC    XL2'02'             FILE SEQUENCE           FLSQ  A20959 58400018
         DC    XL2'0'              VOL SEQUENCE            VLSQ  A20959 59200018
         DC    XL8'0'              SPARE MASK              MASK  A20959 60000018
         DC    XL6'0'              DATES                   CRDT,XA20959 60800018
         DC    XL1'0'              INDICATOR 1             IND1  A20959 61600018
         DC    XL1'C0'  NEW        INDICATOR 2 NEW/OLD     IND2  A20959 62400018
*                                  DCB FIELDS                    A20959 63200018
         DC    AL1(0)              BUFNO,BUFRQ                   A20959 64000018
         DC    BL1'01000010'       BFTEK,BFALN                   A20959 64800018
         DC    AL2(80)             BUFL                          A20959 65600018
         DC    BL1'00100000'       EROPT                         A20959 66400018
         DC    BL1'00010011'       TRTCH  (DATA CONVERSION)      A20959 67200018
         DC    BL1'11000011'       DEN  (1600 BPI)               A20959 68000018
         DC    AL3(0)              LIMCT                         A20959 68800018
         DC    BL1'01000000'       DSORG 1                       A20959 69600018
         DC    BL1'00000000'       DSORG 2                       A20959 70400018
         DC    FL1'0'              RECFM                         A20959 71200018
         DC    AL1(0)              OPTCD                         A20959 72000018
         DC    AL2(141)            BLKSIZE                       A20959 72800018
         DC    AL2(137)                                          A20959 73600018
         DC    AL1(0)              NCP                           A20959 74400018
         DC    AL1(0)              NTM                           A20959 75200018
         DC    AL2(0)              RKP                           A20959 76000018
         DC    AL1(0)              CYLOFL                        A20959 76800018
         DC    AL1(0)              DBUFNO                        A20959 77600018
         DC    AL1(0)              INTVL                         A20959 78400018
         DC    AL1(0)              CPRI                          A20959 79200018
         DC    AL2(0)              SOWA                          A20959 80000018
         DC    XL1'0'              BLOCK AND TRACK         NTCS  A20959 80800018
         DC    XL1'01'             VOL SER COUNT           NVOL  A20959 81600018
         DC    CL30'SYSOUT'        VOL SERIALS             VOLS  A20959 82400018
         DC    XL4'0'              VOL INFO                EXTL,EA20959 83200018
         DC    XL3'0'              PRIME DA QUANTITY       PQTY  A20959 84000018
         DC    XL1'0'              DA QUANTITY TYPE        CTRI  A20959 84800018
         DC    XL3'0'              SECOND DA QUANTITY      SQTY  A20959 85600018
         DC    XL1'0'              INDICATOR EXTENT        IND3  A20959 86400018
         DC    XL3'0'              DIRECTORY QUANTITY      DQTY  A20959 87200018
         DC    XL3'0'              SPLIT JFCB              SPNM  A20959 88000018
         DC    XL2'0'              TTR 1ST ALLOC           ABST  A20959 88800018
         DC    XL3'0'              JFCB SUBALLOC           SBNM  A20959 89600018
         DC    XL3'0'              AVERAGE REC LENGTH      DRLH  A20959 90400018
         DC    XL1'1'              VOL COUNT               VLCT  A20959 91200018
         DC    XL1'0'              SPLIT                   SPTN  A20959 92000018
         DC    XL4'0'                    TO 180                  A20959 92800018
         MEND                                                    A20959 93600018
