         MACRO                                                          00020000
         SGIFC000 &CHC                                                  00040000
IFBCTA00 CSECT                                                          00080000
         ENTRY IFBACTA                                                  00100000
         DS    0F                                                       00120000
IFBACTA  DC    XL8'&CHC'                                                00140019
.END2    MEND                                                           00160000
