         MACRO                                                          00100001
         SGIHE0X4    &A1,&A2,&A3,&A4,&A5,&A6,&A7,&A8,&A9,&A10,&A11,&A12/00200001
               ,&A13,&A14,&A15,&A16,&A17,&A18,&A19,&A20,&A21,&A22,&A23,/00300001
               &A24,&A25,&A26,&A27,&A28,&A29,&A30,&A31,&A32,&A33,&A34,&/00400001
               A35,&A36,&TT                                             00500001
         LCLB  &TY1(102)                                                00600001
         LCLB  &TY2(102)                                                00700001
         LCLB  &TY3(102)                                                00800001
         LCLC  &IDT(103)                                                00900001
         LCLB  &GP1(102)                                                01000001
         LCLB  &GP2(102)                                                01100001
         LCLB  &GP3(102)                                                01200001
         LCLB  &GP4(102)                                                01300001
         LCLB  &GP5(102)                                                01400001
         LCLB  &GP6(102)                                                01500001
         LCLB  &GP7(102)                                                01600001
         LCLB  &GP8(102)                                                01700001
         LCLB  &GP9(102)                                                01800001
         LCLB  &GP10(102)                                               01900001
         LCLB  &GP11(102)                                               02000001
         LCLB  &GP12(102)                                               02100001
         LCLB  &GP13(102)                                               02200001
         LCLB  &GP14(102)                                               02300001
         LCLB  &GP15(102)                                               02400001
         LCLB  &GP16(102)                                               02500001
         LCLB  &GP17(102)                                               02600001
         LCLB  &GP18(102)                                               02700001
         LCLB  &GP19(102)                                               02800001
         LCLB  &GP20(102)                                               02900001
         LCLB  &GP21(102)                                               03000001
         LCLB  &GP22(102)                                               03100001
         LCLB  &GP23(102)                                               03200001
         LCLB  &GP24(102)                                               03300001
         LCLB  &GP25(102)                                               03400001
         LCLB  &GP26(102)                                               03500001
         LCLB  &GP27(102)                                               03600001
         LCLB  &GP28(102)                                               03700001
         LCLB  &GP29(102)                                               03800001
         LCLB  &GP30(102)                                               03900001
         LCLB  &GP31(102)                                               04000001
         LCLB  &GP32(102)                                               04100001
         LCLB  &GP33(102)                                               04200001
         LCLB  &GP34(102)                                               04300001
         LCLB  &GP35(102)                                               04400001
         LCLB  &GP36(102)                                               04500001
         LCLB  &GC1(102)                                                04600001
         LCLB  &GC2(102)                                                04700001
         LCLB  &GC3(102)                                                04800001
         LCLB  &GC4(102)                                                04900001
         LCLB  &GC5(102)                                                05000001
         LCLB  &GC6(102)                                                05100001
         LCLB  &GC7(102)                                                05200001
         LCLB  &GC8(102)                                                05300001
         LCLB  &GC9(102)                                                05400001
         LCLB  &GC10(102)                                               05500001
         LCLB  &GC11(102)                                               05600001
         LCLB  &GC12(102)                                               05700001
         LCLB  &GC13(102)                                               05800001
         LCLB  &GC14(102)                                               05900001
         LCLB  &GC15(102)                                               06000001
         LCLB  &GC16(102)                                               06100001
         LCLB  &GC17(102)                                               06200001
         LCLB  &GC18(102)                                               06300001
         LCLB  &GC19(102)                                               06400001
         LCLB  &GC20(102)                                               06500001
         LCLB  &GC21(102)                                               06600001
         LCLB  &GC22(102)                                               06700001
         LCLB  &GC23(102)                                               06800001
         LCLB  &GC24(102)                                               06900001
         LCLB  &GC25(102)                                               07000001
         LCLB  &GC26(102)                                               07100001
         LCLB  &GC27(102)                                               07200001
         LCLB  &GC28(102)                                               07300001
         LCLB  &GC29(102)                                               07400001
         LCLB  &GC30(102)                                               07500001
         LCLB  &GC31(102)                                               07600001
         LCLB  &GC32(102)                                               07700001
         LCLB  &GC33(102)                                               07800001
         LCLB  &GC34(102)                                               07900001
         LCLB  &GC35(102)                                               08000001
         LCLB  &GC36(102)                                               08100001
         LCLA  &N                                                       08200001
         LCLA  &OFF1                                                    08300001
         LCLA  &OFF2                                                    08400001
&GC1(1)      SETB  1                   IDENTIFY CALLING GROUP           08500001
&GP23(1)     SETB  1                   IDENTIFY CONTAINING GROUP        08600001
&GP25(1)     SETB  1                   IDENTIFY CONTAINING GROUP        08700001
&TY1(1)      SETB  1                   MODULE NAME                      08800001
&TY3(1)      SETB  1                   MODULE ENTRY POINT               08900001
&IDT(1)      SETC  'SHSS'              SET NAME FOR MODULE IHESHSS      09000001
&GC1(2)      SETB  1                   IDENTIFY CALLING GROUP           09100001
&GP23(2)     SETB  1                   IDENTIFY CONTAINING GROUP        09200001
&GP25(2)     SETB  1                   IDENTIFY CONTAINING GROUP        09300001
&TY2(2)      SETB  1                   MODULE ALIAS                     09400001
&TY3(2)      SETB  1                   MODULE ENTRY POINT               09500001
&IDT(2)      SETC  'SHSC'              SET NAME FOR MODULE IHESHSC      09600001
&GP1(3)      SETB  1                   IDENTIFY CONTAINING GROUP        09700001
&GC2(3)      SETB  1                   IDENTIFY CALLING GROUP           09800001
&GC3(3)      SETB  1                   IDENTIFY CALLING GROUP           09900001
&TY1(3)      SETB  1                   MODULE NAME                      10000001
&TY3(3)      SETB  1                   MODULE ENTRY POINT               10100001
&IDT(3)      SETC  'SIZE'              SET NAME FOR MODULE IHESIZE      10200001
&GC1(4)      SETB  1                   IDENTIFY CALLING GROUP           10300001
&GP18(4)     SETB  1                   IDENTIFY CONTAINING GROUP        10400001
&TY1(4)      SETB  1                   MODULE NAME                      10500001
&TY3(4)      SETB  1                   MODULE ENTRY POINT               10600001
&IDT(4)      SETC  'SMF0'              SET NAME FOR MODULE IHESMF0      10700001
&GC1(5)      SETB  1                   IDENTIFY CALLING GROUP           10800001
&GP18(5)     SETB  1                   IDENTIFY CONTAINING GROUP        10900001
&GP20(5)     SETB  1                   IDENTIFY CONTAINING GROUP        11000001
&TY1(5)      SETB  1                   MODULE NAME                      11100001
&TY3(5)      SETB  1                   MODULE ENTRY POINT               11200001
&IDT(5)      SETC  'SMGC'              SET NAME FOR MODULE IHESMGC      11300001
&GC1(6)      SETB  1                   IDENTIFY CALLING GROUP           11400001
&GP18(6)     SETB  1                   IDENTIFY CONTAINING GROUP        11500001
&GP20(6)     SETB  1                   IDENTIFY CONTAINING GROUP        11600001
&TY2(6)      SETB  1                   MODULE ALIAS                     11700001
&TY3(6)      SETB  1                   MODULE ENTRY POINT               11800001
&IDT(6)      SETC  'SMGR'              SET NAME FOR MODULE IHESMGR      11900001
&GC1(7)      SETB  1                   IDENTIFY CALLING GROUP           12000001
&GP18(7)     SETB  1                   IDENTIFY CONTAINING GROUP        12100001
&GP20(7)     SETB  1                   IDENTIFY CONTAINING GROUP        12200001
&TY1(7)      SETB  1                   MODULE NAME                      12300001
&TY3(7)      SETB  1                   MODULE ENTRY POINT               12400001
&IDT(7)      SETC  'SMHC'              SET NAME FOR MODULE IHESMHC      12500001
&GC1(8)      SETB  1                   IDENTIFY CALLING GROUP           12600001
&GP18(8)     SETB  1                   IDENTIFY CONTAINING GROUP        12700001
&GP20(8)     SETB  1                   IDENTIFY CONTAINING GROUP        12800001
&TY2(8)      SETB  1                   MODULE ALIAS                     12900001
&TY3(8)      SETB  1                   MODULE ENTRY POINT               13000001
&IDT(8)      SETC  'SMHR'              SET NAME FOR MODULE IHESMHR      13100001
&GC1(9)      SETB  1                   IDENTIFY CALLING GROUP           13200001
&GP20(9)     SETB  1                   IDENTIFY CONTAINING GROUP        13300001
&TY1(9)      SETB  1                   MODULE NAME                      13400001
&TY3(9)      SETB  1                   MODULE ENTRY POINT               13500001
&IDT(9)      SETC  'SMX0'              SET NAME FOR MODULE IHESMX0      13600001
&GC1(10)     SETB  1                   IDENTIFY CALLING GROUP           13700001
&GP24(10)    SETB  1                   IDENTIFY CONTAINING GROUP        13800001
&GP26(10)    SETB  1                   IDENTIFY CONTAINING GROUP        13900001
&TY1(10)     SETB  1                   MODULE NAME                      14000001
&TY3(10)     SETB  1                   MODULE ENTRY POINT               14100001
&IDT(10)     SETC  'SNLK'              SET NAME FOR MODULE IHESNLK      14200001
&GC1(11)     SETB  1                   IDENTIFY CALLING GROUP           14300001
&GP24(11)    SETB  1                   IDENTIFY CONTAINING GROUP        14400001
&GP26(11)    SETB  1                   IDENTIFY CONTAINING GROUP        14500001
&GC26(11)    SETB  1                   IDENTIFY CALLING GROUP           14600001
&TY2(11)     SETB  1                   MODULE ALIAS                     14700001
&TY3(11)     SETB  1                   MODULE ENTRY POINT               14800001
&IDT(11)     SETC  'SNLC'              SET NAME FOR MODULE IHESNLC      14900001
&GC1(12)     SETB  1                   IDENTIFY CALLING GROUP           15000001
&GP24(12)    SETB  1                   IDENTIFY CONTAINING GROUP        15100001
&GP26(12)    SETB  1                   IDENTIFY CONTAINING GROUP        15200001
&GC26(12)    SETB  1                   IDENTIFY CALLING GROUP           15300001
&TY2(12)     SETB  1                   MODULE ALIAS                     15400001
&TY3(12)     SETB  1                   MODULE ENTRY POINT               15500001
&IDT(12)     SETC  'SNLS'              SET NAME FOR MODULE IHESNLS      15600001
&GC1(13)     SETB  1                   IDENTIFY CALLING GROUP           15700001
&GP24(13)    SETB  1                   IDENTIFY CONTAINING GROUP        15800001
&GP26(13)    SETB  1                   IDENTIFY CONTAINING GROUP        15900001
&TY2(13)     SETB  1                   MODULE ALIAS                     16000001
&TY3(13)     SETB  1                   MODULE ENTRY POINT               16100001
&IDT(13)     SETC  'SNLZ'              SET NAME FOR MODULE IHESNLZ      16200001
&GC1(14)     SETB  1                   IDENTIFY CALLING GROUP           16300001
&GP23(14)    SETB  1                   IDENTIFY CONTAINING GROUP        16400001
&GP25(14)    SETB  1                   IDENTIFY CONTAINING GROUP        16500001
&GC25(14)    SETB  1                   IDENTIFY CALLING GROUP           16600001
&TY1(14)     SETB  1                   MODULE NAME                      16700001
&TY3(14)     SETB  1                   MODULE ENTRY POINT               16800001
&IDT(14)     SETC  'SNSS'              SET NAME FOR MODULE IHESNSS      16900001
&GC1(15)     SETB  1                   IDENTIFY CALLING GROUP           17000001
&GP23(15)    SETB  1                   IDENTIFY CONTAINING GROUP        17100001
&GP25(15)    SETB  1                   IDENTIFY CONTAINING GROUP        17200001
&GC25(15)    SETB  1                   IDENTIFY CALLING GROUP           17300001
&TY2(15)     SETB  1                   MODULE ALIAS                     17400001
&TY3(15)     SETB  1                   MODULE ENTRY POINT               17500001
&IDT(15)     SETC  'SNSC'              SET NAME FOR MODULE IHESNSC      17600001
&GC1(16)     SETB  1                   IDENTIFY CALLING GROUP           17700001
&GP23(16)    SETB  1                   IDENTIFY CONTAINING GROUP        17800001
&GP25(16)    SETB  1                   IDENTIFY CONTAINING GROUP        17900001
&TY2(16)     SETB  1                   MODULE ALIAS                     18000001
&TY3(16)     SETB  1                   MODULE ENTRY POINT               18100001
&IDT(16)     SETC  'SNSK'              SET NAME FOR MODULE IHESNSK      18200001
&GC1(17)     SETB  1                   IDENTIFY CALLING GROUP           18300001
&GP23(17)    SETB  1                   IDENTIFY CONTAINING GROUP        18400001
&GP25(17)    SETB  1                   IDENTIFY CONTAINING GROUP        18500001
&TY2(17)     SETB  1                   MODULE ALIAS                     18600001
&TY3(17)     SETB  1                   MODULE ENTRY POINT               18700001
&IDT(17)     SETC  'SNSZ'              SET NAME FOR MODULE IHESNSZ      18800001
&GC1(18)     SETB  1                   IDENTIFY CALLING GROUP           18900001
&GP25(18)    SETB  1                   IDENTIFY CONTAINING GROUP        19000001
&TY1(18)     SETB  1                   MODULE NAME                      19100001
&TY3(18)     SETB  1                   MODULE ENTRY POINT               19200001
&IDT(18)     SETC  'SNWK'              SET NAME FOR MODULE IHESNWK      19300001
&GC1(19)     SETB  1                   IDENTIFY CALLING GROUP           19400001
&GP25(19)    SETB  1                   IDENTIFY CONTAINING GROUP        19500001
&TY2(19)     SETB  1                   MODULE ALIAS                     19600001
&TY3(19)     SETB  1                   MODULE ENTRY POINT               19700001
&IDT(19)     SETC  'SNWC'              SET NAME FOR MODULE IHESNWC      19800001
&GC1(20)     SETB  1                   IDENTIFY CALLING GROUP           19900001
&GP25(20)    SETB  1                   IDENTIFY CONTAINING GROUP        20000001
&TY2(20)     SETB  1                   MODULE ALIAS                     20100001
&TY3(20)     SETB  1                   MODULE ENTRY POINT               20200001
&IDT(20)     SETC  'SNWS'              SET NAME FOR MODULE IHESNWS      20300001
&GC1(21)     SETB  1                   IDENTIFY CALLING GROUP           20400001
&GP25(21)    SETB  1                   IDENTIFY CONTAINING GROUP        20500001
&TY2(21)     SETB  1                   MODULE ALIAS                     20600001
&TY3(21)     SETB  1                   MODULE ENTRY POINT               20700001
&IDT(21)     SETC  'SNWZ'              SET NAME FOR MODULE IHESNWZ      20800001
&GC1(22)     SETB  1                   IDENTIFY CALLING GROUP           20900001
&GP26(22)    SETB  1                   IDENTIFY CONTAINING GROUP        21000001
&TY1(22)     SETB  1                   MODULE NAME                      21100001
&TY3(22)     SETB  1                   MODULE ENTRY POINT               21200001
&IDT(22)     SETC  'SNZK'              SET NAME FOR MODULE IHESNZK      21300001
&GC1(23)     SETB  1                   IDENTIFY CALLING GROUP           21400001
&GP26(23)    SETB  1                   IDENTIFY CONTAINING GROUP        21500001
&TY2(23)     SETB  1                   MODULE ALIAS                     21600001
&TY3(23)     SETB  1                   MODULE ENTRY POINT               21700001
&IDT(23)     SETC  'SNZC'              SET NAME FOR MODULE IHESNZC      21800001
&GC1(24)     SETB  1                   IDENTIFY CALLING GROUP           21900001
&GP26(24)    SETB  1                   IDENTIFY CONTAINING GROUP        22000001
&TY2(24)     SETB  1                   MODULE ALIAS                     22100001
&TY3(24)     SETB  1                   MODULE ENTRY POINT               22200001
&IDT(24)     SETC  'SNZS'              SET NAME FOR MODULE IHESNZS      22300001
&GC1(25)     SETB  1                   IDENTIFY CALLING GROUP           22400001
&GP26(25)    SETB  1                   IDENTIFY CONTAINING GROUP        22500001
&TY2(25)     SETB  1                   MODULE ALIAS                     22600001
&TY3(25)     SETB  1                   MODULE ENTRY POINT               22700001
&IDT(25)     SETC  'SNZZ'              SET NAME FOR MODULE IHESNZZ      22800001
&GP1(26)     SETB  1                   IDENTIFY CONTAINING GROUP        22900001
&GC2(26)     SETB  1                   IDENTIFY CALLING GROUP           23000001
&GC3(26)     SETB  1                   IDENTIFY CALLING GROUP           23100001
&GC27(26)    SETB  1                   IDENTIFY CALLING GROUP           23200001
&GC30(26)    SETB  1                   IDENTIFY CALLING GROUP           23300001
&TY1(26)     SETB  1                   MODULE NAME                      23400001
&TY3(26)     SETB  1                   MODULE ENTRY POINT               23500001
&IDT(26)     SETC  'SPRT'              SET NAME FOR MODULE IHESPRT      23600001
&GC1(27)     SETB  1                   IDENTIFY CALLING GROUP           23700001
&GP24(27)    SETB  1                   IDENTIFY CONTAINING GROUP        23800001
&GP26(27)    SETB  1                   IDENTIFY CONTAINING GROUP        23900001
&GC26(27)    SETB  1                   IDENTIFY CALLING GROUP           24000001
&TY1(27)     SETB  1                   MODULE NAME                      24100001
&TY3(27)     SETB  1                   MODULE ENTRY POINT               24200001
&IDT(27)     SETC  'SQL0'              SET NAME FOR MODULE IHESQL0      24300001
&GC1(28)     SETB  1                   IDENTIFY CALLING GROUP           24400001
&GP23(28)    SETB  1                   IDENTIFY CONTAINING GROUP        24500001
&GP25(28)    SETB  1                   IDENTIFY CONTAINING GROUP        24600001
&GC25(28)    SETB  1                   IDENTIFY CALLING GROUP           24700001
&GC26(28)    SETB  1                   IDENTIFY CALLING GROUP           24800001
&TY1(28)     SETB  1                   MODULE NAME                      24900001
&TY3(28)     SETB  1                   MODULE ENTRY POINT               25000001
&IDT(28)     SETC  'SQS0'              SET NAME FOR MODULE IHESQS0      25100001
&GC1(29)     SETB  1                   IDENTIFY CALLING GROUP           25200001
&GP25(29)    SETB  1                   IDENTIFY CONTAINING GROUP        25300001
&TY1(29)     SETB  1                   MODULE NAME                      25400001
&TY3(29)     SETB  1                   MODULE ENTRY POINT               25500001
&IDT(29)     SETC  'SQW0'              SET NAME FOR MODULE IHESQW0      25600001
&GC1(30)     SETB  1                   IDENTIFY CALLING GROUP           25700001
&GP26(30)    SETB  1                   IDENTIFY CONTAINING GROUP        25800001
&TY1(30)     SETB  1                   MODULE NAME                      25900001
&TY3(30)     SETB  1                   MODULE ENTRY POINT               26000001
&IDT(30)     SETC  'SQZ0'              SET NAME FOR MODULE IHESQZ0      26100001
&GC1(31)     SETB  1                   IDENTIFY CALLING GROUP           26200001
&GP4(31)     SETB  1                   IDENTIFY CONTAINING GROUP        26300001
&TY1(31)     SETB  1                   MODULE NAME                      26400001
&TY3(31)     SETB  1                   MODULE ENTRY POINT               26500001
&IDT(31)     SETC  'SRCA'              SET NAME FOR MODULE IHESRCA      26600001
&GC1(32)     SETB  1                   IDENTIFY CALLING GROUP           26700001
&GP4(32)     SETB  1                   IDENTIFY CONTAINING GROUP        26800001
&TY2(32)     SETB  1                   MODULE ALIAS                     26900001
&TY3(32)     SETB  1                   MODULE ENTRY POINT               27000001
&IDT(32)     SETC  'SRCB'              SET NAME FOR MODULE IHESRCB      27100001
&GC1(33)     SETB  1                   IDENTIFY CALLING GROUP           27200001
&GP4(33)     SETB  1                   IDENTIFY CONTAINING GROUP        27300001
&TY2(33)     SETB  1                   MODULE ALIAS                     27400001
&TY3(33)     SETB  1                   MODULE ENTRY POINT               27500001
&IDT(33)     SETC  'SRCC'              SET NAME FOR MODULE IHESRCC      27600001
&GC1(34)     SETB  1                   IDENTIFY CALLING GROUP           27700001
&GP4(34)     SETB  1                   IDENTIFY CONTAINING GROUP        27800001
&TY2(34)     SETB  1                   MODULE ALIAS                     27900001
&TY3(34)     SETB  1                   MODULE ENTRY POINT               28000001
&IDT(34)     SETC  'SRCD'              SET NAME FOR MODULE IHESRCD      28100001
&GC1(35)     SETB  1                   IDENTIFY CALLING GROUP           28200001
&GP4(35)     SETB  1                   IDENTIFY CONTAINING GROUP        28300001
&TY2(35)     SETB  1                   MODULE ALIAS                     28400001
&TY3(35)     SETB  1                   MODULE ENTRY POINT               28500001
&IDT(35)     SETC  'SRCE'              SET NAME FOR MODULE IHESRCE      28600001
&GC1(36)     SETB  1                   IDENTIFY CALLING GROUP           28700001
&GP4(36)     SETB  1                   IDENTIFY CONTAINING GROUP        28800001
&TY2(36)     SETB  1                   MODULE ALIAS                     28900001
&TY3(36)     SETB  1                   MODULE ENTRY POINT               29000001
&IDT(36)     SETC  'SRCF'              SET NAME FOR MODULE IHESRCF      29100001
&GC1(37)     SETB  1                   IDENTIFY CALLING GROUP           29200001
&GP4(37)     SETB  1                   IDENTIFY CONTAINING GROUP        29300001
&TY1(37)     SETB  1                   MODULE NAME                      29400001
&TY3(37)     SETB  1                   MODULE ENTRY POINT               29500001
&IDT(37)     SETC  'SRDA'              SET NAME FOR MODULE IHESRDA      29600001
&GP1(38)     SETB  1                   IDENTIFY CONTAINING GROUP        29700001
&GC1(38)     SETB  1                   IDENTIFY CALLING GROUP           29800001
&TY1(38)     SETB  1                   MODULE NAME                      29900001
&TY3(38)     SETB  1                   MODULE ENTRY POINT               30000001
&IDT(38)     SETC  'SRTA'              SET NAME FOR MODULE IHESRTA      30100001
&GP1(39)     SETB  1                   IDENTIFY CONTAINING GROUP        30200001
&GC1(39)     SETB  1                   IDENTIFY CALLING GROUP           30300001
&TY2(39)     SETB  1                   MODULE ALIAS                     30400001
&TY3(39)     SETB  1                   MODULE ENTRY POINT               30500001
&IDT(39)     SETC  'SRTB'              SET NAME FOR MODULE IHESRTB      30600001
&GP1(40)     SETB  1                   IDENTIFY CONTAINING GROUP        30700001
&GC1(40)     SETB  1                   IDENTIFY CALLING GROUP           30800001
&TY2(40)     SETB  1                   MODULE ALIAS                     30900001
&TY3(40)     SETB  1                   MODULE ENTRY POINT               31000001
&IDT(40)     SETC  'SRTC'              SET NAME FOR MODULE IHESRTC      31100001
&GP1(41)     SETB  1                   IDENTIFY CONTAINING GROUP        31200001
&GC1(41)     SETB  1                   IDENTIFY CALLING GROUP           31300001
&TY2(41)     SETB  1                   MODULE ALIAS                     31400001
&TY3(41)     SETB  1                   MODULE ENTRY POINT               31500001
&IDT(41)     SETC  'SRTD'              SET NAME FOR MODULE IHESRTD      31600001
&GC1(42)     SETB  1                   IDENTIFY CALLING GROUP           31700001
&GP17(42)    SETB  1                   IDENTIFY CONTAINING GROUP        31800001
&TY1(42)     SETB  1                   MODULE NAME                      31900001
&TY3(42)     SETB  1                   MODULE ENTRY POINT               32000001
&IDT(42)     SETC  'SSF0'              SET NAME FOR MODULE IHESSF0      32100001
&GC1(43)     SETB  1                   IDENTIFY CALLING GROUP           32200001
&GP17(43)    SETB  1                   IDENTIFY CONTAINING GROUP        32300001
&GP19(43)    SETB  1                   IDENTIFY CONTAINING GROUP        32400001
&TY1(43)     SETB  1                   MODULE NAME                      32500001
&TY3(43)     SETB  1                   MODULE ENTRY POINT               32600001
&IDT(43)     SETC  'SSGC'              SET NAME FOR MODULE IHESSGC      32700001
&GC1(44)     SETB  1                   IDENTIFY CALLING GROUP           32800001
&GP17(44)    SETB  1                   IDENTIFY CONTAINING GROUP        32900001
&GP19(44)    SETB  1                   IDENTIFY CONTAINING GROUP        33000001
&TY2(44)     SETB  1                   MODULE ALIAS                     33100001
&TY3(44)     SETB  1                   MODULE ENTRY POINT               33200001
&IDT(44)     SETC  'SSGR'              SET NAME FOR MODULE IHESSGR      33300001
&GC1(45)     SETB  1                   IDENTIFY CALLING GROUP           33400001
&GP17(45)    SETB  1                   IDENTIFY CONTAINING GROUP        33500001
&GP19(45)    SETB  1                   IDENTIFY CONTAINING GROUP        33600001
&TY1(45)     SETB  1                   MODULE NAME                      33700001
&TY3(45)     SETB  1                   MODULE ENTRY POINT               33800001
&IDT(45)     SETC  'SSHC'              SET NAME FOR MODULE IHESSHC      33900001
&GC1(46)     SETB  1                   IDENTIFY CALLING GROUP           34000001
&GP17(46)    SETB  1                   IDENTIFY CONTAINING GROUP        34100001
&GP19(46)    SETB  1                   IDENTIFY CONTAINING GROUP        34200001
&TY2(46)     SETB  1                   MODULE ALIAS                     34300001
&TY3(46)     SETB  1                   MODULE ENTRY POINT               34400001
&IDT(46)     SETC  'SSHR'              SET NAME FOR MODULE IHESSHR      34500001
&GC1(47)     SETB  1                   IDENTIFY CALLING GROUP           34600001
&GP19(47)    SETB  1                   IDENTIFY CONTAINING GROUP        34700001
&TY1(47)     SETB  1                   MODULE NAME                      34800001
&TY3(47)     SETB  1                   MODULE ENTRY POINT               34900001
&IDT(47)     SETC  'SSX0'              SET NAME FOR MODULE IHESSX0      35000001
&GC1(48)     SETB  1                   IDENTIFY CALLING GROUP           35100001
&GP16(48)    SETB  1                   IDENTIFY CONTAINING GROUP        35200001
&TY1(48)     SETB  1                   MODULE NAME                      35300001
&TY3(48)     SETB  1                   MODULE ENTRY POINT               35400001
&IDT(48)     SETC  'STGA'              SET NAME FOR MODULE IHESTGA      35500001
&GC1(49)     SETB  1                   IDENTIFY CALLING GROUP           35600001
&GP16(49)    SETB  1                   IDENTIFY CONTAINING GROUP        35700001
&TY2(49)     SETB  1                   MODULE ALIAS                     35800001
&TY3(49)     SETB  1                   MODULE ENTRY POINT               35900001
&IDT(49)     SETC  'STGB'              SET NAME FOR MODULE IHESTGB      36000001
&GP1(50)     SETB  1                   IDENTIFY CONTAINING GROUP        36100001
&GC1(50)     SETB  1                   IDENTIFY CALLING GROUP           36200001
&TY1(50)     SETB  1                   MODULE NAME                      36300001
&TY3(50)     SETB  1                   MODULE ENTRY POINT               36400001
&IDT(50)     SETC  'STPA'              SET NAME FOR MODULE IHESTPA      36500001
&GC1(51)     SETB  1                   IDENTIFY CALLING GROUP           36600001
&GP5(51)     SETB  1                   IDENTIFY CONTAINING GROUP        36700001
&TY1(51)     SETB  1                   MODULE NAME                      36800001
&TY3(51)     SETB  1                   MODULE ENTRY POINT               36900001
&IDT(51)     SETC  'STRA'              SET NAME FOR MODULE IHESTRA      37000001
&GC1(52)     SETB  1                   IDENTIFY CALLING GROUP           37100001
&GP5(52)     SETB  1                   IDENTIFY CONTAINING GROUP        37200001
&TY2(52)     SETB  1                   MODULE ALIAS                     37300001
&TY3(52)     SETB  1                   MODULE ENTRY POINT               37400001
&IDT(52)     SETC  'STRB'              SET NAME FOR MODULE IHESTRB      37500001
&GC1(53)     SETB  1                   IDENTIFY CALLING GROUP           37600001
&GP5(53)     SETB  1                   IDENTIFY CONTAINING GROUP        37700001
&TY2(53)     SETB  1                   MODULE ALIAS                     37800001
&TY3(53)     SETB  1                   MODULE ENTRY POINT               37900001
&IDT(53)     SETC  'STRC'              SET NAME FOR MODULE IHESTRC      38000001
&GC2(54)     SETB  1                   IDENTIFY CALLING GROUP           38100001
&GC3(54)     SETB  1                   IDENTIFY CALLING GROUP           38200001
&GP27(54)    SETB  1                   IDENTIFY CONTAINING GROUP        38300001
&GP28(54)    SETB  1                   IDENTIFY CONTAINING GROUP        38400001
&GP30(54)    SETB  1                   IDENTIFY CONTAINING GROUP        38500001
&GP31(54)    SETB  1                   IDENTIFY CONTAINING GROUP        38600001
&TY1(54)     SETB  1                   MODULE NAME                      38700001
&TY3(54)     SETB  1                   MODULE ENTRY POINT               38800001
&IDT(54)     SETC  'TABS'              SET NAME FOR MODULE IHETABS      38900001
&GC1(55)     SETB  1                   IDENTIFY CALLING GROUP           39000001
&GP2(55)     SETB  1                   IDENTIFY CONTAINING GROUP        39100001
&TY1(55)     SETB  1                   MODULE NAME                      39200001
&TY3(55)     SETB  1                   MODULE ENTRY POINT               39300001
&IDT(55)     SETC  'TCVA'              SET NAME FOR MODULE IHETCVA      39400001
&GC1(56)     SETB  1                   IDENTIFY CALLING GROUP           39500001
&GP2(56)     SETB  1                   IDENTIFY CONTAINING GROUP        39600001
&TY2(56)     SETB  1                   MODULE ALIAS                     39700001
&TY3(56)     SETB  1                   MODULE ENTRY POINT               39800001
&IDT(56)     SETC  'TCVB'              SET NAME FOR MODULE IHETCVB      39900001
&GC1(57)     SETB  1                   IDENTIFY CALLING GROUP           40000001
&GP2(57)     SETB  1                   IDENTIFY CONTAINING GROUP        40100001
&TY1(57)     SETB  1                   MODULE NAME                      40200001
&TY3(57)     SETB  1                   MODULE ENTRY POINT               40300001
&IDT(57)     SETC  'TEAA'              SET NAME FOR MODULE IHETEAA      40400001
&GP2(58)     SETB  1                   IDENTIFY CONTAINING GROUP        40500001
&GC2(58)     SETB  1                   IDENTIFY CALLING GROUP           40600001
&GC3(58)     SETB  1                   IDENTIFY CALLING GROUP           40700001
&TY1(58)     SETB  1                   MODULE NAME                      40800001
&TY3(58)     SETB  1                   MODULE ENTRY POINT               40900001
&IDT(58)     SETC  'TERA'              SET NAME FOR MODULE IHETERA      41000001
&GP2(59)     SETB  1                   IDENTIFY CONTAINING GROUP        41100001
&TY2(59)     SETB  1                   MODULE ALIAS                     41200001
&IDT(59)     SETC  'TER '              SET NAME FOR MODULE IHETER       41300001
&GC1(60)     SETB  1                   IDENTIFY CALLING GROUP           41400001
&GP2(60)     SETB  1                   IDENTIFY CONTAINING GROUP        41500001
&TY1(60)     SETB  1                   MODULE NAME                      41600001
&TY3(60)     SETB  1                   MODULE ENTRY POINT               41700001
&IDT(60)     SETC  'TEVA'              SET NAME FOR MODULE IHETEVA      41800001
&GC1(61)     SETB  1                   IDENTIFY CALLING GROUP           41900001
&GP24(61)    SETB  1                   IDENTIFY CONTAINING GROUP        42000001
&GP26(61)    SETB  1                   IDENTIFY CONTAINING GROUP        42100001
&GC26(61)    SETB  1                   IDENTIFY CALLING GROUP           42200001
&TY1(61)     SETB  1                   MODULE NAME                      42300001
&TY3(61)     SETB  1                   MODULE ENTRY POINT               42400001
&IDT(61)     SETC  'THL0'              SET NAME FOR MODULE IHETHL0      42500001
&GC1(62)     SETB  1                   IDENTIFY CALLING GROUP           42600001
&GP23(62)    SETB  1                   IDENTIFY CONTAINING GROUP        42700001
&GP25(62)    SETB  1                   IDENTIFY CONTAINING GROUP        42800001
&GC25(62)    SETB  1                   IDENTIFY CALLING GROUP           42900001
&TY1(62)     SETB  1                   MODULE NAME                      43000001
&TY3(62)     SETB  1                   MODULE ENTRY POINT               43100001
&IDT(62)     SETC  'THS0'              SET NAME FOR MODULE IHETHS0      43200001
&GC1(63)     SETB  1                   IDENTIFY CALLING GROUP           43300001
&GP24(63)    SETB  1                   IDENTIFY CONTAINING GROUP        43400001
&GP26(63)    SETB  1                   IDENTIFY CONTAINING GROUP        43500001
&TY1(63)     SETB  1                   MODULE NAME                      43600001
&TY3(63)     SETB  1                   MODULE ENTRY POINT               43700001
&IDT(63)     SETC  'TNLD'              SET NAME FOR MODULE IHETNLD      43800001
&GC1(64)     SETB  1                   IDENTIFY CALLING GROUP           43900001
&GP24(64)    SETB  1                   IDENTIFY CONTAINING GROUP        44000001
&GP26(64)    SETB  1                   IDENTIFY CONTAINING GROUP        44100001
&GC26(64)    SETB  1                   IDENTIFY CALLING GROUP           44200001
&TY2(64)     SETB  1                   MODULE ALIAS                     44300001
&TY3(64)     SETB  1                   MODULE ENTRY POINT               44400001
&IDT(64)     SETC  'TNLR'              SET NAME FOR MODULE IHETNLR      44500001
&GC1(65)     SETB  1                   IDENTIFY CALLING GROUP           44600001
&GP23(65)    SETB  1                   IDENTIFY CONTAINING GROUP        44700001
&GP25(65)    SETB  1                   IDENTIFY CONTAINING GROUP        44800001
&TY1(65)     SETB  1                   MODULE NAME                      44900001
&TY3(65)     SETB  1                   MODULE ENTRY POINT               45000001
&IDT(65)     SETC  'TNSD'              SET NAME FOR MODULE IHETNSD      45100001
&GC1(66)     SETB  1                   IDENTIFY CALLING GROUP           45200001
&GP23(66)    SETB  1                   IDENTIFY CONTAINING GROUP        45300001
&GP25(66)    SETB  1                   IDENTIFY CONTAINING GROUP        45400001
&GC25(66)    SETB  1                   IDENTIFY CALLING GROUP           45500001
&TY2(66)     SETB  1                   MODULE ALIAS                     45600001
&TY3(66)     SETB  1                   MODULE ENTRY POINT               45700001
&IDT(66)     SETC  'TNSR'              SET NAME FOR MODULE IHETNSR      45800001
&GC1(67)     SETB  1                   IDENTIFY CALLING GROUP           45900001
&GP25(67)    SETB  1                   IDENTIFY CONTAINING GROUP        46000001
&TY1(67)     SETB  1                   MODULE NAME                      46100001
&TY3(67)     SETB  1                   MODULE ENTRY POINT               46200001
&IDT(67)     SETC  'TNWH'              SET NAME FOR MODULE IHETNWH      46300001
&GC1(68)     SETB  1                   IDENTIFY CALLING GROUP           46400001
&GP25(68)    SETB  1                   IDENTIFY CONTAINING GROUP        46500001
&TY2(68)     SETB  1                   MODULE ALIAS                     46600001
&TY3(68)     SETB  1                   MODULE ENTRY POINT               46700001
&IDT(68)     SETC  'TNWN'              SET NAME FOR MODULE IHETNWN      46800001
&GC1(69)     SETB  1                   IDENTIFY CALLING GROUP           46900001
&GP26(69)    SETB  1                   IDENTIFY CONTAINING GROUP        47000001
&TY1(69)     SETB  1                   MODULE NAME                      47100001
&TY3(69)     SETB  1                   MODULE ENTRY POINT               47200001
&IDT(69)     SETC  'TNZH'              SET NAME FOR MODULE IHETNZH      47300001
&GC1(70)     SETB  1                   IDENTIFY CALLING GROUP           47400001
&GP26(70)    SETB  1                   IDENTIFY CONTAINING GROUP        47500001
&TY2(70)     SETB  1                   MODULE ALIAS                     47600001
&TY3(70)     SETB  1                   MODULE ENTRY POINT               47700001
&IDT(70)     SETC  'TNZN'              SET NAME FOR MODULE IHETNZN      47800001
&GC1(71)     SETB  1                   IDENTIFY CALLING GROUP           47900001
&GP2(71)     SETB  1                   IDENTIFY CONTAINING GROUP        48000001
&TY1(71)     SETB  1                   MODULE NAME                      48100001
&TY3(71)     SETB  1                   MODULE ENTRY POINT               48200001
&IDT(71)     SETC  'TPBA'              SET NAME FOR MODULE IHETPBA      48300001
&GC1(72)     SETB  1                   IDENTIFY CALLING GROUP           48400001
&GP2(72)     SETB  1                   IDENTIFY CONTAINING GROUP        48500001
&TY1(72)     SETB  1                   MODULE NAME                      48600001
&TY3(72)     SETB  1                   MODULE ENTRY POINT               48700001
&IDT(72)     SETC  'TPRA'              SET NAME FOR MODULE IHETPRA      48800001
&GC1(73)     SETB  1                   IDENTIFY CALLING GROUP           48900001
&GP2(73)     SETB  1                   IDENTIFY CONTAINING GROUP        49000001
&TY1(73)     SETB  1                   MODULE NAME                      49100001
&TY3(73)     SETB  1                   MODULE ENTRY POINT               49200001
&IDT(73)     SETC  'TSAP'              SET NAME FOR MODULE IHETSAP      49300001
&GP2(74)     SETB  1                   IDENTIFY CONTAINING GROUP        49400001
&TY2(74)     SETB  1                   MODULE ALIAS                     49500001
&TY3(74)     SETB  1                   MODULE ENTRY POINT               49600001
&IDT(74)     SETC  'TSAA'              SET NAME FOR MODULE IHETSAA      49700001
&GC1(75)     SETB  1                   IDENTIFY CALLING GROUP           49800001
&GP2(75)     SETB  1                   IDENTIFY CONTAINING GROUP        49900001
&TY2(75)     SETB  1                   MODULE ALIAS                     50000001
&TY3(75)     SETB  1                   MODULE ENTRY POINT               50100001
&IDT(75)     SETC  'TSAD'              SET NAME FOR MODULE IHETSAD      50200001
&GP2(76)     SETB  1                   IDENTIFY CONTAINING GROUP        50300001
&TY2(76)     SETB  1                   MODULE ALIAS                     50400001
&TY3(76)     SETB  1                   MODULE ENTRY POINT               50500001
&IDT(76)     SETC  'TSAS'              SET NAME FOR MODULE IHETSAS      50600001
&GC1(77)     SETB  1                   IDENTIFY CALLING GROUP           50700001
&GP2(77)     SETB  1                   IDENTIFY CONTAINING GROUP        50800001
&TY3(77)     SETB  1                   MODULE ENTRY POINT               50900001
&IDT(77)     SETC  'TSAT'              SET NAME FOR MODULE IHETSAT      51000001
&GP2(78)     SETB  1                   IDENTIFY CONTAINING GROUP        51100001
&TY3(78)     SETB  1                   MODULE ENTRY POINT               51200001
&IDT(78)     SETC  'TSAM'              SET NAME FOR MODULE IHETSAM      51300001
&GC1(79)     SETB  1                   IDENTIFY CALLING GROUP           51400001
&GP2(79)     SETB  1                   IDENTIFY CONTAINING GROUP        51500001
&TY3(79)     SETB  1                   MODULE ENTRY POINT               51600001
&IDT(79)     SETC  'TSAV'              SET NAME FOR MODULE IHETSAV      51700001
&GP2(80)     SETB  1                   IDENTIFY CONTAINING GROUP        51800001
&TY3(80)     SETB  1                   MODULE ENTRY POINT               51900001
&IDT(80)     SETC  'TSAW'              SET NAME FOR MODULE IHETSAW      52000001
&GP2(81)     SETB  1                   IDENTIFY CONTAINING GROUP        52100001
&TY3(81)     SETB  1                   MODULE ENTRY POINT               52200001
&IDT(81)     SETC  'TSAL'              SET NAME FOR MODULE IHETSAL      52300001
&GC1(82)     SETB  1                   IDENTIFY CALLING GROUP           52400001
&GP2(82)     SETB  1                   IDENTIFY CONTAINING GROUP        52500001
&TY3(82)     SETB  1                   MODULE ENTRY POINT               52600001
&IDT(82)     SETC  'TSAE'              SET NAME FOR MODULE IHETSAE      52700001
&GC1(83)     SETB  1                   IDENTIFY CALLING GROUP           52800001
&GP2(83)     SETB  1                   IDENTIFY CONTAINING GROUP        52900001
&TY3(83)     SETB  1                   MODULE ENTRY POINT               53000001
&IDT(83)     SETC  'TSAR'              SET NAME FOR MODULE IHETSAR      53100001
&GC1(84)     SETB  1                   IDENTIFY CALLING GROUP           53200001
&GP2(84)     SETB  1                   IDENTIFY CONTAINING GROUP        53300001
&TY3(84)     SETB  1                   MODULE ENTRY POINT               53400001
&IDT(84)     SETC  'TSAG'              SET NAME FOR MODULE IHETSAG      53500001
&GC1(85)     SETB  1                   IDENTIFY CALLING GROUP           53600001
&GP2(85)     SETB  1                   IDENTIFY CONTAINING GROUP        53700001
&TY3(85)     SETB  1                   MODULE ENTRY POINT               53800001
&IDT(85)     SETC  'TSAF'              SET NAME FOR MODULE IHETSAF      53900001
&GC1(86)     SETB  1                   IDENTIFY CALLING GROUP           54000001
&GP2(86)     SETB  1                   IDENTIFY CONTAINING GROUP        54100001
&TY3(86)     SETB  1                   MODULE ENTRY POINT               54200001
&IDT(86)     SETC  'TSAN'              SET NAME FOR MODULE IHETSAN      54300001
&GP2(87)     SETB  1                   IDENTIFY CONTAINING GROUP        54400001
&TY3(87)     SETB  1                   MODULE ENTRY POINT               54500001
&IDT(87)     SETC  'TSAX'              SET NAME FOR MODULE IHETSAX      54600001
&GP2(88)     SETB  1                   IDENTIFY CONTAINING GROUP        54700001
&GC2(88)     SETB  1                   IDENTIFY CALLING GROUP           54800001
&GC3(88)     SETB  1                   IDENTIFY CALLING GROUP           54900001
&TY3(88)     SETB  1                   MODULE ENTRY POINT               55000001
&IDT(88)     SETC  'TSAY'              SET NAME FOR MODULE IHETSAY      55100001
&GP2(89)     SETB  1                   IDENTIFY CONTAINING GROUP        55200001
&GC2(89)     SETB  1                   IDENTIFY CALLING GROUP           55300001
&GC3(89)     SETB  1                   IDENTIFY CALLING GROUP           55400001
&TY3(89)     SETB  1                   MODULE ENTRY POINT               55500001
&IDT(89)     SETC  'TSAZ'              SET NAME FOR MODULE IHETSAZ      55600001
&GC1(90)     SETB  1                   IDENTIFY CALLING GROUP           55700001
&GP2(90)     SETB  1                   IDENTIFY CONTAINING GROUP        55800001
&TY3(90)     SETB  1                   MODULE ENTRY POINT               55900001
&IDT(90)     SETC  'TSAC'              SET NAME FOR MODULE IHETSAC      56000001
&GC1(91)     SETB  1                   IDENTIFY CALLING GROUP           56100001
&GP2(91)     SETB  1                   IDENTIFY CONTAINING GROUP        56200001
&TY1(91)     SETB  1                   MODULE NAME                      56300001
&TY3(91)     SETB  1                   MODULE ENTRY POINT               56400001
&IDT(91)     SETC  'TSEA'              SET NAME FOR MODULE IHETSEA      56500001
&IDT(92)     SETC  'ZZZZ'              IDENTIFY LAST NAME IN LIST.      56600001
&N       SETA  1                       INITIALIZE NAME COUNT.           56700001
.L1      AIF   ('&IDT(&N)' EQ 'ZZZZ').END        IS THIS THE LAST.      56800001
.*       IS THIS MODULE RESIDENT IN SHARED LIBRARY                      56900001
         AIF   (&GP1(&N) AND '&SYSLIST(1)' EQ '1').L2                   57000001
         AIF   (&GP2(&N) AND '&SYSLIST(2)' EQ '1').L2                   57100001
         AIF   (&GP3(&N) AND '&SYSLIST(3)' EQ '1').L2                   57200001
         AIF   (&GP4(&N) AND '&SYSLIST(4)' EQ '1').L2                   57300001
         AIF   (&GP5(&N) AND '&SYSLIST(5)' EQ '1').L2                   57400001
         AIF   (&GP6(&N) AND '&SYSLIST(6)' EQ '1').L2                   57500001
         AIF   (&GP7(&N) AND '&SYSLIST(7)' EQ '1').L2                   57600001
         AIF   (&GP8(&N) AND '&SYSLIST(8)' EQ '1').L2                   57700001
         AIF   (&GP9(&N) AND '&SYSLIST(9)' EQ '1').L2                   57800001
         AIF   (&GP10(&N) AND '&SYSLIST(10)' EQ '1').L2                 57900001
         AIF   (&GP11(&N) AND '&SYSLIST(11)' EQ '1').L2                 58000001
         AIF   (&GP12(&N) AND '&SYSLIST(12)' EQ '1').L2                 58100001
         AIF   (&GP13(&N) AND '&SYSLIST(13)' EQ '1').L2                 58200001
         AIF   (&GP14(&N) AND '&SYSLIST(14)' EQ '1').L2                 58300001
         AIF   (&GP15(&N) AND '&SYSLIST(15)' EQ '1').L2                 58400001
         AIF   (&GP16(&N) AND '&SYSLIST(16)' EQ '1').L2                 58500001
         AIF   (&GP17(&N) AND '&SYSLIST(17)' EQ '1').L2                 58600001
         AIF   (&GP18(&N) AND '&SYSLIST(18)' EQ '1').L2                 58700001
         AIF   (&GP19(&N) AND '&SYSLIST(19)' EQ '1').L2                 58800001
         AIF   (&GP20(&N) AND '&SYSLIST(20)' EQ '1').L2                 58900001
         AIF   (&GP21(&N) AND '&SYSLIST(21)' EQ '1').L2                 59000001
         AIF   (&GP22(&N) AND '&SYSLIST(22)' EQ '1').L2                 59100001
         AIF   (&GP23(&N) AND '&SYSLIST(23)' EQ '1').L2                 59200001
         AIF   (&GP24(&N) AND '&SYSLIST(24)' EQ '1').L2                 59300001
         AIF   (&GP25(&N) AND '&SYSLIST(25)' EQ '1').L2                 59400001
         AIF   (&GP26(&N) AND '&SYSLIST(26)' EQ '1').L2                 59500001
         AIF   (&GP27(&N) AND '&SYSLIST(27)' EQ '1').L2                 59600001
         AIF   (&GP28(&N) AND '&SYSLIST(28)' EQ '1').L2                 59700001
         AIF   (&GP29(&N) AND '&SYSLIST(29)' EQ '1').L2                 59800001
         AIF   (&GP30(&N) AND '&SYSLIST(30)' EQ '1').L2                 59900001
         AIF   (&GP31(&N) AND '&SYSLIST(31)' EQ '1').L2                 60000001
         AIF   (&GP32(&N) AND '&SYSLIST(32)' EQ '1').L2                 60100001
         AIF   (&GP33(&N) AND '&SYSLIST(33)' EQ '1').L2                 60200001
         AIF   (&GP34(&N) AND '&SYSLIST(34)' EQ '1').L2                 60300001
         AIF   (&GP35(&N) AND '&SYSLIST(35)' EQ '1').L2                 60400001
         AIF   (&GP36(&N) AND '&SYSLIST(36)' EQ '1').L2                 60500001
         AIF   (&TY3(&N)).L3           IS THIS AN ENTRY POINT.          60600001
         AGO   .NEXT                   NOT ENTRY POINT SO SKIP.         60700001
.*       IS THIS MODULE CALLED FROM SHARED LIBRARY                      60800001
.L3      AIF   (&GC1(&N) AND '&SYSLIST(1)' EQ '1').L4                   60900001
         AIF   (&GC2(&N) AND '&SYSLIST(2)' EQ '1').L4                   61000001
         AIF   (&GC3(&N) AND '&SYSLIST(3)' EQ '1').L4                   61100001
         AIF   (&GC4(&N) AND '&SYSLIST(4)' EQ '1').L4                   61200001
         AIF   (&GC5(&N) AND '&SYSLIST(5)' EQ '1').L4                   61300001
         AIF   (&GC6(&N) AND '&SYSLIST(6)' EQ '1').L4                   61400001
         AIF   (&GC7(&N) AND '&SYSLIST(7)' EQ '1').L4                   61500001
         AIF   (&GC8(&N) AND '&SYSLIST(8)' EQ '1').L4                   61600001
         AIF   (&GC9(&N) AND '&SYSLIST(9)' EQ '1').L4                   61700001
         AIF   (&GC10(&N) AND '&SYSLIST(10)' EQ '1').L4                 61800001
         AIF   (&GC11(&N) AND '&SYSLIST(11)' EQ '1').L4                 61900001
         AIF   (&GC12(&N) AND '&SYSLIST(12)' EQ '1').L4                 62000001
         AIF   (&GC13(&N) AND '&SYSLIST(13)' EQ '1').L4                 62100001
         AIF   (&GC14(&N) AND '&SYSLIST(14)' EQ '1').L4                 62200001
         AIF   (&GC15(&N) AND '&SYSLIST(15)' EQ '1').L4                 62300001
         AIF   (&GC16(&N) AND '&SYSLIST(16)' EQ '1').L4                 62400001
         AIF   (&GC17(&N) AND '&SYSLIST(17)' EQ '1').L4                 62500001
         AIF   (&GC18(&N) AND '&SYSLIST(18)' EQ '1').L4                 62600001
         AIF   (&GC19(&N) AND '&SYSLIST(19)' EQ '1').L4                 62700001
         AIF   (&GC20(&N) AND '&SYSLIST(20)' EQ '1').L4                 62800001
         AIF   (&GC21(&N) AND '&SYSLIST(21)' EQ '1').L4                 62900001
         AIF   (&GC22(&N) AND '&SYSLIST(22)' EQ '1').L4                 63000001
         AIF   (&GC23(&N) AND '&SYSLIST(23)' EQ '1').L4                 63100001
         AIF   (&GC24(&N) AND '&SYSLIST(24)' EQ '1').L4                 63200001
         AIF   (&GC25(&N) AND '&SYSLIST(25)' EQ '1').L4                 63300001
         AIF   (&GC26(&N) AND '&SYSLIST(26)' EQ '1').L4                 63400001
         AIF   (&GC27(&N) AND '&SYSLIST(27)' EQ '1').L4                 63500001
         AIF   (&GC28(&N) AND '&SYSLIST(28)' EQ '1').L4                 63600001
         AIF   (&GC29(&N) AND '&SYSLIST(29)' EQ '1').L4                 63700001
         AIF   (&GC30(&N) AND '&SYSLIST(30)' EQ '1').L4                 63800001
         AIF   (&GC31(&N) AND '&SYSLIST(31)' EQ '1').L4                 63900001
         AIF   (&GC32(&N) AND '&SYSLIST(32)' EQ '1').L4                 64000001
         AIF   (&GC33(&N) AND '&SYSLIST(33)' EQ '1').L4                 64100001
         AIF   (&GC34(&N) AND '&SYSLIST(34)' EQ '1').L4                 64200001
         AIF   (&GC35(&N) AND '&SYSLIST(35)' EQ '1').L4                 64300001
         AIF   (&GC36(&N) AND '&SYSLIST(36)' EQ '1').L4                 64400001
         AGO   .NEXT                   NOT CALLED SO SKIP.              64500001
.L4      AIF   ('&TT' EQ '1').LA       IS IHELTT SWITCH SET.            64600001
         ENTRY IHE&IDT(&N)             ENTRY IN IHELTV.                 64700001
IHE&IDT(&N)  L 15,0(12)                IHELTV TRANSFER VECTOR.          64800001
         ORG   *-2                                                      64900001
         DC    QL2(IHEQTT4)                                             65000001
         L     15,&OFF1.(15)                                            65100001
         BR    15                                                       65200001
         NOPR  0                                                        65300001
         AGO   .L8                                                      65400001
.LA      DC    V(IHE&IDT(&N))          VCON FOR NON SHARED MODULE.      65500001
.L8      ANOP                                                           65600001
&OFF1    SETA  &OFF1+4                 UP TRANSFER VECTOR OFFSETS.      65700001
&OFF2    SETA  &OFF2+12                                                 65800001
         AGO   .NEXT                                                    65900001
.L2      AIF   (&TY1(&N)).L6           IS THIS AN MODULE NAME.          66000001
         AIF   (&TY3(&N) EQ 0).NEXT    IF NOT AN ENTRY POINT THEN SKIP. 66100001
.*       IS THIS MODULE CALLED FROM THE REGION                          66200001
.L6      AIF   (&GC1(&N) AND '&SYSLIST(1)' EQ '0').L7                   66300001
         AIF   (&GC2(&N) AND '&SYSLIST(2)' EQ '0').L7                   66400001
         AIF   (&GC3(&N) AND '&SYSLIST(3)' EQ '0').L7                   66500001
         AIF   (&GC4(&N) AND '&SYSLIST(4)' EQ '0').L7                   66600001
         AIF   (&GC5(&N) AND '&SYSLIST(5)' EQ '0').L7                   66700001
         AIF   (&GC6(&N) AND '&SYSLIST(6)' EQ '0').L7                   66800001
         AIF   (&GC7(&N) AND '&SYSLIST(7)' EQ '0').L7                   66900001
         AIF   (&GC8(&N) AND '&SYSLIST(8)' EQ '0').L7                   67000001
         AIF   (&GC9(&N) AND '&SYSLIST(9)' EQ '0').L7                   67100001
         AIF   (&GC10(&N) AND '&SYSLIST(10)' EQ '0').L7                 67200001
         AIF   (&GC11(&N) AND '&SYSLIST(11)' EQ '0').L7                 67300001
         AIF   (&GC12(&N) AND '&SYSLIST(12)' EQ '0').L7                 67400001
         AIF   (&GC13(&N) AND '&SYSLIST(13)' EQ '0').L7                 67500001
         AIF   (&GC14(&N) AND '&SYSLIST(14)' EQ '0').L7                 67600001
         AIF   (&GC15(&N) AND '&SYSLIST(15)' EQ '0').L7                 67700001
         AIF   (&GC16(&N) AND '&SYSLIST(16)' EQ '0').L7                 67800001
         AIF   (&GC17(&N) AND '&SYSLIST(17)' EQ '0').L7                 67900001
         AIF   (&GC18(&N) AND '&SYSLIST(18)' EQ '0').L7                 68000001
         AIF   (&GC19(&N) AND '&SYSLIST(19)' EQ '0').L7                 68100001
         AIF   (&GC20(&N) AND '&SYSLIST(20)' EQ '0').L7                 68200001
         AIF   (&GC21(&N) AND '&SYSLIST(21)' EQ '0').L7                 68300001
         AIF   (&GC22(&N) AND '&SYSLIST(22)' EQ '0').L7                 68400001
         AIF   (&GC23(&N) AND '&SYSLIST(23)' EQ '0').L7                 68500001
         AIF   (&GC24(&N) AND '&SYSLIST(24)' EQ '0').L7                 68600001
         AIF   (&GC25(&N) AND '&SYSLIST(25)' EQ '0').L7                 68700001
         AIF   (&GC26(&N) AND '&SYSLIST(26)' EQ '0').L7                 68800001
         AIF   (&GC27(&N) AND '&SYSLIST(27)' EQ '0').L7                 68900001
         AIF   (&GC28(&N) AND '&SYSLIST(28)' EQ '0').L7                 69000001
         AIF   (&GC29(&N) AND '&SYSLIST(29)' EQ '0').L7                 69100001
         AIF   (&GC30(&N) AND '&SYSLIST(30)' EQ '0').L7                 69200001
         AIF   (&GC31(&N) AND '&SYSLIST(31)' EQ '0').L7                 69300001
         AIF   (&GC32(&N) AND '&SYSLIST(32)' EQ '0').L7                 69400001
         AIF   (&GC33(&N) AND '&SYSLIST(33)' EQ '0').L7                 69500001
         AIF   (&GC34(&N) AND '&SYSLIST(34)' EQ '0').L7                 69600001
         AIF   (&GC35(&N) AND '&SYSLIST(35)' EQ '0').L7                 69700001
         AIF   (&GC36(&N) AND '&SYSLIST(36)' EQ '0').L7                 69800001
         AGO   .NEXT                   NOT CALLED SO SKIP.              69900001
.L7      AIF   ('&TT' EQ '1').LB       IS IHELTT SWITCH SET.            70000001
         DC    V(IHE&IDT(&N))          VCON FOR SHARED MODULE.          70100001
         AGO   .L9                                                      70200001
.LB      ENTRY IHE&IDT(&N)             ENTRY IN IHELTT                  70300001
IHE&IDT(&N) L  15,0(12)                IHELTT TRANSFER VECTOR.          70400001
         ORG   *-2                                                      70500001
         DC    QL2(IHEQTV4)                                             70600001
         L     15,&OFF2.(15)                                            70700001
         BR    15                                                       70800001
         NOPR  0                                                        70900001
.L9      ANOP                                                           71000001
&OFF1    SETA  &OFF1+12                UP TRANSFER VECTOR OFFSETS.      71100001
&OFF2    SETA  &OFF2+4                                                  71200001
.NEXT    ANOP                                                           71300001
&N       SETA  &N+1                    UP NAME COUNT BY 1.              71400001
         AGO   .L1                     GO EXAMINE NEXT NAME IN LIST.    71500001
.END     MEND                                                           71600001
