//CTLG3330 JOB  1,1,MSGLEVEL=1                                          01000000
//STEP     EXEC PGM=IEHPROGM                                            02000000
//DLIB01   DD   UNIT=3330,VOLUME=SER=DLIB01,DISP=OLD                    03000000
//SYSPRINT DD   SYSOUT=A                                                04000000
//SYSIN    DD   *                                                       05000000
 RENAME DSNAME=SYS1.COBLIB,NEWNAME=SYS1.DCOBLIB,VOL=3330=DLIB01         06000000
 RENAME DSNAME=SYS1.FORTLIB,NEWNAME=SYS1.DFORTLIB,VOL=3330=DLIB01       07000000
 RENAME DSNAME=SYS1.MACLIB,NEWNAME=SYS1.DMACLIB,VOL=3330=DLIB01         08000000
 RENAME DSNAME=SYS1.PARMLIB,NEWNAME=SYS1.DPARMLIB,VOL=3330=DLIB01       09000000
 RENAME DSNAME=SYS1.PL1LIB,NEWNAME=SYS1.DPL1LIB,VOL=3330=DLIB01         10000000
 RENAME DSNAME=SYS1.PROCLIB,NEWNAME=SYS1.DPROCLIB,VOL=3330=DLIB01       11000000
 RENAME DSNAME=SYS1.SORTLIB,NEWNAME=SYS1.DSORTLIB,VOL=3330=DLIB01       12000000
 CATLG DSNAME=SYS1.DCOBLIB,VOL=3330=DLIB01                              13000000
 CATLG DSNAME=SYS1.DFORTLIB,VOL=3330=DLIB01                             14000000
 CATLG DSNAME=SYS1.DMACLIB,VOL=3330=DLIB01                              15000000
 CATLG DSNAME=SYS1.DPARMLIB,VOL=3330=DLIB01                             16000000
 CATLG DSNAME=SYS1.DPL1LIB,VOL=3330=DLIB01                              17000000
 CATLG DSNAME=SYS1.DPROCLIB,VOL=3330=DLIB01                             18000000
 CATLG DSNAME=SYS1.DSORTLIB,VOL=3330=DLIB01                             19000000
 CATLG DSNAME=SYS1.AL531,VOL=3330=DLIB01                                20000000
 CATLG DSNAME=SYS1.AS037,VOL=3330=DLIB01                                21000000
 CATLG DSNAME=SYS1.CB545,VOL=3330=DLIB01                                22000000
 CATLG DSNAME=SYS1.CI505,VOL=3330=DLIB01                                23000000
 CATLG DSNAME=SYS1.CI535,VOL=3330=DLIB01                                24000000
 CATLG DSNAME=SYS1.CO503,VOL=3330=DLIB01                                25000000
 CATLG DSNAME=SYS1.CQ513,VOL=3330=DLIB01                                26000000
 CATLG DSNAME=SYS1.CQ519,VOL=3330=DLIB01                                27000000
 CATLG DSNAME=SYS1.DM508,VOL=3330=DLIB01                                28000000
 CATLG DSNAME=SYS1.DM509,VOL=3330=DLIB01                                29000000
 CATLG DSNAME=SYS1.DN527,VOL=3330=DLIB01                                30000000
 CATLG DSNAME=SYS1.DN533,VOL=3330=DLIB01                                31000000
 CATLG DSNAME=SYS1.DN539,VOL=3330=DLIB01                                32000000
 CATLG DSNAME=SYS1.DN554,VOL=3330=DLIB01                                33000000
 CATLG DSNAME=SYS1.ED521,VOL=3330=DLIB01                                34000000
 CATLG DSNAME=SYS1.FO500,VOL=3330=DLIB01                                35000000
 CATLG DSNAME=SYS1.FO520,VOL=3330=DLIB01                                36000000
 CATLG DSNAME=SYS1.FO550,VOL=3330=DLIB01                                37000000
 CATLG DSNAME=SYS1.GENLIB,VOL=3330=DLIB01                               38000000
 CATLG DSNAME=SYS1.IO523,VOL=3330=DLIB01                                39000000
 CATLG DSNAME=SYS1.IO526,VOL=3330=DLIB01                                40000000
 CATLG DSNAME=SYS1.LD547,VOL=3330=DLIB01                                41000000
 CATLG DSNAME=SYS1.LM501,VOL=3330=DLIB01                                42000000
 CATLG DSNAME=SYS1.LM512,VOL=3330=DLIB01                                43000000
 CATLG DSNAME=SYS1.LM532,VOL=3330=DLIB01                                44000000
 CATLG DSNAME=SYS1.LM546,VOL=3330=DLIB01                                45000000
 CATLG   DSNAME=SYS1.LM537,VOL=3330=DLIB01                              46000000
 CATLG   DSNAME=SYS1.LM542,VOL=3330=DLIB01                              47000000
 CATLG DSNAME=SYS1.MODGEN,VOL=3330=DLIB01                               48000000
 CATLG DSNAME=SYS1.NL511,VOL=3330=DLIB01                                49000000
 CATLG DSNAME=SYS1.PL552,VOL=3330=DLIB01                                50000000
 CATLG DSNAME=SYS1.RC536,VOL=3330=DLIB01                                51000000
 CATLG DSNAME=SYS1.RC541,VOL=3330=DLIB01                                52000000
 CATLG DSNAME=SYS1.RC543,VOL=3330=DLIB01                                53000000
 CATLG DSNAME=SYS1.RC551,VOL=3330=DLIB01                                54000000
 CATLG DSNAME=SYS1.RG038,VOL=3330=DLIB01                                55000000
 CATLG DSNAME=SYS1.SM023,VOL=3330=DLIB01                                56000000
 CATLG DSNAME=SYS1.UT506,VOL=3330=DLIB01                                57000000
  CATLG    DSNAME=SYS1.TSOGEN,VOL=3330=DLIB01                           58000000
  CATLG    DSNAME=SYS1.TSOMAC,VOL=3330=DLIB01                           59000000
  CATLG    DSNAME=SYS1.TCAMMAC,VOL=3330=DLIB01                          60000000
  CATLG    DSNAME=SYS1.DCMDLIB,VOL=3330=DLIB01                          61000000
  CATLG    DSNAME=SYS1.DUADS,VOL=3330=DLIB01                            62000000
  CATLG    DSNAME=SYS1.DHELP,VOL=3330=DLIB01                            63000000
  CATLG    DSNAME=SYS1.CI555,VOL=3330=DLIB01                            64000000
  CATLG    DSNAME=SYS1.CQ548,VOL=3330=DLIB01                            65000000
  CATLG    DSNAME=SYS1.MODGEN2,VOL=3330=DLIB01                          68000000
