         MACRO                                                          00000100
         FTCCMD     &CMD=                                               00000200
         JOBSEP     ZEND=NO,JOB=NO     CLOSE OUT LAST JOB               00000300
         PUNCH      '&CMD'                                              00000400
         MEND                                                           00000500
