         MACRO                                                          00020000
         SGIEX201                                                       00040000
         COPY  SGGBLPAK                                                 00060000
&SGCTRLC(6) SETC 'IEXCWKA'         MODULE NAME                          00080000
         COPY  SGASMPAK                                                 00100000
         PUNCH ' SGIEX001 &SGALGOB(5),&SGALGOB(4),&SGALGOB(2),&SGALGOB(X00120000
               1),&SGALGOB(3),&SGALGOA(1)'                              00140000
         PUNCH ' END'                                                   00160000
         PUNCH '/*'                                                     00180000
         MEND                                                           00200000
