         MACRO                                                          04000000
         SGIHK501                                                       08000000
         COPY  SGGBLPAK                                                 12000000
         PUNCH ' COPY OUTDD=LINKLIB,INDD=RC551'                         18000000
 PUNCH '   SELECT MEMBER=(IHKAST,IHKAWS,IHKBSH,IHKBST,IHKCC1,IHKCC2)'   24000000
 PUNCH '   SELECT MEMBER=(IHKCC3,IHKCC4,IHKCC5,IHKCC6,IHKCC7,IHKCC8)'   28000000
 PUNCH '   SELECT MEMBER=(IHKCDP,IHKCGN,IHKCIP)'                        32000000
 PUNCH '   SELECT MEMBER=(IHKCLN,IHKDEQ,IHKEDT,IHKED1,IHKEOS,IHKGET)'   36000000
 PUNCH '   SELECT MEMBER=(IHKLAY,IHKLDC,IHKLDS,IHKLGN,IHKMAA,IHKMGE)'   40000000
 PUNCH '   SELECT MEMBER=(IHKMUF,IHKOPN,IHKPUT,IHKRNR,IHKSAV,IHKSND)'   44000000
 PUNCH '   SELECT MEMBER=(IHKSRV,IHKSTS,IHKSUB)'                        48000000
         PUNCH ' COPY OUTDD=TELCMLIB,INDD=RC551'                        54000000
 PUNCH '   SELECT MEMBER=(IHKAFI,IHKAVT,IHKBGN,IHKBPM,IHKCCI,IHKCCS)'   60000000
 PUNCH '   SELECT MEMBER=(IHKCMD,IHKDEF,IHKDSP,IHKEXC,IHKEXF,IHKGCW)'   64000000
 PUNCH '   SELECT MEMBER=(IHKINI,IHKIRL,IHKIRP,IHKLAB,IHKLAD,IHKLAP)'   68000000
 PUNCH '   SELECT MEMBER=(IHKLAT,IHKLEW,IHKLST,IHKMOD,IHKMSG,IHKNBX)'   72000000
 PUNCH '   SELECT MEMBER=(IHKNUM,IHKRNQ,IHKSCN,IHKSDQ,IHKSMG,IHKSYN)'   76000000
 PUNCH '   SELECT MEMBER=(IHKUTM,IHKWTR)'                               80000000
        MEND                                                            84000000
