 GBLA &SGTESTA(2),&HEX,&SGCTRLA(2),&SGFORTA(8),&SGSUPRA(2)              00160020
 GBLA &SGUNNMA(255),&SGCNTRA(10),&SGDADRA(248),&SGCBLEA(2)
 GBLA &SGCPRGA(23),&SGOPCHA,&SGDASDA,&SGACTR
 GBLA &IEALOA,&IEAHIA,&IEALMTA,&SGPL11A(10),&SGSTMGA,&SGMAXDV           00240000
 GBLA &SGCBLFA(3),&SGMAXA(3),&SGFORLA(5),&SGCBLUA(3)                    00280018
 GBLA &SGSCHDA(20),&SGUTSZA,&SGALGOA(1),&SG2314A,&SG5450A,&SGSCNYA(2)   00320021
 GBLA &SGSCHAA(12),&SGSCNPA(31),&SGAR01A(31),&SGAR02A(31),&SGAR03A(31)  00324021
 GBLA &SGAR04A(31),&SGAR05A(31),&SGAR06A(31),&SGAR07A(31),&SGAR08A(31)  00324821
 GBLA &SGAR09A(31),&SGAR10A(31),&SGAR11A(31),&SGAR12A(31)               00325621
 GBLA &SG3330A,&SG2305A,&SGTGRIA(32),&SGTGROA(32)                       00332021
 GBLA &SG3505A,&SG3525A                                                 00336021
 GBLA &SGCKPA(6),&SG2321A,&SG2311A,&SGLDRA,&SGCPRNA(1),&SGBSCA          00360019
 GBLA &SGCPRPA(104),&SGLINKA(8),&SGSCNXA,&SGSCNZA                       00400017
 GBLA &SGDNBFA(248),&SGDEVTP(248),&SGETABA(248)
 GBLA &SGCUN1A(80)
 GBLA &SGGJUA(15),&SGGJCA(11)
 GBLA &SGEDITA(25),&SGTSOPA(4),&SGMODA(1),&SGEDT2A(25),&SGEDT3A(25)     00449421
 GBLA &SGEDT4A(25),&SGEDT5A(25)                                         00453221
 GBLB &SGGJCB(8),&SGLDRB(5)
 GBLB &SGCHANB(240),&SGQUITB,&SGMENTB(89),&SGSUPRB(48),&SGCPRGB(14)     00470000
 GBLB &SGUNU1B(80),&SGUNU2B(80),&SGUNU3B(80),&SGUNU4B(80)
 GBLB &SGUNU5B(80),&SGUNU6B(80),&SGUNU7B(80),&SGUNU8B(80)
 GBLB &SGUNM1B(80),&SGUNM2B(80),&SGUNM3B(80),&SGUNM4B(80)
 GBLB &SGUNM6B(80),&SGUNF4B(80),&SGUNF5B(80),&SGUNT3B(80)
 GBLB &SGUNF6B(80)
 GBLB &SGUNF1B(80),&SGUNF2B(80),&SGUNF3B(80),&SGUNM5B(80)
 GBLB &SGUNT1B(80),&SGUNT2B(80),&SGTESTB(6)
 GBLB &SGSCHDB(44),&SGDMGTB(5),&SGCPUB(54),&SGSTMGB(17),&SGDCLSB(83)    00690021
 GBLB &SGUCSIB(12),&SGUCSDB(12),&SGCKPB(56),&SGCBLUB(24)                00710017
 GBLB &SGUCSEB(2),&SG2CSIB(5),&SG2CSDB(5)                               00716020
 GBLB &SGDT01B(248),&SGDT02B(248),&SGDT03B(248),&SGDT04B(248),&LIMIT(4)
 GBLB &SGDT05B(248),&SGDT06B(248),&SGDT07B(248),&SGDT08B(248)
 GBLB &SGDT12B(248),&SG3410B(248)
 GBLB  &SGBRSTB(16)
 GBLB &SGDU01B(248),&SGDU02B(248),&SGDU03B(248),&SGDU04B(248)
 GBLB &SGDU05B(248),&SGDU06B(248),&SGDU07B(248),&SGDU08B(248)
 GBLB &SGDU09B(248),&SGDU10B(248),&SGDU11B(248)
 GBLB &SGDM01B(248),&SGDM02B(248),&SGDM03B(248),&SGDM04B(248)
 GBLB &SGDM05B(248),&SGDM06B(248),&SGDM07B(248),&SGDM08B(248)
 GBLB &SGDM09B(248),&SGOPSUB(248),&SG2321B(248),&SGDASWB(248)
 GBLB &SGDF01B(248),&SGDF02B(248),&SGDF03B(248),&SGDF04B(248)
 GBLB &SGDF05B(248),&SGDF06B(248),&SGDF07B(248),&SGDF08B(248)
 GBLB &SGDF09B(248),&SGDF10B(248),&SGDF11B(248),&SGDF12B(248)
 GBLB &SGDF13B(248),&SGDF14B(248),&SGDF15B(248)
 GBLB &SGDAP1B(248),&SGDAP2B(248),&SGDAP3B(248)
 GBLB &SGDAP4B(248),&SGDAP5B(248),&SGDAP6B(248),&SGDRQ1B(248)
 GBLB &SGDAP7B(248),&SGDAP8B(248),&SGDAP9B(248),&SGDAPAB(248)
 GBLB &SGDAPBB(248),&SGDAPCB(248),&SGDAPDB(248),&SGDAPEB(248)
 GBLB &SGDAPFB(248)
 GBLB &SGDRQ2B(248)
 GBLB &SGDAD1B(248),&SGDAD2B(248),&SGDAD3B(248),&SGDAD4B(248)
 GBLB &SGDAD5B(248),&SGDAD6B(248),&SGDAD7B(248),&SGDAD8B(248)
 GBLB &SGDSQ1B(248),&SGDSQ2B(248),&SGTRMDB(248),&SGSVCAB(255)
 GBLB &SGCOBLB(4),&SGSVCBB(255),&SGSVCCB(255),&SGSVCDB(255),&SGMALB(11) 01040021
 GBLB &SGSVCEB(255),&SGSVCFB(255),&SGFORTB(52),&SGLINKB(19),&SGCBLEB(6) 01080019
 GBLB &SGCBLFB(11),&SGLOADB(3),&SGOVERB(4),&SGASSEB(3),&SGPL11B(160)    01120000
 GBLB &SGCTRLB(16),&GETB(3),&SGFORLB(5),&SGGRPHB(4),&SGALGOB(5)         01160018
 GBLB &SGCHK1B(2),&SGPTOPB(1),&SGNODEV,&SGMOD1B(5),&SGMOD2B(5)          01183017
 GBLB  &SGMOD3B(5),&SGMOD4B(5),&SGMOD5B(5),&SGMOD6B(5)                  01189021
 GBLB &SGMOD7B(5),&SGMOD8B(5),&SGMOD9B(5),&SGMODAB(5),&SGMODBB(5)       01191400
 GBLB &SGSIZ1B(5),&SGSIZ2B(5),&SGSIZ3B(5),&SGSIZ4B(5),&SGSIZ5B(5)       01195000
 GBLB &SGSIZ6B(5),&SGSIZ7B(5),&SGSIZ8B(5),&SGSIZ9B(5),&SGSIZ0B(5)       01197000
 GBLB &SGEMULB(1),&SGUTILB(3)                                           01199000
 GBLB &SGSER1B(5),&SGSER2B(5),&SGSER3B(5),&SGSER4B(5),&SGMCSTB(4)       01201017
 GBLB &SGSCHRB(16),&SGSCHOB(16),&SGSCHHB(16),&SGLCPB(1)                 01208018
     GBLB &SGCKPLB(4),&SGCKFTB(4)                                       01210019
 GBLB &SGRT01B(31),&SGRT02B(31),&SGRT03B(31),&SGRT04B(31),&SGRT05B(31)  01212017
 GBLB &SGRT06B(31),&SGRT07B(31),&SGRT08B(31),&SGRT09B(31),&SGRT10B(31)  01214017
 GBLB &SGRT11B(31),&SGRT12B(31),&SGRT13B(31),&SGRT14B(31),&SGRT15B(31)  01216017
 GBLB &SGRT16B(31),&SGCMD1B(31),&SGCMD2B(31),&SGCMD3B(31),&SGCMD4B(31)  01218017
 GBLB &SGSCSDB(31),&SGSCMSB(31)                                         01218821
 GBLB &SGDUMMY(248),&SGDEVB(1),&SGTYPEB(96)
 GBLC &SGGJCC(11),&SGLDRC(3)
 GBLC &SGRESMC(11),&SGUNNMC(100),&SGCTRLC(66)
 GBLC &SGCPRGC(26)                                                      01280017
 GBLC &SGSCHDC(15),&EBCDIC,&SGLNKLC(21),&SGSVCLC(51)
 GBLC &SGCNTRU,&SGSCNCC(31),&SGSCNAC(31)
 GBLC &SGCLASC(1),&SGEDITC(25),&SGEDT2C(25),&SGEDT3C(25),&SGEDT4C(25)   01331021
 GBLC &SGEDT5C(25),&SGEDT6C(25),&SGEDT7C(25)                            01333421
