         MACRO                                                          00020000
         SORTMERG &SIZE=,&SORTOPT=,&RECTYPE=,&CNTLFLD=,&SORTDEV=,&MERGEX00040000
               =,&MESSAGE=                                              00060000
         COPY  SGGBLPAK                                                 00080000
         LCLA  &A                                                       00100000
         AIF   (&SGMENTB(35)).E9        WAS SORTMERG CALLED THIS SYSGEN 00120000
&SGMENTB(35) SETB 1                     SW ON MEANS SORTMERG USED ONCE  00140000
         AIF   (T'&SIZE EQ 'O').T1      IF SIZE OMIT,ASSUME 13312 BYTES 00160000
         AIF   (T'&SIZE NE 'N').T2      BR ERR RTN IF VALUE NOT SLFDFNG 00180000
         AIF   (&SIZE LT 12000).T2                                      00200000
&SGSTMGA SETA  &SIZE                    PUT SIZE VALUE IN GLOBAL A SYM  00220000
.T4 MNOTE *,'     SIZE &SGSTMGA BYTES '                                 00240000
         AGO   .NXTRTN                                                  00260000
.T1      ANOP                           DEFAULT RTN FOR OMITTED SIZE    00280000
&SGSTMGA  SETA  12000                                                   00300000
         AGO  .T4                       GO PRT SIZE PATEMETER           00320000
.T2 MNOTE 5,'* * * IEISOR101 SIZE VALUE &SIZE INVALID'                  00340000
&SGQUITB SETB  1                                                        00360000
         AGO  .NXTRTN                                                   00380000
.NXTRTN AIF (T'&SORTOPT EQ 'O').H1      ASSUME MOD'FD LIB IF BR         00400000
        AIF ('&SORTOPT' EQ 'MODPRGM').H1 IS MOD'FTN PROG REQUESTED      00420000
        AIF ('&SORTOPT' EQ 'FULLIB').S1 IS FULL SORT/MERGE LIB REQUESTD 00440000
&SGQUITB SETB  1                                                        00460000
    MNOTE 5,'* * * IEISOR102 SORTOPT VALUE &SORTOPT INVALID'            00480000
         AGO  .END                      EXIT FROM SORTMERG MACRO        00500000
.S1 MNOTE *,'     ENTIRE SORT/MERGE LIBRARY '                           00520000
&SGSTMGB(1) SETB 1                      SW 1 ON EQ ENTIRE SORT/MERG LIB 00540000
         AGO  .END                      EXIT FROM SORTMERG MACRO        00560000
.H1 MNOTE *,'     SORT/MERGE OPTIONS INCLUDE- '                         00580000
&SGSTMGB(16) SETB ('&SORTOPT' EQ 'MODPRGM') IF MODPRGM SPEC PUT SW16 ON 00600000
       AIF (NOT &SGSTMGB(16)).TESTYPE   IF MODPRGM SPECD PRT MESSAGE    00620000
    MNOTE *,'        MODIFICATION PROGRAMS '                            00640000
.TESTYPE AIF   (N'&RECTYPE EQ 0).E2     WAS RECTYPE PARAMETER OMITTED   00660000
&A       SETA  0                        CLEAR CTR FOR RECTYPE PARA SCAN 00680000
.RETRY   AIF (&A EQ N'&RECTYPE).CK2CK3  IF SCAN DONE CHK FOR MIN 1 TYPE 00700000
&A       SETA  &A+1                     BUMP CTR POINT NXT RECTYPE OPND 00720000
  AIF ('&RECTYPE(&A)' EQ 'FIXED').S2    IF FIXED REC SPECD,PRT & SET SW 00740000
  AIF ('&RECTYPE(&A)' EQ 'VAR').S3      IF VARBL REC SPECD,PRT & SET SW 00760000
  AIF ('&RECTYPE(&A)' EQ 'LONG').S4     IF SPEC REC OVER 256,PRT/SET SW 00780000
&SGQUITB SETB  1                        'RECTYPE' SUBLISTD OPRN INVALID 00800000
    MNOTE 5,'* * * IEISOR103 RECTYPE VALUE &RECTYPE(&A) INVALID'        00820000
         AGO   .RETRY                   GO TEST NEXT RECTYPE VALUE      00840000
.S2 MNOTE *,'        FIXED LENGTH RECORDS '                             00860000
&SGSTMGB(2) SETB 1                      SW 2 SET FOR FIXED LENGTH REC.S 00880000
         AGO   .RETRY                   GO TEST NEXT RECTYPE VALUE      00900000
.S3 MNOTE *,'        VARIABLE LENGTH RECORDS '                          00920000
&SGSTMGB(3) SETB 1                      SW 3 SET FOR VARBL LENGTH REC.S 00940000
         AGO   .RETRY                   GO TEST NEXT RECTYPE VALUE      00960000
.S4 MNOTE *,'        RECORDS LONGER THAN 256 BYTES '                    00980000
&SGSTMGB(4) SETB 1                      SW 4 SET FOR RECS OVER 256 BYTE 01000000
         AGO   .RETRY                   GO TEST NEXT RECTYPE VALUE      01020000
.CK2CK3 AIF (&SGSTMGB(2) OR &SGSTMGB(3)).CKCTFLD IF RECTYP OK CK CNTFLD 01040000
    MNOTE 5,'* * * IEISOR104 RECTYPE MUST INCLUDE VAR OR FIXED'         01060000
&SGQUITB SETB  1                        RECTYPE SPEC,BUT VAR/FIXED OMIT 01080000
         AGO   .CKCTFLD                                                 01100000
.E2 MNOTE 5,'* * * IEISOR105 RECTYPE VALUE NOT SPECIFIED'               01120000
&SGQUITB SETB  1                        RECTYPE PARA. MUST NOT BE OMITD 01140000
.CKCTFLD AIF   (N'&CNTLFLD EQ 0).E6     WAS CNTLFLD PARAMETER OMITTED   01160000
&A       SETA  0                        CLEAR CTR FOR CNTLFLD PARA SCAN 01180000
.RESCAN AIF (&A EQ N'&CNTLFLD).CHKDEVS  IF SCAN DONE GO CHK SORTDEV OPT 01200000
&A       SETA  &A+1                     BUMP CTR POINT NXT CNTLFLD OPTN 01220000
    AIF ('&CNTLFLD(&A)' EQ 'SINGLE').S5 IF SINGLE SPECD,PRT AND SET SWT 01240000
  AIF ('&CNTLFLD(&A)' EQ 'MULTIPLE').S6 IF MLTPLE SPECD,PRT AND SET SWT 01260000
&SGQUITB SETB  1                        'CNTLFLD' SUBLISTD OPRN INVALID 01280000
    MNOTE 5,'* * * IEISOR106 CNTLFLD VALUE &CNTLFLD(&A) INVALID'        01300000
         AGO   .RESCAN                  GO TEST NEXT CNTLFLD VALUE      01320000
.S5 MNOTE *,'        SINGLE CONTROL FIELDS '                            01340000
&SGSTMGB(5) SETB 1                      SW 5 SET FOR SINGLE CNTLFLD OPT 01360000
         AGO   .RESCAN                  GO TEST NEXT CNTLFLD VALUE      01380000
.S6 MNOTE *,'        MULTIPLE CONTROL FIELDS '                          01400000
&SGSTMGB(6) SETB 1                      SW 6 SET FOR MLTPLE CNTLFLD OPT 01420000
         AGO   .RESCAN                                                  01440000
.E6 MNOTE 5,'* * * IEISOR107 CNTLFLD VALUE NOT SPECIFIED'               01460000
&SGQUITB SETB  1                        MIN. OF SINGLE OR MULTIPLE REQD 01480000
.CHKDEVS AIF   (N'&SORTDEV EQ 0).E8     WAS SORTDEV PARAMETER OMITTED   01500000
&A       SETA  0                        CLEAR CTR FOR SORTDEV SCAN      01520000
.MOREDEV AIF (&A EQ N'&SORTDEV).CHKMERG IF SCAN DONE GO CHK MERGE OPT.S 01540000
&A       SETA  &A+1                     BUMP CTR POINT NXT SORTDEV OPTN 01560000
   AIF ('&SORTDEV(&A)' EQ '2311').S8    IF 2311=SORT/MERG DV,PRT/SET SW 01580000
   AIF ('&SORTDEV(&A)' EQ '2400').S9    IF 2400=SORT/MERG DV,PRT/SET SW 01600000
   AIF ('&SORTDEV(&A)' EQ '2301').S7    2301 SORT DEVICE                01620000
   AIF ('&SORTDEV(&A)' EQ '2314').SH                                    01640000
&SGQUITB SETB  1                        'SORTDEV' SUBLISTD OPRN INVALID 01660000
    MNOTE 5,'* * * IEISOR108 SORTDEV VALUE &SORTDEV(&A) INVALID'        01680000
         AGO   .MOREDEV                 GO TEST NEXT SORTDEV VALUE      01700000
.S8 MNOTE *,'        2311 DISK '                                        01720000
&SGSTMGB(8) SETB  1                     SW 8 SET FOR SORT/MERGE ON 2311 01740000
         AGO   .MOREDEV                 GO TEST NEXT SORTDEV VALUE      01760000
.S9 MNOTE *,'        2400 MAGNETIC TAPES '                              01780000
&SGSTMGB(9) SETB  1                     SW 9 SET FOR SORT/MERGE ON 2400 01800000
         AGO   .MOREDEV                 GO TEST NEXT SORTDEV VALUE      01820000
.S7 MNOTE *,'      2301 DRUM '                                          01840000
&SGSTMGB(7) SETB 1                                                      01860000
         AGO   .MOREDEV                                                 01880000
.SH MNOTE *,'      2314 DIRECT ACCESS STORAGE'                          01900000
&SGSTMGB(11)  SETB  1                                                   01920000
         AGO   .MOREDEV                                                 01940000
.E8 MNOTE 5,'* * * IEISOR109 SORTDEV VALUE NOT SPECIFIED'               01960000
&SGQUITB SETB  1                        'SORTDEV' OMITTED-MUST BE SPECD 01980000
.CHKMERG AIF (N'&MERGE EQ 0).CHKMESG    IF MERGE PARA. OMIT GO NEXT OPN 02000000
&A       SETA  0                        CLEAR CTR FOR MERGE SCAN        02020000
.RETEST AIF (&A EQ N'&MERGE).CHKMESG    IF MERGE SCAN THRU CHK MSG OPTS 02040000
&A       SETA  &A+1                     BUMP CTR POINT NXT MERGE VALUE  02060000
 AIF ('&MERGE(&A)' EQ 'MERGONLY').SA    IF MERGE-ONLY SPECD,PRT/SET SWT 02080000
&SGQUITB SETB  1                        'MERGE' SUBLISTD OPRN INVALID   02100000
    MNOTE 5,'* * * IEISOR110 MERGE VALUE &MERGE(&A) INVALID'            02120000
         AGO   .RETEST                  GO TEST NEXT MERGE OPTION SPECD 02140000
.SA MNOTE *,'        MERGE ONLY OPERATIONS '                            02160000
&SGSTMGB(10) SETB 1                     SW 10 SET FOR MERGE-ONLY OPRATN 02180000
         AGO   .RETEST                  GO TEST NEXT MERGE OPTION SPECD 02200000
.CHKMESG AIF (N'&MESSAGE EQ 0).NO       IF MSG PARA NULL,NO-MSG-OP RQST 02220000
&A       SETA  0                        CLEAR COUNTER OF SUBLISTD OPRND 02240000
.TSTLOOP AIF (&A EQ N'&MESSAGE).CKMSGSW IF MSG SCAN DONE CK CMBNT/VALUE 02260000
&A       SETA  &A+1                     BUMP CTR POINT NXT MESAGE VALUE 02280000
  AIF ('&MESSAGE(&A)' EQ 'PRINTER').SC  IF SORT MSG ON PRTR,SET SW/PRT  02300000
  AIF ('&MESSAGE(&A)' EQ 'CONSOLE').SD  IF SORT MSG ON CNSL,SET SW/PRT  02320000
  AIF ('&MESSAGE(&A)' EQ 'ALL').SE      IF ALL SORT MSG O/P,SET SW/PRT  02340000
  AIF ('&MESSAGE(&A)' EQ 'CRITICAL').SF IF CRITICAL MSG O/P,SET SW/PRT  02360000
&SGQUITB SETB  1                        'MESSAGE' VALUE INVALID         02380000
    MNOTE 5,'* * * IEISOR111 MESSAGE VALUE &MESSAGE(&A) INVALID'        02400000
         AGO   .TSTLOOP                 GO TEST NEXT MESSAGE VALUE      02420000
.SC MNOTE *,'        SORT/MERGE MESSAGES ON PRINTER '                   02440000
&SGSTMGB(12) SETB 1                     SW 12 SET FOR SORT MSG ON PRNTR 02460000
         AGO   .TSTLOOP                 GO TEST NEXT MESSAGE VALUE      02480000
.SD MNOTE *,'        SORT/MERGE MESSAGES ON CONSOLE TYPEWRITER '        02500000
&SGSTMGB(13) SETB 1                     SW 13 SET FOR SORT MSG ON CNSL. 02520000
         AGO   .TSTLOOP                 GO TEST NEXT MESSAGE VALUE      02540000
.SE MNOTE *,'        ALL SORT/MERGE MESSAGES GENERATED '                02560000
&SGSTMGB(14) SETB 1                     SW 14 SET FOR 'ALL-MSG' OPTN.   02580000
         AGO   .TSTLOOP                 GO TEST NEXT MESSAGE VALUE      02600000
.SF MNOTE *,'        ONLY CRITICAL SORT/MERGE MESSAGES GENERATED '      02620000
&SGSTMGB(15) SETB  1                    SW 15 SET FOR 'CRITICAL-MSG' OP 02640000
         AGO   .TSTLOOP                 GO TEST NEXT MESSAGE VALUE      02660000
.CKMSGSW AIF   (((&SGSTMGB(12) AND NOT &SGSTMGB(13))OR(&SGSTMGB(13) ANDX02680000
                NOT &SGSTMGB(12)))AND((&SGSTMGB(14) AND NOT &SGSTMGB(15X02700000
               ))OR(&SGSTMGB(15) AND NOT &SGSTMGB(14)))).END            02720000
&SGQUITB SETB  1                        MSG-DEV AND -TYPE BAD COMBINATN 02740000
    MNOTE 5,'* * * IEISOR111 MESSAGE VALUE &MESSAGE INVALID'            02760000
         MEXIT                                                          02780000
.NO MNOTE *,'        NO SORT/MERGE MESSAGES GENERATED '                 02800000
         AGO  .END                      EXIT FROM SORTMERG MACRO        02820000
.E9 MNOTE 5,'* * * IEISOR112 SORTMERG MACRO PREVIOUSLY USED'            02840000
&SGQUITB SETB  1                        ONLY 1 SORTMERG MAC CALL/SYSGEN 02860000
.END     MEND                           EXIT FROM SORTMERG MACRO        02880000
