         MACRO                                                          00020000
&NAME    GDPD                                                           00040000
&NAME    IHBGAM2 10885                                                  00060000
         MEND                                                           00080000
