       MACRO                                                            00020000
&NAME    GNOP4 &ADDR,&GROUP                                             00040000
&NAME    IHBGAM1 10944,&ADDR,&GROUP                                     00060000
         MEND                                                           00080000
