         MACRO                                                          00020000
&NAME    GSIC  &ADDR,&GROUP                                             00040000
&NAME    IHBGAM1 10985,&ADDR,&GROUP                                     00060000
         MEND                                                           00080000
