         MACRO                                                          00100000
         IDFIN08                                                        00200000
         COPY IDFGBL                                                    00300000
         AIF   (NOT &PIB(48)).TR                                        00400000
         MNOTE *,'IDF100 IN TRACE MODE ENTERING IDFIN08'                00500000
.TR      ANOP                                                           00600000
         AIF   (&PIB(11)).DSG4XA                                        00700000
         AIF   (&PIB(12)).DSG4XA                                        00800000
.*********************************************************************  00900000
.*                                                                    * 01000000
.*                  DATA SINK GROUP ASSEMBLY PART I                   * 01100000
.*                                                                    * 01200000
.*********************************************************************  01300000
.*             PART I OF THE DATA SINK GROUP ASSEMBLY PASSES THROUGH    01400000
.*             THE DATA SINK ARRAYS, DETERMINES IF A DATA SINK GROUP    01500000
.*             IS REQUIRED, AND PASSES CONTROL TO PART II.              01600000
.*             THE PRINT AND TRANSMIT SINKS ARE ASSEMBLED LAST,         01700000
.*             UNLESS CONTINUED PICTURE OPERAND REQUIRES EARLIER        01800000
.*             ASSEMBLY                                                 01900000
&M       SETA  20                      POINT TO PICTURE OPERAND         02000000
&PIA(2)  SETA  4                  RESET &PIA(2) VALUE FOR MNOTES  FSJW  02100000
&PIB(1)  SETB  (&PIB(2) AND &PIA(10) NE &M AND N'&SYSLIST(&M) NE 0)     02200000
.*                                     OPND CODED ILLEGALLY IN CONT'N   02300000
         IDFMSG1 100                                                    02400000
&PIB(15) SETB  (&PIB(15) OR &PIB(1))   TURN ON ERROR BIT                02500000
         AIF   (&PIB(2) AND &PIA(10) NE &M).DSG4XA                      02600000
&PIB(1)  SETB  (&PIB(2) AND N'&SYSLIST(&M) EQ 0)      MISSING CONT'N    02700000
         IDFMSG1 102                                                    02800000
&PIB(15) SETB  (&PIB(15) OR &PIB(1))                                    02900000
         AIF   (N'&SYSLIST(&M) GT 0 AND NOT &B(20)).DSG09         FSJW  03000000
         AIF   (N'&SYSLIST(&M) EQ 0).DSG09                        FSJW  03100000
&PIB(1)  SETB  1                                                  FSJW  03200000
         IDFMSG1 101                                              FSJW  03300000
         AGO   .DSG4XA                                            FSJW  03400000
.DSG09   ANOP  ,                                                  FSJW  03500000
         AIF   (&B(20)).DSG4XA         IF SOURCE=X1/X2            FSJW  03600000
&H       SETA  0                       SET INDEX TO SUBOPS              03700000
&B(8)    SETB  0                       ASSUME NO CONTINUATION           03800000
         AIF   (&PIB(2)).DSG10         INITIALIZATION ALREADY DONE      03900000
&N       SETA  0                       SET INDEX TO SINKS               04000000
&PIA(10) SETA  20                      SET TO VALUE OF PICTURE OPND     04100000
&FB(22)  SETB  0                       CHAINING BIT IN DATA SINK        04200000
&FB(23)  SETB  0                       THESE                            04300000
&FB(24)  SETB  0                            BITS                        04400000
&FB(25)  SETB  0                                 NOT USED               04500000
&B(9)    SETB  0                       FIRST TIME SWITCH                04600000
&B(6)    SETB  0                       ASSUME ALL PICTURES INVALID      04700000
&PIB(1)  SETB  (&B(13) AND N'&SYSLIST(&M) NE 0)                         04800000
         IDFMSG3 565                                                    04900000
&PIB(15) SETB  (&PIB(15) OR &PIB(1))                                    05000000
         AIF   (&B(13)).DSG10           EMITTED SOURCE                  05100000
&B(6)    SETB  1                       ASSUME ALL PICS VALID            05200000
         AIF   (&B(11) OR &B(12) OR NOT &FB(1) AND NOT &FB(2)          X05300000
               AND &FB(3)).DSG10       SOURCE NUMERIC,PIC VALID         05400000
         AIF   (N'&SYSLIST(&M) EQ 0 OR NOT (&FB(6) AND &FB(13) OR      X05500000
               &FB(7) AND &FB(16))).DSG10                               05600000
&PIB(1)  SETB  1                                                        05700000
         IDFMSG3 566                                                    05800000
&PIB(15) SETB  1                       SET ERROR BIT                    05900000
&B(6)    SETB  0                                                        06000000
.DSG10   ANOP  ,                                                SA55132 06100000
&B(7)    SETB  (&B(6))                                          SA55132 06130000
         AIF   (N'&SYSLIST(&M) LE 1).DSG11                      SA55132 06160000
&H       SETA  N'&SYSLIST(&M)                                           06200000
&B(8)    SETB  (&B(6) AND                                              X06300000
               '&SYSLIST(&M,&H)' EQ 'C')                                06400000
&H       SETA  0                                                        06500000
.DSG11   ANOP  ,                       RETURN FOR SUCCESIVE SINKS       06600000
&B(2)    SETB  0                       ASSUME NO PICTURE                06700000
&B(3)    SETB  0                       ASSUME NO EDITED PRT             06800000
&B(4)    SETB  0                       ASSUME NO EDITED TMT             06900000
&B(5)    SETB  0                       ASSUME PRT/TMT EDIT DIFFER       07000000
.*D  B(7)  SETA  B(6)                                           SA55132 07100000
         AIF   (&H GT N'&SYSLIST(&M)-&B(8) AND &B(6) OR &N GE 5).DSG12  07200000
&H       SETA  &H+1                    INCREMENT INDEX TO SUBOPS        07300000
&B(6)    SETB  (&H LE N'&SYSLIST(&M)-&B(8) AND &H GT 0)         SA55132 07350000
         AIF   (&H GT N'&SYSLIST(&M)-&B(8) AND &B(6) OR &N GE 5).DSG12  07400000
.*             GO TO .DSG12 IF PIC EXHAUSTED OR BUFFER SINKS EXHAUSTED  07500000
&N       SETA  &N+1                    OTHERWISE, ADVANCE POINTER       07600000
&K       SETA  5*&N                    ADVANCE PTR IN ARRAYS            07700000
         AIF   (&N EQ &F OR &N EQ &G).DSG11 PASS OVER TMT OR PRT        07800000
&B(1)    SETB  (NOT &DSKB1(&K) OR NOT (&DSKB1(&K+50) OR &DSKB1(&K+75)) *07900000
               AND &DSKB1(&K+100) AND &DSKB1(&K+125))                   08000000
&PIB(1)  SETB  (&B(1) AND T'&SYSLIST(&M,&H) NE 'O' AND &B(7))           08100000
         IDFMSG3 567                                                    08200000
         AIF   (&B(1) OR NOT (&DSKB1(&K+50) OR &DSKB1(&K+75))).DSG11    08300000
&B(2)    SETB  (&B(7) AND T'&SYSLIST(&M,&H) NE 'O')                     08400000
.*                                     INDICATE VALID PICTURE           08500000
         AGO   .DSG20                  GO ON TO PART II                 08600000
.DSG12   ANOP  ,                                                SA55132 08700000
&H       SETA  6                                                SA55132 08730000
         AIF   (&G LT &N-&H+2 OR &G GT &N).DSG13                SA55132 08760000
&H       SETA  &G+&H-1-&N              POINT TO TMT SINK'S PICTURE      08800000
&B(2)    SETB  (&B(7) AND T'&SYSLIST(&M,&G) NE 'O')             SA55132 08900000
&B(4)    SETB  (&B(2))                 INDICATE EDITED TMT              09000000
&K       SETA  5*&G                    POINT TO TMT SINK IN ARRAYS      09100000
&H       SETA  &H+1+&N-&G              RESTORE PTR TO SUBOP             09200000
.DSG13   AIF   (&F LT &N-&H+2 OR &F GT &N).DSG14                        09300000
&H       SETA  &F+&H-1-&N              POINT TO PRT SINK'S PICTURE      09400000
&B(1)    SETB  (&B(7) AND T'&SYSLIST(&M,&F) NE 'O')             SA55132 09500000
&B(3)    SETB  (&B(1))                 INDICATE EDITED PRT              09600000
&B(2)    SETB  (&B(2) OR &B(1))                                         09700000
&K       SETA  5*&F                    POINT TO PRT SINK IN ARRAYS      09800000
&H       SETA  &H+1+&N-&F              RESTORE POINTER                  09900000
         AIF   (NOT (&B(2) AND &B(3) AND &B(4))).DSG14                  10000000
&B(5) SETB ('&SYSLIST(&M,&G+&H-1-&N)' EQ '&SYSLIST(&M,&F+&H-1-&N)')     10100000
&B(3)    SETB  (&B(5))                                                  10200000
.DSG14   ANOP  ,                                                SA55132 10300000
         AIF   (&B(2)).DSG20                                    SA55132 10350000
&PIB(2)  SETB  (&H EQ N'&SYSLIST(&M) AND &B(8) AND &N LE 5)             10400000
         AIF   (&PIB(2)).DSG4XA                                         10500000
&PIB(1)  SETB  (N'&SYSLIST(&M) GT &H)  TEST FOR EXCESS OPNDS            10600000
         IDFMSG1 104                                                    10700000
&B(6)    SETB  0                       PICTURE NO LONGER ALLOWED        10800000
         AIF   (&N LT 5).DSG11         CONTINUE SEARCH FOR BUFFERS      10900000
         AIF   (&F EQ 0 AND &G EQ 0).DSG49       PRT AND TMT SINKS DONE 11000000
         AIF   (&G EQ 0).DSG15         NO TMT SINK                      11100000
         AIF   (&CTA(6) NE 0).DSG14A                                    11200000
&A(2)    SETA  &N                       SAVE CURRENT VALUE OF &N        11300000
&N       SETA  &G                       GET NUMBER OF TMT SINK          11400000
&PIB(1)  SETB  1                                                        11500000
         IDFMSG3 568                                                    11600000
&PIB(15) SETB  1                                                        11700000
&N       SETA  &A(2)                    RESTORE VALUE OF &N             11800000
&G       SETA  0                                                        11900000
         AIF   (&F EQ 0).DSG49                                          12000000
         AGO   .DSG15                                                   12100000
.DSG14A  ANOP                                                           12200000
&A(4)    SETA  &CTA(6)+&FB(14)*&DSCB(40)                                12300000
&K       SETA  5*&G                    POINT TO TMT SINK IN ARRAYS      12400000
&B(4)    SETB  (NOT &FB(4))            EDITING REQUIRED FOR TMT SINK    12500000
.DSG15   AIF   (&F EQ 0).DSG16         NO PRT SINK                      12600000
         AIF   (&CTA(6) NE 0).DSG15A                                    12700000
&A(2)    SETA  &N                       SAVE CURRENT VALUE OF &N        12800000
&N       SETA  &F                       GET NUMBER OF PRT SINK          12900000
&PIB(1)  SETB  1                                                        13000000
         IDFMSG3 568                                                    13100000
&PIB(15) SETB  1                                                        13200000
&N       SETA  &A(2)                    RESTORE VALUE OF &N             13300000
&F       SETA  0                                                        13400000
         AGO   .DSG49                                                   13500000
.DSG15A  ANOP                                                           13600000
&A(4)    SETA  &CTA(6)+&FB(14)*&DSCB(40)                                13700000
.*D      K  SETA  5F                                            SA55132 13800000
&B(3)    SETB  (NOT &FB(5))                                             13900000
         AIF   (NOT (&B(3) AND &B(4))).DSG16     BOTH NOT EDITED        14000000
&K       SETA  5*&F                                             SA55132 14050000
&B(5)    SETB  (NOT &DSKB2(&K+75) AND &DSKB2(&K) EQ &DSKB2(5*&G)       X14100000
               AND &DSKB2(&K+25) EQ &DSKB2(5*&G+25))                    14200000
&B(5)    SETB  (&B(5) AND &DSKB2(&K+50) EQ &DSKB2(5*&G+50))             14300000
&B(3)    SETB  (&B(5))                 IGNORE PRT SINK IF NOT SAME      14400000
&K       SETA  5*&G                    POINT TO TMT SINK IN ARRAYS      14500000
.DSG16   AIF   (NOT &B(3) AND NOT &B(4)).DSG41   SKIP OVER ASSEMBLY     14600000
&K       SETA  5*&F+(&K-5*&F)*&B(4)                       IR00272       14650052
.*********************************************************************  14700000
.*                                                                    * 14800000
.*                  DATA SINK GROUP ASSEMBLY PART II                  * 14900000
.*                                                                    * 15000000
.*********************************************************************  15100000
.*             PART II OF THE DATA SINK GROUP ASSEMBLY RECEIVES         15200000
.*             CONTROL FROM PART I.  THE PRIOR DATA SINK GROUP, IF      15300000
.*             ANY, IS "CHAINED" TO THE CURRENT IF REQUIRED.  THEN      15400000
.*             THE BITS USED IN THE DATA SINK BYTES ARE DETERMINED      15500000
.*             FROM THE DSKB1/DSKB2 ARRAYS.  THE FIRST TWO BYTES ARE    15600000
.*             ASSEMBLED.  CONTROL THEN PASSES TO PART III IF THERE IS  15700000
.*             A PICTURE; OTHERWISE, TO PARTS V, OR VI, OR IV FOLLOWING 15800000
.*             THE ASSEMBLY OF A CORRECT BUFFER COUNT.                  15900000
.DSG20   ANOP                                                           16000000
         AIF   (NOT &B(9)).DSG21  SKIP OVER REASSEMBLY                  16100000
         AIF   (&FB(22)).DSG21         SKIP REASM IF EARLIER GUESS OKAY 16200000
&FB(22)  SETB  1                       SET CHAINING BIT                 16300000
&PIA(6)  SETA  &FA(3)                  POINT TO START OF DATA SINK GP   16400000
&A(1)    SETA  64*&FB(22)+32*&FB(23)+16*&FB(24)+8*&FB(25)+4*&FB(26)+2*&-16500000
               FB(27)+&FB(28)                                           16600000
         IDFASM A                                                       16700000
.DSG21   ANOP  ,                       START TO PUT TOGETHER NEW GP     16800000
&FA(3)   SETA  &PIA(3)+&PIA(4)+&PIA(4)/480*18  LOCTATE START OF GROUP   16900000
&FB(22)  SETB  (&B(8) OR &B(6) AND &N LT N'&SYSLIST(&M) OR             X17000000
               &F NE 0 AND NOT &FB(5) OR &G NE 0 AND NOT &FB(4))        17100000
         AIF   (&B(3) OR &B(4)).DSG22  IF PRT OR TMT                    17200000
&FB(26)  SETB  (&DSKB1(&K+50) OR (&DSKB1(&K+100) AND &DSKB1(&K+125)))   17300000
.*                              SET IF LPB OR IOB                  FSJM 17400000
&FB(27)  SETB  ((&DSKB1(&K+100) OR &DSKB1(&K+125)) AND NOT &FB(26))     17500000
.*                                     SET IF INQ OR PUNCH/RPB          17600000
&FB(28)  SETB  (&DSKB1(&K+50) OR (NOT &DSKB1(&K+125) AND &DSKB1(&K+75))X17700000
               )            STG OR PCH OR IOB                      FSJM 17800000
&J       SETA  24*&DSKB1(&K+50)+12*&DSKB1(&K+75)+6*&DSKB1(&K+100)+3*&DS-17900000
               KB1(&K+125)-9           OBTAIN INDEX TO BUFA ARRAY       18000000
&A(5)    SETA  1                       MINIMUM CHRACTERS IN OUTPUT      18100000
&A(6)    SETA  &BUFA(&J)-&DSKA(&K)+1   ASSUMED MAXIMUM                  18200000
         AIF   (&A(6) LE 127).DSG23                                     18300000
&A(6)    SETA  127                     MAXIMUM OUTPUT CHARACTERS        18400000
         AGO   .DSG23                                                   18500000
.DSG22   ANOP  ,                       SET UP FOR PRT/TMT               18600000
&FB(26)  SETB  0                        SET BITS                        18700000
&FB(27)  SETB  0                        TO INDICATE                     18800000
&FB(28)  SETB  0                        SELECTRIC DS-TYPE               18900000
&A(5)    SETA  1                                                        19000000
&A(6)    SETA  &DFA(19)-&DFA(11)+1     ASSUMED MAX                      19100000
         AIF   (&A(6) GE 1 AND &A(6) LE 127).DSG23                      19200000
&A(6)    SETA  &DFA(27)-&DFA(11)+1     USE ALTERNATE VALUE              19300000
         AIF   (&A(6) LE 127).DSG23                                     19400000
&A(6)    SETA  127                                                      19500000
.DSG23   ANOP  ,                       ASSIGN SECOND BYTE VALUES        19600000
&FB(29)  SETB  (NOT &B(2) AND &DSKB2(&K+25))  CENTER BIT                19700000
&FB(31)  SETB  (NOT &B(2) AND &DSKB2(&K)) RIGHT AND ZERO FILL           19800000
&FB(30)  SETB  (NOT &B(2) AND NOT &FB(31) AND &DSKB2(&K+50))            19900000
&FB(32)  SETB  (&B(2))                 SET EDIT (PICTURE) BIT           20000000
&FB(33)  SETB  (&DSKB2(&K+75) OR &DSKB1(&K+150)) UNDERLINE OR X1   FSJM 20100000
&FB(34)  SETB  (&B(3) OR &DSKB1(&K+175)) PRINT SEL OR X2           FSJM 20200000
&FB(35)  SETB  (&B(4) OR &DSKA(&K) GT 124 AND NOT &B(3))                20300000
&B(11)   SETB  (&FB(35))                                         FSJM   20400000
.*                                     SET TMT BIT OR HI-ORDER BUFF     20500000
&FB(35)  SETB  (&FB(35) OR NOT &PIB(24) AND &FB(27) AND &FB(28)        X20600000
               AND &DSKA(&K) GT 28)    SPECIAL CASE OF PUNCH BUFFER     20700000
         AIF   (NOT (&B(3) AND &FB(29))).DSG24                          20800000
&A(1)    SETA  &DFA(19)-&DFA(11)+1-&CTA(6)-&FB(14)*&DSCB(40)            20900000
&FB(30)  SETB  (&A(1) NE &A(1)/2*2)    FLIP ON CENTER-RIGHT BIT         21000000
&FB(35)  SETB  (&FB(35) AND NOT &FB(30))    DROP TMT SINK IF BIT ON     21100000
&B(4)    SETB  (&FB(35))                                                21200000
&B(5)    SETB  (&FB(35))                                                21300000
.DSG24   ANOP  ,                       GENERATE DATA SINK GROUP         21400000
&PIA(6)  SETA  &FA(3)                  MOVE TO START OF DSG             21500000
&B(9)    SETB  1                       INDICATE PRIOR DATA SINK GROUP   21600000
&A(1)    SETA  64*&FB(22)+32*&FB(23)+16*&FB(24)+8*&FB(25)+4*&FB(26)+2*&-21700000
               FB(27)+&FB(28)                                           21800000
         IDFASM A                                                       21900000
&PIB(1)  SETB  (NOT (&FB(34) OR &FB(33)) OR NOT (&FB(25) OR &FB(26) OR X21930052
               &FB(27) OR &FB(28)))                           ADX00923  21960051
&A(1)    SETA  64*&FB(29)+32*&FB(30)+16*&FB(31)+8*&FB(32)+4*&FB(33)+2*&-22000000
               FB(34)+&FB(35)*&PIB(1)                         ADX00923  22100051
         IDFASM A                                                       22200000
         AIF   (&B(3) OR &B(4)).DSG26                                   22300000
&A(1)    SETA  &DSKA(&K)+3             SET UP BUFFER ADDRESS            22400000
         AIF  (NOT (&DSKB1(&N*5) AND &DSKB1(&N*5+50))).DSG241 ADX00923  22450051
&NDXA(2)  SETA  &NDXA(2)+&PIB(43)*(&A(1)-&NDXA(2))               FSJM   22500000
.DSG241  AIF   (&PIB(24) OR NOT (&FB(27) AND &FB(28))).DSG25  ADX00923  22600051
&A(1)    SETA  &A(1)+96                MODIFY FOR PUNCH BUFFER          22700000
.DSG25   ANOP  ,                       ASSEMBLY BUFFER ADDRESS          22800000
&A(1)    SETA  (&A(1)-&A(1)/128*128)*&PIB(1)                  ADX00923  22900051
         IDFASM A                                                       23000000
.DSG26   ANOP                                                           23100000
         AIF   (&B(2)).DSG30  ASSEMBLE PICTURE BYTES                    23200000
         AIF   (&B(3)).DSG41                                            23300000
         AIF   (&B(4)).DSG44                                            23400000
.*                                     CONTINUE WITH BUFFER SINK        23500000
&A(4)    SETA  &CTA(&N)                OBTAIN LENGTH, IF CODED          23600000
         AIF   (&A(4) NE 0 OR &CTA(6) EQ 0).DSG27                       23700000
&A(4)    SETA  &CTA(6)+&FB(14)*&DSCB(40)    USE SOURCE VALU             23800000
.DSG27   AIF   (&A(4) LT &A(5) OR &A(4) GT &A(6)).DSG40                 23900000
         AIF  (NOT (&DSKB1(&N*5) AND &DSKB1(&N*5+50))).DSG271 ADX00923  23950051
&NDXA(1)  SETA  &NDXA(1)+&PIB(43)*(&A(4)-&NDXA(1))               FSJM   24000000
.DSG271  ANOP                                                 ADX00923  24050051
&A(1)    SETA  &A(4)                   ASSEMBLE COUNT                   24100000
         IDFASM A                                                       24200000
         AGO   .DSG40                  UPDATE SINK ARRAYS               24300000
.*********************************************************************  24400000
.*                                                                    * 24500000
.*                  DATA SINK GROUP ASSEMBLY PART III                 * 24600000
.*                                                                    * 24700000
.*********************************************************************  24800000
.*             IN PART III, THE PICTURE BYTES ARE ASSEMBLED.  ALSO,     24900000
.*             THE DATA TYPE BYTE IS REASSEMBLED TO INSURE NUMERIC      25000000
.*             CHECKING, AND THE INPUT COUNT IS SET IF NOT ALREADY      25100000
.*             NON-ZERO.                                                25200000
.DSG30   ANOP                                                           25300000
&A(2)    SETA  &H                      SAVE INDEX TO PICTURE SUBOPS     25400000
         AIF   (NOT &B(3) AND NOT &B(4)).DSG300                         25500000
&H       SETA  &F                                               SA55132 25600000
         AIF   (&B(3)).DSG300          IF PRT, START PROCESSING         25700000
&H       SETA  &G                                               SA55132 25800000
.DSG300  AIF   (K'&SYSLIST(&M,&H) LT 3).DSG340  TOO SHORT TO BE PIC     25900000
&A(3)    SETA  0                       SET DIGIT COUNT TO ZERO          26000000
&A(4)    SETA  K'&SYSLIST(&M,&H)-2     SET CHARACTER COUNT              26100000
&I       SETA  1                       POINT TO FIRST CHARACTER         26200000
         AIF   ('&SYSLIST(&M,&H)'(1,1) NE '''').DSG340 NOT APOS'PHE     26300000
&A(1)    SETA  2*(K'&SYSLIST(&M,&H)-2)/3  DIGIT COUNT ESTIMATE          26400000
&FA(4)   SETA  &PIA(6)      SAVE LOC CTR                                26500000
         IDFASM A                                                       26600000
&PB(1)   SETB  1                       '9' -- ALWAYS PERMITTED          26700000
&PB(2)   SETB  1                       'Y' -- ALWAYS PERMITTED          26800000
&PB(3)   SETB  1                       'Z' -- PERMITTED AS INIT CHAR    26900000
&PB(4)   SETB  1                       '*' -- PERMITTED AS INIT CHAR    27000000
&PB(5)   SETB  1                       '$' -- PERMITTED AS INIT CHAR    27100000
&PB(6)   SETB  (NOT &PIB(23))          '+' -- OKAY IF NOT KATAKANA      27200000
&PB(7)   SETB  1                       '-' -- PERMITTED AS INIT CHAR    27300000
&PB(8)   SETB  (NOT &PIB(23))          'S' -- OKAY IF NOT KATAKANA      27400000
&PB(9)   SETB  1                        'B' -- ALWAYS PERMITTED         27500000
&PB(10)  SETB  1                        ',' -- ALWAYS PERMITTED         27600000
&PB(11)  SETB  (NOT &PIB(23))          '/' -- OKAY IF NOT KATAKANA      27700000
&PB(12)  SETB  1                        '.' -- ALWAYS PERMITTED         27800000
&PB(13)  SETB  0                       'V' -- NOT YET PERMITTED         27900000
&PB(14)  SETB  0                       'C' -- NOT YET PERMITTED         28000000
&PB(15)  SETB  0                       'D' -- NOT YET PERMITTED         28100000
&PB(16)  SETB  0                       '$' -- NOT YET PERMITTED         28200000
&PB(17)  SETB  0                       '+' -- NOT YET PERMITTED         28300000
&PB(18)  SETB  0                       '-' -- NOT YET PERMITTED         28400000
&PB(19)  SETB  0                       'S' -- NOT YET PERMITTED         28500000
&I       SETA  2                                                        28600000
&C(1)    SETC  '&SYSLIST(&M,&H)'(&I,1) OBTAIN NEXT CHARACTER            28700000
&P       SETA  1                                                        28800000
.DSG301  AIF   ('&C(1)' EQ '9YZ*$+-SB,/.'(&P,1) AND &PB(&P)).DSG302     28900000
&P       SETA  &P+1                    BUMP INDEX TO ALLOWED STRING     29000000
         AIF   (&P LE 12).DSG301                                        29100000
         AGO   .DSG341                 INVALID FIRST CHARACTER          29200000
.DSG302  ANOP  ,                       VALID FIRST CHAR FOUND           29300000
&C(1)    SETC  '355222254222'(&P,1)     TRANSLATE TO                    29400000
&C(2)    SETC  '99AA4BD32CFE'(&P,1)     INTERNAL CODE                   29500000
         IDFASM C                                                       29600000
&PB(5)   SETB  0                       '$' -- NO LONGER PERMITTED       29700000
&PB(6)   SETB  0                       '+' -- NO LONGER PERMITTED       29800000
&PB(7)   SETB  0                       '-' -- NO LONGER PERMITTED       29900000
&PB(8)   SETB  0                       'S' -- NO LONGER PERMITTED       30000000
&PB(9)   SETB  1                       'B' -- INSERTION CHARACTER       30100000
&PB(10)  SETB  1                       ',' -- INSERTION CHARACTER       30200000
&PB(11)  SETB  (NOT &PIB(23))          '/' -- OKAY IF NOT KATAKANA      30300000
&PB(12)  SETB  1                       '.' -- INSERTION CHARACTER       30400000
&PB(13)  SETB  1                       'V' -- STOP ZERO SUPP. CHAR.     30500000
&PB(14)  SETB  1                       'C' -- INITIAL LETTER OF 'CR'    30600000
&PB(15)  SETB  1                       'D' -- INITIAL LETTER OF 'DB'    30700000
&PB(16)  SETB  1                       '$' -- TERMINAL CHARACTER        30800000
&PB(17)  SETB  (NOT &PIB(23))          '+' -- OKAY IF NOT KATAKANA      30900000
&PB(18)  SETB  1                       '-' -- TERMINAL CHARACTER        31000000
&PB(19)  SETB  (NOT &PIB(23))          'S' -- OKAY IF NOT KATAKANA      31100000
         AIF   (&P GT 4).DSG310        SEARCH SECOND STRING             31200000
&PB(3)   SETB  (&P EQ 3)               'Z' -- PROHIBITED UNLESS FIRST   31300000
&PB(4)   SETB  (&P EQ 4)               '*' -- PROHIBITED UNLESS FIRST   31400000
&A(3)    SETA  1                        FLAG OCCURRENCE OF FIRST DIGIT  31500000
         AGO   .DSG320                                                  31600000
.DSG310  ANOP                                                           31700000
&PB(&P)  SETB  1                       ALLOW REPITITION OF FIRST CHAR   31800000
&I       SETA  3                       ADVANCE PTR TO PICTURE SUBOP     31900000
         AIF   (&I GT K'&SYSLIST(&M,&H)-1).DSG343  TEST END OF SCAN     32000000
&C(1)    SETC  '&SYSLIST(&M,&H)'(&I,1) OBTAIN NEXT CHARACTER            32100000
&P       SETA  1                                                        32200000
.DSG311  AIF   ('&C(1)' EQ '9YZ*$+-SB,/.'(&P,1) AND &PB(&P)).DSG312     32300000
&P       SETA  &P+1                    BUMP INDEX TO ALLOWED STRING     32400000
         AIF   (&P LE 12).DSG311                                        32500000
         AGO   .DSG341                 INVALID SECOND CHARACTER         32600000
.DSG312  ANOP                                                           32700000
&C(1)    SETC  '355222254222'(&P,1)     TRANSLATE TO                    32800000
&C(2)    SETC  '99AA4BD32CFE'(&P,1)     INTERNAL CODE                   32900000
         IDFASM C                                                       33000000
&PB(3)   SETB  0                       'Z' -- NO LONGER PERMITTED       33100000
&PB(4)   SETB  0                       '*' -- NO LONGER PERMITTED       33200000
&PB(5)   SETB  0                       '$' -- NO LONGER PERMITTED       33300000
&PB(6)   SETB  0                       '+' -- NO LONGER PERMITTED       33400000
&PB(7)   SETB  0                       '-' -- NO LONGER PERMITTED       33500000
&PB(8)   SETB  0                       'S' -- NO LONGER PERMITTED       33600000
&PB(&P)  SETB  1             UNLESS, OF COURSE, FOUND IN STRING         33700000
         AIF   (&P GT 8).DSG320         NOT A DIGIT                     33800000
&A(3)    SETA  1                        FLAG OCCURRENCE OF FIRST DIGIT  33900000
         AIF   (&P LE 4).DSG320         NOT A TERMINAL CHARACTER        34000000
&PB(&P+11) SETB 0                      ONE TERMINAL CHAR NOW ILLEGAL    34100000
.DSG320  ANOP                                                           34200000
&I       SETA  &I+1                                                     34300000
         AIF   (&I GT K'&SYSLIST(&M,&H)-1).DSG343                       34400000
&C(1)    SETC  '&SYSLIST(&M,&H)'(&I,1) OBTAIN NEXT CHARACTER            34500000
&P       SETA  1                                                        34600000
.DSG321  AIF   ('&C(1)' EQ '9YZ*$+-SB,/.VCD$+-S'(&P,1) AND             X34700000
               &PB(&P)).DSG322         FIND INTERMEDIATE CHAR           34800000
&P       SETA  &P+1                    BUMP INDEX TO ALLOWED STRING     34900000
         AIF   (&P LE 19).DSG321                                        35000000
         AGO   .DSG341                 INVALID INTERMEDIATE CHARACTER   35100000
.DSG322  AIF   (&P GT 8).DSG324        NON-DIGIT CHARACTER              35200000
&A(3)    SETA  &A(3)+1                 INCREMENT DIGIT COUNT            35300000
         AIF   (&PB(13)).DSG323        SKIP RESETTING OF BITS           35400000
         AIF   (NOT (&PB(1) OR &PB(2))).DSG323   IF NOT AFTER 'V'       35500000
.*                                     OR ALREADY DONE; OTHERWISE,      35600000
&PB(1)   SETB  (&P LE 2)               '9' -- PERMITTED IF '9' OR 'Y'   35700000
&PB(2)   SETB  (&P LE 2)               'Y' -- FOLLOWED THE 'V'          35800000
&PB(3)   SETB  0                       'Z' -- NO LONGER PERMITTED       35900000
&PB(4)   SETB  0                       '*' -- NO LONGER PERMITTED       36000000
&PB(5)   SETB  0                       '$' -- NO LONGER PERMITTED       36100000
&PB(6)   SETB  0                       '+' -- NO LONGER PERMITTED       36200000
&PB(7)   SETB  0                       '-' -- NO LONGER PERMITTED       36300000
&PB(8)   SETB  0                       'S' -- NO LONGER PERMITTED       36400000
&PB(&P)  SETB  1             UNLESS, OF COURSE, FOUND IN STRING         36500000
         AIF   (&P LE 2).DSG325        PREVIOUSLY ASSEMBLED 'V' OKAY    36600000
&PIA(6)  SETA  &FA(5)                                                   36700000
         IDFASM (,4776)                                                 36800000
&PIA(6)  SETA  &PIA(3)+&PIA(4)+&PIA(4)/480*18    SET LOC CTR TO HI BYTE 36900000
.DSG323  AIF   (&P GT 2).DSG325        IF NOT '9' OR 'Y', THEN ...      37000000
         AIF   (NOT (&PB(3) OR &PB(4) OR &PB(5) OR &PB(6) OR &PB(7) OR X37100000
               &PB(8))).DSG324         NO NEED TO INSURE THAT ....      37200000
&PB(3)   SETB  0                       'Z' -- NO LONGER PERMITTED       37300000
&PB(4)   SETB  0                       '*' -- NO LONGER PERMITTED       37400000
&PB(5)   SETB  0                       '$' -- NO LONGER PERMITTED       37500000
&PB(6)   SETB  0                       '+' -- NO LONGER PERMITTED       37600000
&PB(7)   SETB  0                       '-' -- NO LONGER PERMITTED       37700000
&PB(8)   SETB  0                       'S' -- NO LONGER PERMITTED       37800000
.DSG324  AIF   (&P LT 13).DSG325       INSERTION OR DIGIT               37900000
         AIF   (&P GT 13).DSG326       TERMINAL CHARACTER               38000000
&A(4)    SETA  &A(4)-1  DECREMENT FOR V                                 38100000
&FA(5)   SETA  &PIA(6)                                                  38200000
&PB(13)  SETB  0                       BUT PROHIBIT ITS REAPPEARANCE    38300000
.DSG325  ANOP  ,                       ASSEMBLE NEXT CHARACTER          38400000
&C(1)    SETC  '3552222522225'(&P,1)   TRANSLATE TO                     38500000
&C(2)    SETC  '99AA4BD30CFE6'(&P,1)   ASCII                            38600000
         IDFASM C                                                       38700000
         AGO   .DSG320                                                  38800000
.DSG326  ANOP  ,                       SET UP FOR TERMINAL CHARACTERS   38900000
&P       SETA  &P-11                                                    39000000
.DSG330  ANOP  ,                       ASSEMBLE TERMINAL CHARACTER      39100000
&PB(1)   SETB  (&P EQ 3)               'R' -- ALLOWED IF PREVIOUS 'C'   39200000
&PB(2)   SETB  (&P EQ 4)               'B' -- ALLOWED IF PREVIOUS 'D'   39300000
&C(1)    SETC  '54442225'(&P,1)        \RANSLATE TO                     39400000
&C(2)    SETC  '22344BD3'(&P,1)        ASCII                            39500000
         IDFASM C                                                       39600000
&I       SETA  &I+1                    ADVANCE PTR                      39700000
.*                                     TEST FOR NORMAL TERMINATION      39800000
         AIF   (&I GT K'&SYSLIST(&M,&H)-1 AND NOT (&PB(1) OR           X39900000
               &PB(2))).DSG343  DONE IF SCAN END & NOT C OR D           40000000
         AIF   (&I GT K'&SYSLIST(&M,&H)-1).DSG342 CR/DB ERROR           40100000
&C(1)    SETC  '&SYSLIST(&M,&H)'(&I,1) OBTAIN NEXT CHARACTER            40200000
&P       SETA  1                                                        40300000
.DSG331  AIF   ('&C(1)' EQ 'RB'(&P,1) AND &PB(&P)).DSG330               40400000
&P       SETA  &P+1                    BUMP INDEX TO ALLOWED STRING     40500000
         AIF   (&P LE 2).DSG331                                         40600000
         AGO   .DSG342                 INVALID FINAL CHARACTER          40700000
.DSG340  ANOP                                                           40800000
&PIB(1)  SETB  1                                                        40900000
         IDFMSG3 569                                                    41000000
&PIB(15) SETB  1                                                        41100000
&B(2)    SETB  0                       INDICATE NO PICTURE              41200000
&H       SETA  &A(2)                   RESTORE POINTER TO SUBOPS        41300000
         AGO   .DSG21                                                   41400000
.DSG341  ANOP                                                           41500000
&PIB(1)  SETB  1                                                        41600000
         IDFMSG3 570                                                    41700000
&PIB(15) SETB  1                                                        41800000
&B(2)    SETB  0                       INDICATE NO PICTURE              41900000
&H       SETA  &A(2)                   RESTORE POINTER TO SUBOPS        42000000
         AGO   .DSG21                                                   42100000
.DSG342  ANOP                                                           42200000
&PIB(1)  SETB  1                                                        42300000
         IDFMSG3 571                                                    42400000
&PIB(15) SETB  1                                                        42500000
&B(2)    SETB  0                       INDICATE NO PICTURE              42600000
&H       SETA  &A(2)                   RESTORE POINTER TO SUBOPS        42700000
         AGO   .DSG21                                                   42800000
.DSG343  ANOP  , HERE TO TERMINATE PICTURE BYTES                        42900000
&PIB(1)  SETB  (&A(3) LE 0)             MUST HAVE AT LEAST ONE DIGIT    43000000
         AIF   (NOT &PIB(1)).DSG343A                                    43100000
         IDFMSG2 200                    INVALID PICTURE                 43200000
&PIB(15) SETB  1                        REMEMBER ERROR                  43300000
         AGO   .DSG11                   BACK FOR NEXT SINK              43400000
.DSG343A IDFASM (,477F)                 PICTURE DELIMITER               43500000
         AIF   (&A(3) EQ 2*(K'&SYSLIST(&M,&H)-2)/3).DSG344              43600000
&PIA(6)  SETA  &FA(4)                                                   43700000
&A(1)    SETA  &A(3)                                                    43800000
         IDFASM A                                                       43900000
.DSG344  AIF   (NOT &FB(1) AND NOT &FB(2) AND &FB(3)).DSG346            44000000
&PIB(1)  SETB  1                                                        44100000
         IDFMSG3 525  KIND SET TO N BY PICTURE                          44200000
&FB(1)   SETB  0                                                        44300000
&FB(2)   SETB  0                                                        44400000
&FB(3)   SETB  1                                                        44500000
&A(1)    SETA  64*&FB(1)+32*&FB(2)+16*&FB(3)+8*&FB(4)+4*&FB(5)+2*&FB(6)X44600000
               +&FB(7)                                                  44700000
&PIA(6)  SETA  &FA(1)                  SET LOCATION TO DATA TYPE BYTE   44800000
         IDFASM A                                                       44900000
.DSG346  AIF   (&CTA(6) GT 0 OR &CTA(6) GT &CTA(7) AND &FB(12)).DSG3X   45000000
&PIA(6)  SETA  &FA(1)+2+(&FA(1)-&FA(1)/486*486)/478*18                  45100000
&A(1)    SETA  &A(3)                                                    45200000
         IDFASM A                                                       45300000
&CTA(6)  SETA  &A(4)                                                    45400000
.DSG3X   ANOP                                                           45500000
&H       SETA  &A(2)                   RESTORE POINTER TO SUBOPS        45600000
         AIF   (&B(3)).DSG41                                            45700000
         AIF   (&B(4)).DSG44                                            45800000
.*********************************************************************  45900000
.*                                                                    * 46000000
.*                  DATA SINK GROUP ASSEMBLY PART IV                  * 46100000
.*                                                                    * 46200000
.*********************************************************************  46300000
.*             PART IV UPDATES THE BUFA AND BUFB ARRAYS FOR             46400000
.*             BUFFER SINKS, THE PRTA ARRAY FOR PRINT SINKS, CORRECTS   46500000
.*             THE DATA TYPE AND FUNCTION BYTES AS NECESSARY, AND       46600000
.*             COMPUTES THE FINAL DATA SINK BYTE.                       46700000
.DSG40   AIF   (&N GT 6 OR &H GT 6).DSG4X  TEMPORARY ***                46800000
&M       SETA  4                       POINT TO SINK OPND               46900000
&PIB(1)  SETB  1                                                        47000000
&MB(8)   SETB  1  SUPPRESS HEADING                                      47100000
         IDFMSG1 123                   IDENTIFY SINK                    47200000
&PIB(1)  SETB  (&A(4) LT &A(5) OR &A(4) GT &A(6))                       47300000
         IDFMSG3 572                                                    47400000
&PIB(15) SETB  (&PIB(15) OR &PIB(1))                                    47500000
         AIF   (&PIB(1)).DSG11                                          47600000
&PIB(1)  SETB  1                                                        47700000
         IDFMSG3 573                                                    47800000
&PIB(1)  SETB  (&DSKA(&K) LT &BUFA(&J-1))                               47900000
&PIB(1)  SETB  (&DSKA(&K) LT &BUFA(&J-1) AND NOT ( &DSKB1(175)         X48000000
               OR &DSKB1(200)))                                  FSJM   48100000
         IDFMSG3 574                                                    48200000
&BUFA(&J-1) SETA &DSKA(&K)+&A(4)       UPDATE NEXT SINK POSITION        48300000
&J       SETA  &J/3                    POINT TO BUFB ARRAY              48400000
&PIB(1)  SETB  (NOT &BUFB(&J+1) AND &PIB(10))                           48500000
         IDFMSG1 132                                                    48600000
&BUFB(&J+14) SETB (&BUFB(&J+1) AND &BUFB(&J+14) OR NOT &BUFB(&J+1)     X48700000
               AND &PIB(10))                                            48800000
&BUFB(&J+27) SETB (&BUFB(&J+1) AND &BUFB(&J+27))                        48900000
&BUFB(&J+40) SETB 1                                                     49000000
&BUFB(&J+1) SETB 1                                                      49100000
&BUFB(1) SETB  1                                                        49200000
&A(2)    SETA  &N                      SAVE VALUE OF SINK INDEX         49300000
         AGO   .DSG48                  REPORT SINK                      49400000
.DSG41   AIF   (&F EQ 0).DSG44         NO PRINT SINK, OR ALREADY DONE   49500000
&A(2)    SETA  &N                      SAVE INDEX TO SINKS              49600000
&N       SETA  &F                                                       49700000
&F       SETA  0                       SIGNAL COMPLETION OF PRINT SINK  49800000
&M       SETA  4  POINT TO SINK OP                                      49900000
&MB(8)   SETB  1  SUPPRESS HEADING                                      50000000
&PIB(1)  SETB  1                                                        50100000
         IDFMSG1 123    REPORT PRT SINK                                 50200000
&CYB(2)  SETB  1                               SHOW PRT IN CYCLE        50300000
&A(6)    SETA  &DFA(27)                SET UPPER BOUNDARY               50400000
         AIF   (&DFA(19) LT &DFA(11)).DSG42                             50500000
&A(6)    SETA  &DFA(19)                USE RIGHT BDY IF CODED           50600000
         AIF   (NOT (&FB(29) OR &FB(30) OR &FB(31)) OR &FB(5)).DSG42    50700000
&B(1)    SETB  (NOT &FB(29))           SET IF RIGHT JUSTIFICATION       50800000
&A(1)    SETA  &DFA(19)-&DFA(11)+1-&A(4)                                50900000
&PIB(1)  SETB  (&PRTA(11) NE &DFA(11)+&A(1)/2+&B(1)*(&A(1)+1)/2)        51000000
         IDFMSG3 575                                                    51100000
&PIB(15) SETB  (&PIB(15) OR &PIB(1))                                    51200000
         AIF   (&PIB(1)).DSG48A                                         51300000
.DSG42   ANOP                                                           51400000
&PIB(1)  SETB  (&PRTA(11)+&A(4)-1 GT &A(6))                             51500000
         IDFMSG3 576                                                    51600000
&PIB(15) SETB  (&PIB(15) OR &PIB(1))                                    51700000
         AIF   (&PIB(1)).DSG48A                                         51800000
         AIF   (&DFA(19) GT &DFA(11)).DSG43                             51900000
&DFA(19) SETA  &DFA(11)+&A(4)-1        UPDATE RIGHT BOUNDARY            52000000
.DSG43   ANOP                                                           52100000
&PRTA(12) SETA &PRTA(11)+&A(4)                                          52200000
&PIB(1)  SETB 1                                                         52300000
         IDFMSG 050  SELECTRIC II PRINT REGION                          52400000
         AIF   (&B(3) AND NOT &FB(5)).DSG48                             52500000
         AIF   (NOT &B(3)).DSG44                                        52600000
&FB(5)   SETB  0                                                        52700000
&FB(7)   SETB  1                                                        52800000
         AGO   .DSG45                                                   52900000
.DSG44   AIF   (&G EQ 0).DSG49                                          53000000
&A(2)    SETA  &N                      SAVE INDEX TO SINKS              53100000
&N       SETA  &G                                                       53200000
&G       SETA  0                       SIGNAL COMPLETION OF TMT SINK    53300000
&M       SETA  4                       POINT TO SINK OPND               53400000
&PIB(1)  SETB  1                                                        53500000
&MB(8)   SETB  1   SUPPRESS HEADING                                     53600000
         IDFMSG1 123                                                    53700000
&CTA(&N) SETA  &A(4)                    LOAD TMT SINK COUNT FOR MNOTE   53800000
         IDFMSG1 144  TMT DATA FORMAT                                   53900000
         AIF   (&B(4) AND NOT &FB(4)).DSG48                             54000000
         AIF   (NOT &B(4)).DSG49                                        54100000
&FB(4)   SETB  0                                                        54200000
&FB(7)   SETB  1                                                        54300000
.DSG45   ANOP  ,                       FIX DATA TYPE AND FUNCTION BYTES 54400000
&PIA(6)  SETA  &FA(1)                  POINT TO LOCATION OF DATA TYPE   54500000
&A(1)    SETA  64*&FB(1)+32*&FB(2)+16*&FB(3)+8*&FB(4)+4*&FB(5)+2*&FB(6)-54600000
               +&FB(7)                 SET UP FOR REASSEMBLY            54700000
         IDFASM A                                                       54800000
         AIF   (&FB(17)).DSG48                                          54900000
&PIA(6)  SETA  &FA(2)                                                   55000000
         AIF   (NOT &FB(6)).DSG47                                       55100000
&PIA(6)  SETA  &PIA(6)+2+(&PIA(6)-&PIA(6)/486*486)/478*18               55200000
.DSG47   ANOP                                                           55300000
&FB(17)  SETB  1                                                        55400000
&A(1)    SETA  64*&FB(15)+32*&FB(16)+16*&FB(17)                         55500000
         IDFASM A                                                       55600000
.DSG48   ANOP                                                           55700000
&MB(8)   SETB  1   SUPPRESS HEADING                                     55800000
&M       SETA  5                       POINT TO FILL OPND               55900000
&PIB(1)  SETB  (&FB(31))                                                56000000
         IDFMSG1 124                                                    56100000
&M       SETA  6                       POINT TO JUSTIFY OPND            56200000
&PIB(1)  SETB  (&FB(29) OR &FB(30) OR &FB(31))                          56300000
         IDFMSG1 124                                                    56400000
&M       SETA  7                       POINT TO UNDERLINE OPND          56500000
&PIB(1)  SETB  (&FB(33))                                                56600000
         IDFMSG1 124                                                    56700000
&PIB(1)  SETB  (&FB(32))                                                56800000
         IDFMSG3 577                                                    56900000
         AIF   (NOT &FB(32)).DSG48A                                     57000000
&K       SETA  5*&N                     SINK ARRAY INDEX                57100000
&PIB(1)  SETB  (&DSKB2(&K))             ZERO FILL                       57200000
         IDFMSG3 556                    IGNORED                         57300000
&PIB(1)  SETB  ((&DSKB2(&K+25) OR &DSKB2(&K+50)) AND (&DSKB1(&K+50) OR X57400000
               &DSKB1(&K+75)))  NOT LEFT JUSTIFY, PICTURE, AND BUFFER   57500000
         IDFMSG3 558                    IGNORED                         57600000
.DSG48A  ANOP                                                           57700000
&N       SETA  &A(2)                   RESTORE PTR                      57800000
&M       SETA  20                      RESTORE PTR TO PICTURE           57900000
         AIF   (&B(3) AND &B(5)).DSG44                                  58000000
         AGO   .DSG11                                                   58100000
.DSG49   AIF   (NOT &B(9)).DSG4X       SKIP OVER REASSEMBLY             58200000
         AIF   (NOT &FB(22)).DSG4X     SKIP REASM IF EARLIER GUESS OKAY 58300000
&FB(22)  SETB  0                       SET OFF CHAINING BIT             58400000
&PIA(6)  SETA  &FA(3)                  POINT TO START OF DATA SINK GP   58500000
&A(1)    SETA  64*&FB(22)+32*&FB(23)+16*&FB(24)+8*&FB(25)+4*&FB(26)+2*&-58600000
               FB(27)+&FB(28)                                           58700000
         IDFASM A                                                       58800000
.DSG4X   ANOP                                                           58900000
&MB(8)   SETB  1                        SHUT OFF HEADING                59000000
&PIB(1)  SETB  1                        ENABLE MESSAGES                 59100000
&M       SETA  1                        MESSAGE INDEX FOR SOURCE        59200000
         IDFMSG1 126  SOURCE IS--                                       59300000
&PIB(1)  SETB  (&CTA(6) GT 0)                                           59400000
         IDFMSG3 578  SOURCE CC IS--                                    59500000
&M       SETA  &PIB(1)                                                  59600000
&PIB(1)  SETB  (NOT &PIB(1))                                            59700000
         IDFMSG3 522  SOURCE LENGTH INADEQUATE                          59800000
         AIF   (NOT &FB(14)).DSG4B      SKIP SELFCHK IF UNUSED          59900000
&M       SETA  3                        MESSAGE INDEX FOR SELFCHK       60000000
&PIB(1)  SETB  1                                                        60100000
&MB(8)   SETB  1                  SHUT OFF HEADING                FSJW  60200000
         IDFMSG1 125  SELFCHK IS--                                      60300000
.DSG4B   ANOP                                                           60400000
&DSCB(55) SETB (&FB(1))                 SET UP THE                      60500000
&DSCB(60) SETB (&FB(2))                 ARRAY BITS                      60600000
&DSCB(65) SETB (&FB(3))                 FOR MNOTE                       60700000
&M       SETA  2                                                        60800000
&PIB(1)  SETB  1                                                        60900000
&MB(8)   SETB  1                                                        61000000
         IDFMSG1 122  KIND IS--                                         61100000
.DSG4XA  ANOP  ,                                                  FSJW  61200000
         AIF   (NOT &B(20)).DSP8                                  FSJW  61300000
&PIB(1)  SETB (NOT &DSKB1(5) AND NOT &DSKB1(30) AND NOT &DSKB1(55) AND X61400001
               NOT &DSKB1(80) AND NOT &DSKB1(105) AND NOT &DSKB1(130))  61500001
.**   THE PRECEEDING  TWO  CARDS WERE CHANGED TO FIX ASSEMBLY ERRORS    61560001
.**  IN DOS ASSEMBLER D 4/23/73                                         61620001
         AIF   (NOT &PIB(1)).DSP6A                                FSJW  61700000
         MNOTE *,'IDF476 SOURCE X1/X2 FORCES SINK OF PRT'         FSJW  61800000
         AGO   .DSP7                                              FSJW  61900000
.DSP6A   ANOP  ,                                                  FSJW  62000000
&PIB(1)  SETB  (&DSKB1(5) AND NOT &DSKB1(30) AND NOT &DSKB1(55) AND    X62100001
               NOT &DSKB1(80) AND NOT &DSKB1(105) AND NOT &DSKB1(130))  62200001
.**  THE PRECEEDING TWO CARDS WERE CHANGED BECAUSE THEY CAUSED          62260001
.**      ASSEMBLY ERRORS IN DOS ASSEMBLER D   4/23/73    AJU            62320001
         AIF   (&PIB(1)).DSP7                                     FSJW  62400000
&PIB(1)  SETB  1                                                  FSJW  62500000
&M       SETA  4                                                  FSJW  62700000
         IDFMSG1 101                                              FSJW  62800000
         MNOTE *,'IDF476 SOURCE X1/X2 FORCES SINK OF PRT'         FSJW  62900000
.DSP7    ANOP  ,                                                  FSJW  63000000
&DSKB1(5)  SETB  1                                                FSJW  63100000
&N       SETA  1                                                  FSJW  63200000
         IDFMSG1 123         REPORT SINK                          FSJW  63300000
&DFA(19) SETA  &DFA(11)+2                                         FSJW  63400000
&PRTA(12) SETA &PRTA(11)+3                                        FSJW  63500000
         IDFMSG 050          SELECTRIC II MOTION                  FSJW  63600000
         IDFASM  (,467B)     GENERATE SOURCE=XN,SINK=PRT BYTES    FSJW  63700000
&A(1)    SETA  4*&B(19)                                           FSJW  63800000
         IDFASM A                                                 FSJW  63900000
         IDFASM (,4070)                                           FSJW  64000000
.DSP8    ANOP  ,                                                  FSJW  64100000
         AIF   (NOT &PIB(47)).DSP14                               FSJW  64200000
         IDFDSP 'AFTER DATA SINK PART 4',FB,PB                          64300000
.DSP14   ANOP                                                           64400000
.********************************************************************** 64500000
.*                                                                    * 64600000
.*                 SINK/DELIMIT ROUTINE                               * 64700000
.*                                                                    * 64800000
.********************************************************************** 64900000
         AIF   (NOT &PIB(43)).JM04                               FSJM   65000000
&J       SETA   1                                                FSJM   65100000
&PIA(6)  SETA  &PIA(3)+&PIA(4)+&PIA(4)/480*18                     FSJW  65200000
&A(1)    SETA  0                                                 FSJM   65300000
         IDFASM A                                                FSJM   65400000
         AIF   (NOT &PIB(44)).JM01                               FSJM   65500000
&A(1)    SETA  107                                               FSJM   65600000
         IDFASM A                                                FSJM   65700000
&A(1)    SETA  8+4*&B(24)                                        FSJM   65800000
         IDFASM A                                                FSJM   65900000
&A(1)    SETA  &NDXA(1)                                          FSJM   66000000
         IDFASM A                                                FSJM   66100000
.JM01    AIF   (&B(11)).JM02  GT 127                              FSJM  66200000
         AIF   ((&NDXA(1)+&NDXA(2)) LT 128).JM02                 FSJM   66300000
&B(11)   SETB   1   NEED BIT ON IN START BYTE ONE                FSJM   66400000
.JM02    ANOP  ,                                                 FSJM   66500000
&B(11)   SETB  (&B(11) AND NOT &PIB(44))                      ADX00923  66550051
&C(1)    SETC   '820101201605'(&J,2)                             FSJM   66600000
&A(1)    SETA   &C(1)                                            FSJM   66700000
         IDFASM  A                                               FSJM   66800000
         AIF   (&K EQ 11).JM03                                   FSJM   66900000
&J       SETA   &J+2                                             FSJM   67000000
         AIF   (&J LT 13).JM02                                   FSJM   67100000
.JM03    ANOP  ,                                                 FSJM   67200000
&A(1)    SETA  1*&B(11)+4*&PIB(44)-2*&B(24)                      FSJM   67300000
         IDFASM  A                                               FSJM   67400000
&PIB(1)  SETB  (NOT &PIB(44))                                 ADX00923  67450051
&A(1)    SETA  (&NDXA(1)+&NDXA(2)-&B(11)*128)*&PIB(1)         ADX00923  67500051
         IDFASM  A                                               FSJM   67600000
&A(1)    SETA  1                                                 FSJM   67700000
         IDFASM  A                                               FSJM   67800000
         AIF   (NOT &PIB(44)).JM04                               FSJM   67900000
&A(1)   SETA   0                                                 FSJM   68000000
         IDFASM  A                                               FSJM   68100000
&A(1)    SETA  107                                               FSJM   68200000
         IDFASM A                                                FSJM   68300000
&A(1)    SETA  8+4*&B(24)+1                                      FSJM   68400000
         IDFASM  A                                               FSJM   68500000
&A(1)    SETA  127                                            ADX00923  68600051
         IDFASM   A                                              FSJM   68700000
.********************************************************************** 68800000
.*                                                                    * 68900000
.*                 INDICATOR OPERAND(FDFIELD) - PART 2, BRANCH        * 69000000
.*                                                                    * 69100000
.********************************************************************** 69200000
.JM04    AIF   (NOT &PIB(39) OR &PIB(2)).INDF2X                         69300000
&K       SETA  &QA4(1)                  GET FREEQ PTR             FSDB  69400000
         AIF   (&K GT 0).INDF21         FREEQ NOT EMPTY           FSDB  69500000
&PIB(1)  SETB  1                        ISSUE MNOTE               FSDB  69600000
         IDFMSG3 510                    TOO MANY BRANCHES         FSDB  69700000
&PIB(15) SETB  1                        SET ERROR BIT             FSDB  69800000
         AGO   .INDF2X                  EXIT RTN                  FSDB  69900000
.INDF21  ANOP  ,                                                  FSDB  70000000
&I       SETA  &QA1(1)                  GET ORGQ PTR              FSDB  70100000
&QA4(1)  SETA  &QA1(&K)/65536           UPDATE FREEQ PTR          FSDB  70200000
&QA1(&K) SETA  &I*65536                 CHAIN NEW TO FIRST        FSDB  70300000
&QA1(1)  SETA  &K                       MAKE NEW FIRST ON Q       FSDB  70400000
&I       SETA  &QA3(1)                  GET DESTQ PTR             FSDB  70500000
         AIF   (&I GT 0).INDF22         DESTQ NOT EMPTY           FSDB  70600000
&PIB(1)  SETB  1                        ISSUE MNOTES              FSDB  70700000
         IDFMSG 0                       SYSTEM ERROR              FSDB  70800000
         IDFMSG3 511                    DESTQ EMPTY               FSDB  70900000
&PIB(15) SETB  1                        SET ERROR BIT             FSDB  71000000
         AGO   .INDF2X                  EXIT RTN                  FSDB  71100000
.INDF22  ANOP  ,                                                  FSDB  71200000
.* GET CURRENT PATH/SEGMENT FROM 1ST DESTQ ENTRY                  FSDB  71300000
&QA1(&K) SETA  &QA1(&K)/65536*65536+(&QA1(&I)-&QA1(&I)/65536*65536)     71400000
.* SET LENGTH OF 13 AND SAVE LOCATION COUNTER                     FSDB  71500000
&J       SETA  13                                                FSDB   71600000
&QA2(&K) SETA  &J*65536+&PIA(3)+&PIA(4)+&PIA(4)/480*18           FSDB   71700000
.* SAVE CURRENT LINE AND COLUMN                                   FSDB  71800000
&QA4(&K) SETA  &PRTA(7)*256+&PRTA(12)                             FSDB  71900000
&QA3(&I) SETA  &QA3(&I)+65536           BUMP BRANCH CTR           FSDB  72000000
&QB1(&K) SETB  1                        INDICATE IMPLICIT TYPE    FSDB  72100000
&QB2(&K) SETB  (&PIA(1) EQ 4 AND NOT (&PIB(3) OR &PIB(44)))      FSJM   72200000
.INDF23  AIF   (&PRTA(11) GE &DFA(19)).INDF24    SCAN FOR TAB     FSDB  72300000
&PRTA(11) SETA &PRTA(11)+1              IMBEDDED IN FIELD AND     FSDB  72400000
&QB3(&K) SETB  (&PTAB(&PRTA(11)))       SET BIT IF ONE FOUND      FSDB  72500000
         AIF   (NOT &QB3(&K)).INDF23    NONE YET?                 FSDB  72600000
.INDF24  ANOP  ,                                                  FSDB  72700000
&PRTA(11) SETA &PRTA(12)                PSC EQUALS PEC            FSDB  72800000
&QB4(&K) SETB  (&PIB(5))                IN CYCLE STATE?           FSDB  72900000
&QB5(&K) SETB  (&PIB(8))                IN SUMMARY STATE?         FSDB  73000000
&PIA(6)  SETA  &PIA(3)+&PIA(4)+&PIA(4)/480*18 ASM LOC CTR TO HI   FSDB  73100000
.INDF25  ANOP  ,                                                  FSDB  73200000
         IDFASM (,4670)                                           FSDB  73300000
&J       SETA  &J-1                      DECREMENT LENGTH CTR    FSDB   73400000
         AIF   (&J GE 1).INDF25          FINISH ASM OF NO OPS    FSDB   73500000
&PIB(42) SETB  0                        RESET INVOKE IMPLICIT GOTOFSDB  73600000
&K       SETA  &QA2(1)                  GET TEMPQ PTR             FSDB  73700000
.INDF28  AIF   (&K LE 0).INDF2X         AT END OF TEMPQ?          FSDB  73800000
&QA2(1)  SETA  &QA1(&K)/65536           UPDATE TEMPQ PTR TO NEXT  FSDB  73900000
&PIA(6)  SETA  &QA2(&K)                 GO BACK TO BRANCH ADDR    FSDB  74000000
.* CALCULATE DISPLACEMENT FROM BRANCH POINT TO HIGHEST POINT      FSDB  74100000
&A(2)    SETA  &QA2(&K)+4+(&QA2(&K)-&QA2(&K)/486*486)/476*18      FSDB  74200000
&A(3)    SETA  &PIA(3)+&PIA(4)+&PIA(4)/480*18                     FSDB  74300000
&A(2)    SETA  &A(3)-&A(2)-(&A(3)/486-&A(2)/486)*18               FSDB  74400000
&A(2)    SETA  &A(2)/2                  PACKED BYTES DISPLACEMENT FSDB  74500000
&A(1)    SETA  &A(2)/234*2+(&A(2)-&A(2)/234*234)/128              FSDB  74600000
         IDFASM A                       ORG BACK TO ADDR NO OPS   FSDB  74700000
&A(2)    SETA  &A(2)-&A(2)/234*234      LO ORDER DISP TO          FSDB  74800000
&A(1)    SETA  &A(2)-&A(2)/128*128      BE ASSEMBLED              FSDB  74900000
         IDFASM A                                                 FSDB  75000000
&I       SETA  &QA2(1)                  GET UPDATED TEMPQ PTR     FSDB  75100000
         AIF   (&I LE 0).INDF31         END OF TEMPQ?             FSDB  75200000
         AIF   ('&QC(&I)' NE '&QC(&K)').INDF31 EQUAL NAME?        FSDB  75300000
&QA1(&K) SETA  &QA4(1)*65536            PLACE THIS ENTRY          FSDB  75400000
&QA4(1)  SETA  &K                       BACK ON FREEQ             FSDB  75500000
&QA2(1)  SETA  &QA1(&I)/65536           UPDATE TEMPQ PTR TO NEXT  FSDB  75600000
&K       SETA  &I                       SET UP K                  FSDB  75700000
         AGO   .INDF28                  GO RESOLVE ADDR           FSDB  75800000
.INDF31  ANOP  ,                                                  FSDB  75900000
&I       SETA  &QA3(1)                  GET DESTQ PTR             FSDB  76000000
         AIF   (&I GT 0).INDF32         DESTQ NOT EMPTY           FSDB  76100000
&PIB(1)  SETB  1                        ISSUE MNOTE               FSDB  76200000
         IDFMSG 0                       SYSTEM ERROR              FSDB  76300000
         IDFMSG3 511                    DESTQ EMPTY               FSDB  76400000
&PIB(15) SETB  1                        STOP ASM IF ERROR         FSDB  76500000
         AGO   .INDF2X                  EXIT RTN                  FSDB  76600000
.INDF32  ANOP  ,                                                  FSDB  76700000
&C(1)    SETC  '&QC(&K)'                PICK UP TARGET NAME       FSDB  76800000
.INDF33  ANOP  ,                                                  FSDB  76900000
&J       SETA  &I                       J FOLLOWS I               FSDB  77000000
&I       SETA  &QA1(&I)/65536           CHAIN TO NEXT DESTQ ENTRY FSDB  77100000
         AIF   (&I LE 0).INDF34         EMPTY OR END              FSDB  77200000
         AIF   ('&C(1)' NE '&QC(&I)').INDF33 NO SAVELOC YET       FSDB  77300000
&B(1)    SETB  (&PIB(5) NE &QB4(&I)) DO NOT ALLOW BRANCH BACK  A01301   77310051
.**             OUT OF THE CYCLE TO A SAVELOC'D LOCATION OR             77320051
.**             BACK INTO THE CYCLE AFTER THE CYCLE HAS ENDED  A01301   77330051
         AIF   (NOT &B(1)).INDF331                             A01301   77340051
&PIB(15) SETB  1                                               A01301   77350051
         MNOTE 8,'IDF791 INVALID BRANCH INTO CYCLE OR SUMMARY BLOCK'    77360051
.**                                                            A01301   77370051
.INDF331 ANOP  ,                                               A01301   77380051
&A(3)    SETA  &PRTA(7)  SAVE ORIGIN LINE                               77400000
&A(4)    SETA  &PRTA(12)  AND COLUMN                                    77500000
&A(5)    SETA  &QA4(&I)/256  SAVE DESTINATION LINE                      77600000
&A(6)    SETA  &QA4(&I)-&A(5)*256 AND COLUMN                            77700000
&B(1)    SETB  (&A(6) GT &ECA(1))                                       77800000
&ECA(3)  SETA  &A(6)+&B(1)*(&ECA(1)-&A(6))                              77900000
&ECA(4)  SETA  &ECA(3)                                                  78000000
.SL3     AIF   (&PTAB(&ECA(3))).SL4                                     78100000
&B(1)    SETB  (&ECA(3) GE &A(6))                                       78200000
&ECA(3)  SETA  2*&A(6)-&ECA(3)-&B(1)                                    78300000
&ECA(4)  SETA  2*&A(6)-&ECA(3)                                          78400000
         AGO   .SL3                                                     78500000
.SL4     ANOP                                                           78600000
&PIB(1)  SETB  (&A(3) GT &A(5)) SCROLL ERROR                            78700000
         IDFMSG3 505                                                    78800000
&PIB(15) SETB  (&PIB(15) OR &PIB(1))                                    78900000
         AIF   (&PIB(1)).INDF2X                                  JEW    79000000
&PIA(6)  SETA  &PIA(3)+&PIA(4)+&PIA(4)/480*18                           79100000
&N       SETA  &A(4)                                                    79200000
         AIF   (&A(3)*256+&A(4) EQ &QA4(&I)).SL11                       79300000
&B(1)    SETB  (&A(3) EQ &A(5))                                         79400000
&B(2)    SETB  (&A(3)+75 GT &A(5) OR &PIB(8) OR &PIB(5))                79500000
&B(3)    SETB  (&B(2) AND &N LT &ECA(3) AND &N LT &ECA(4) AND          C79600000
               (&B(1) OR &N NE &DFA(2)))                                79700000
&B(5)    SETB  ((&N LE &ECA(3) OR &N LE &ECA(4)) AND &N NE &DFA(2))     79800000
&B(6)    SETB  (&N GT &ECA(1) AND 2*&A(6) GT &ECA(1)+&N AND            C79900000
               (&B(1) OR &A(6) LE &DFA(2)+127))                         80000000
&B(4)    SETB  ((&B(5) OR &B(6)) AND &B(2) AND NOT &B(3) AND &N        C80100000
               NE &A(6))                                                80200000
         IDFASM (,4770)                                                 80300000
         AIF   (&B(4)).SL7                                              80400000
         AIF   (NOT &B(3)).SL8                                          80500000
&A(1)    SETA  32 TABS                                                  80600000
.SL6     ANOP                                                           80700000
&N       SETA  &N+1                                                     80800000
&A(1)    SETA  &A(1)+&PTAB(&N)                                          80900000
         AIF   (&N NE &ECA(3) AND &A(1) NE 47).SL6                      81000000
         IDFASM A                                                       81100000
&A(4)    SETA  &N                                                       81200000
         AIF   (&A(3)*256+&A(4) EQ &QA4(&I)).SL11                       81300000
         IDFASM (,4770)                                                 81400000
&A(1)    SETA 32                                                        81500000
         AIF   (&N NE &ECA(3)).SL6                                      81600000
         AIF   (&A(3) NE &A(5)).SL8                                     81700000
.SL7     ANOP                                                           81800000
&A(1)    SETA  (&A(6)-&N)*2                                             81900000
&A(1)    SETA  31-(&A(1)+31)/(&A(1)+30)*(15+&A(1)/2)+(&A(1)+3)/(&A(1)+2C82000000
               )*(&A(1)-16)+(&A(1)-29)/(&A(1)-30)*(15-&A(1)/2)          82100000
&N       SETA  &N+&A(1)+&A(1)/16*2*(8-&A(1))                            82200000
&A(4)    SETA  &N                                                       82300000
         IDFASM A                                                       82400000
         AIF   (&A(3)*256+&A(4) EQ &QA4(&I)).SL11                       82500000
         IDFASM (,4770)                                                 82600000
         AIF   (&N NE &A(6)).SL7                                        82700000
.SL8     ANOP                                                           82800000
&B(1)    SETB  ((&N NE &ECA(3) OR &ECA(3) EQ &DFA(2)) AND (&N NE       C82900000
               &A(6) OR &A(6) EQ &DFA(2)))                              83000000
&A(1)    SETA  2*&A(5)-2*&A(3)                                          83100000
&A(1)    SETA  (&A(1)-27)/(&A(1)-28)*(15-&A(1)/2)+&A(1)/2+&B(1)*16+48   83200000
&N       SETA  &N+&B(1)*(&DFA(2)-&N)                                    83300000
&A(3)    SETA  &A(3)+&A(1)-&A(1)/16*16                                  83400000
         IDFASM A                                                       83500000
         AIF   (&A(3) EQ &A(5) AND &N NE &DFA(2)).SL9                   83600000
         AIF   (&A(3)*256+&A(4) EQ &QA4(&I)).SL11                       83700000
         IDFASM (,4770)                                                 83800000
         AIF   (&A(3) NE &A(5)).SL8                                     83900000
         AIF   (&N EQ &ECA(3)).SL7                                      84000000
&A(1)    SETA  32                                                       84100000
         AGO   .SL6                                                     84200000
.SL9     ANOP                                                           84300000
         IDFASM (,4676)                                                 84400000
&A(1)    SETA  &N-&DFA(2)                                               84500000
         IDFASM A                                                       84600000
         AIF   (&N EQ &A(6)).SL11                                       84700000
         IDFASM (,4770)                                                 84800000
         AGO   .SL7                                                     84900000
.SL11    ANOP                                                           85000000
         IDFASM (,4671) GEN BRANCH BYTE                                 85100000
&A(2)    SETA  &QA2(&I) GET LOCATION TO BRANCH TO                       85200000
&A(1)    SETA  &PIA(6)+4+(&PIA(6)-&PIA(6)/486*486)/476*18               85300000
&A(2)    SETA  &A(1)-&A(2)-(&A(1)/486-&A(2)/486)*18                     85400000
&A(2)    SETA  &A(2)/2                                                  85500000
&A(1)    SETA  64+&A(2)/234*2+(&A(2)-&A(2)/234*234)/128                 85600000
         IDFASM A                                                       85700000
&A(2)    SETA  &A(2)-&A(2)/234*234                                      85800000
&A(1)    SETA  &A(2)-&A(2)/128*128                                      85900000
         IDFASM A                                                       86000000
         AIF   (&QA3(&I) GT 255).SL12                                   86100000
&QA3(&I) SETA  &QA3(&I)-1                                               86200000
         AIF   (&QA3(&I) GT 0).SL12                                     86300000
&QA1(&J) SETA  &QA1(&J)-&QA1(&J)/65536*65536+&QA1(&I)/65536*65536       86400000
&QA1(&I) SETA  &QA1(&I)-&QA1(&I)/65536*65536+&QA4(1)*65536              86500000
&QA4(1)  SETA  &I                                                       86600000
.SL12    ANOP                                                           86700000
&A(5)    SETA  &QA1(&I)-&QA1(&I)/65536*65536                            86800000
&A(6)    SETA  &A(5)-&A(5)/256*256                                      86900000
&A(5)    SETA  &A(5)/256                                                87000000
&PIB(1)  SETB  1                                                        87100000
         IDFMSG 017  BRANCH TO PATH SEGMENT                             87200000
&QA1(&K) SETA  &QA4(1)*65536            PUT RESOLVED ENTRY        FSDB  87300000
&QA4(1)  SETA  &K                       BACK ON FREEQ             FSDB  87400000
         AGO   .INDF36                                            FSDB  87500000
.INDF34  ANOP  ,                                                  FSDB  87600000
&J       SETA  0                                                        87700000
&I       SETA  &QA1(1)  GET ORGIN Q PTR                                 87800000
.GT2     AIF   (&I EQ 0).GT3 IF NEW ENTRY WILL BE FIRST OR LAST, BRANCH 87900000
.* SCAN QUEUE FOR INSERTION POINT IN EXPLICIT REGION                    88000000
         AIF   ('&QC(&I)' GE '&QC(&K)' AND NOT &QB1(&I)).GT3            88100000
&J       SETA  &I  SAVE PTR TO THIS ENTRY                               88200000
&I       SETA  &QA1(&I)/65536  POINT AT NEXT CHAINED ENTRY              88300000
         AGO   .GT2  CONTINUE SCAN                                      88400000
.GT3     ANOP                                                           88500000
&QA1(&K) SETA  &I*65536  SET CHAIN PTR IN NEW ENTRY                     88600000
         AIF   (&J EQ 0).GT4 IS NEW ENTRY 1ST ON CHAIN?                 88700000
.* UPDATE CHAIN PTR OF PREVIOUS ENTRY TO POINT TO NEW ENTRY             88800000
&QA1(&J) SETA  &QA1(&J)-&QA1(&J)/65536*65536+&K*65536                   88900000
         AGO   .GT5                                                     89000000
.GT4     ANOP                                                           89100000
&QA1(1)  SETA  &K POINT ORIGIN Q PTR TO NEW ENTRY WHICH IS NOW 1ST      89200000
.GT5     ANOP                                                           89300000
&I       SETA  &QA3(1) GET DESTINATION Q PTR                            89400000
&PIB(1)  SETB  (&I EQ 0)                                                89500000
         AIF   (NOT &PIB(1)).I0365                                      89600000
         IDFMSG 0                                                       89700000
         IDFMSG3 511                                                    89800000
.I0365   ANOP ,                                                         89900000
&PIB(15) SETB  (&PIB(15) OR &PIB(1))                                    90000000
         AIF   (&PIB(1)).INDF2X                                  JEW    90100000
.* GET PATH/SEGMENT FROM 1ST DESTQ ENTRY - PUT IN THIS ENTRY            90200000
&QA1(&K) SETA  &QA1(&K)/65536*65536+(&QA1(&I)-&QA1(&I)/65536*65536)     90300000
.* SET LENGTH OF 13 AND LOC CTR IN THIS ENTRY                           90400000
&J       SETA  13                                                       90500000
&QA2(&K) SETA  &J*65536+&PIA(3)+&PIA(4)+&PIA(4)/480*18                  90600000
.*  SET LINE/COLUMN IN THIS ENTRY                                       90700000
&QA4(&K) SETA  &PRTA(7)*256+&PRTA(12)                                   90800000
&QA3(&I) SETA  &QA3(&I)+65536  BUMP NO. OF UNRESOLVED BRANCHES IN DESTQ 90900000
&PIB(10) SETB  1 INDICATE CONDITIONAL SEGMENT                           91000000
&QB1(&K) SETB  0    ZERO THE                                            91100000
&QB2(&K) SETB  0                                                        91200000
&QB3(&K) SETB  0      OF THIS ORIGIN                                    91300000
&QB4(&K) SETB  (&PIB(5)) IN CYCLE                                       91400000
&QB5(&K) SETB  (&PIB(8)) IN SUMMARY                                     91500000
&PIA(6)  SETA  &PIA(3)+&PIA(4)+&PIA(4)/480*18                           91600000
.INDF35  ANOP  ,                                                  FSDB  91700000
         IDFASM (,4670)                                           FSDB  91800000
&J       SETA  &J-1                     DECREMENT LNG CTR         FSDB  91900000
         AIF   (&J GE 1).INDF35                                   FSDB  92000000
.INDF36  ANOP  ,                                                  FSDB  92100000
&K       SETA  &QA2(1)                  GET TEMPQ PTR             FSDB  92200000
         AGO   .INDF28                  GO RESOLVE ADDR           FSDB  92300000
.INDF2X  ANOP                                                     FSDB  92400000
         AIF   (NOT(&PIB(47) AND &PIB(39))).INDF2Y                FSDB  92500000
         IDFDSP 'AFTER IND PART 2',QUEUE                          FSDB  92600000
.INDF2Y  ANOP  ,                                                  FSDB  92700000
         AIF   (NOT &PIB(48)).TX                                        92800000
         MNOTE *,'IDF100 IN TRACE MODE LEAVING IDFIN08'                 92900000
.TX      ANOP                                                           93000000
         MEND                                                           93100000
