         MACRO                                                          00020000
         SGIEX501                                                       00040000
.*0035000800-001000                                                0050 00050017
         COPY  SGGBLPAK                                                 00060000
         PUNCH ' COPY OUTDD=LINKLIB,INDD=AL531'                         00090000
         PUNCH ' SELECT MEMBER=(IEX10,IEX11,IEX20,IEX30,IEX40,IEX50)'   00120000
         PUNCH ' SELECT MEMBER=(IEX10000,IEX11000,IEX20000,IEX30000)'   00140000
         PUNCH ' SELECT MEMBER=(IEX40000,IEX50000)'                     00160000
         MEND                                                           00180000
