         MACRO                                                          04000000
         SGIKJ4EC                                                       08000000
         COPY  SGGBLPAK                                                 12000000
&SGCTRLC(6)    SETC ''                  MULTIPLE LINKEDIT INTO LINKLIB  16000000
&SGCTRLC(7)    SETC '&SGCTRLC(32)'      SET VOLUME NO. FOR LINKLIB      20000000
&SGCTRLC(8)    SETC '&SGCTRLC(31)'      SET UNIT NAME FOR LINKLIB       24000020
&SGCTRLC(9)    SETC 'LINKLIB'           SET DATA SET NAME               28000000
&SGCTRLC(10)   SETC ',LET'              SET PARM FIELD                  32000000
&SGCTRLC(11)   SETC ',RENT'             SET PARM FIELD                  36000000
         COPY  SGLEDPK1                                                 40000000
         PUNCH '//CI555 DD DISP=SHR,VOLUME=(,RETAIN),DSNAME=SYS1.CI555' 42000020
         PUNCH '//CQ548 DD DISP=SHR,VOLUME=(,RETAIN),DSNAME=SYS1.CQ548' 44000020
         COPY  SGLEDPK2                                                 48000000
 PUNCH ' INCLUDE CI555(IKJGGQT0)   FROM CI555 TO IKJGGQT0 IN LINKLIB '  52000000
 PUNCH ' INCLUDE CI555(IEDAYAA)    FROM CI555 TO IKJGGQT0 IN LINKLIB '  56000000
 PUNCH ' INCLUDE CI555(IEDAYHH)    FROM CI555 TO IKJGGQT0 IN LINKLIB '  60000000
 PUNCH ' INCLUDE CI555(IEDAYII)    FROM CI555 TO IKJGGQT0 IN LINKLIB '  64000000
 PUNCH ' INCLUDE CI555(IEDAYLL)    FROM CI555 TO IKJGGQT0 IN LINKLIB '  68000000
 PUNCH ' INCLUDE CI555(IEDAYOO)    FROM CI555 TO IKJGGQT0 IN LINKLIB '  72000000
 PUNCH ' INCLUDE CI555(IEDAYGP)    FROM CI555 TO IKJGGQT0 IN LINKLIB '  72800000
 PUNCH ' INCLUDE CQ548(IEDAYZZ)    FROM CQ548 TO IKJGGQT0 IN LINKLIB '  73200020
 PUNCH ' INCLUDE CI555(IKJGG088)   FROM CI555 TO IKJGGQT0 IN LINKLIB'   73600000
 PUNCH ' ENTRY   IKJGGQT0          FIRST ENTRY POINT '                  74000020
 PUNCH ' ALIAS   IKJGGQT1          SECOND ENTRY POINT '                 74400000
 PUNCH ' NAME    IKJGGQT0(R)       ALL 9 MODULES IN THIS MEMBER NAME '  78400020
         PUNCH '/*'                                                     84000000
         MEND                                                           88000000
