          MACRO                                                         05000020
          SGIKJ5EB                                                      10000020
.*C700000                                                        A42956 10050020
.***  THIS MACRO PRODUCES THE COPY STATEMENTS NECESSARY TO              15000020
.***  COPY THE MODULES NEEDED FOR THE EDIT COMMAND AND                  20000020
.***  SUBCOMMANDS IN A TSO SYSTEM.                                      25000020
.********************************************************************   30000020
 PUNCH  '  COPY OUTDD=CMDLIB,INDD=DCMDLIB'                              35000020
 PUNCH  '   SELECT MEMBER=(IKJEBERU,IKJEBEMS,IKJEBEFC,IKJEBESA)'        40000020
 PUNCH  '   SELECT MEMBER=(IKJEBECO,IKJEBELT,IKJEBELI,IKJEBEMR)'        45000020
 PUNCH  '   SELECT MEMBER=(IKJEBEM5,IKJEBEIM,IKJEBEIP,IKJEBESC)'        50000020
 PUNCH  '   SELECT MEMBER=(IKJEBELE,IKJEBESN,IKJEBECI,IKJEBEUI)'        55000020
 PUNCH  '   SELECT MEMBER=(IKJEBEUT,IKJEBEEX,IKJEBEAA,IKJEBEIA)'        60000020
 PUNCH  '   SELECT MEMBER=(IKJEBEDE,IKJEBEME,IKJEBERE,IKJEBEIS)'        65000020
 PUNCH  '   SELECT MEMBER=(IKJEBETA,IKJEBEDO,IKJEBEHE)'          A42956 70000020
 PUNCH  '   SELECT MEMBER=(IKJEBEFO,IKJEBETO,IKJEBEBO,IKJEBEUP)'        75000020
 PUNCH  '   SELECT MEMBER=(IKJEBEVE,IKJEBEDA,IKJEBEM6,IKJEBEM7)'        77000020
 PUNCH  '   SELECT MEMBER=(IKJEBEM1,IKJEBEM2,IKJEBEM3,IKJEBEM4)'        79000020
 PUNCH  '   SELECT MEMBER=(IKJEBECH,IKJEBECN,IKJEBERN)'                 82000020
          MEND                                                          85000020
