         MACRO                                                          06000020
         SGIKJ5EC                                                       09000020
         PUNCH ' COPY OUTDD=SVCLIB,INDD=CI555'                          12000020
         PUNCH ' SELECT MEMBER=(IGC0009C,IGC0009D,IGG019TX)'            18000020
         PUNCH ' SELECT MEMBER=(IGG019TY,IGG019TZ,IGG019T3,IGG019T4)'   24000020
         PUNCH ' SELECT MEMBER=(IGG019T5,IGG019T6,IGG019T7,IGG019T8)'   30000020
         PUNCH ' SELECT MEMBER=(IGG0196S,IGG09301,IGG09302)'            36000021
         PUNCH ' SELECT MEMBER=(IGG09303,IGG0940A,IGG0940B,IGG0940C)'   42000020
         PUNCH ' SELECT MEMBER=(IGG0940D,IGG0940E,IGG0940F,IGG0940G)'   48000020
         PUNCH ' SELECT MEMBER=(IGG09400,IGG09404,IGG09405,IGG09406)'   54000020
         PUNCH ' SELECT MEMBER=(IGG09407,IGG09408,IGG09409,IGG0193H)'   60000021
         PUNCH ' COPY OUTDD=LINKLIB,INDD=CI555'                         66000020
         PUNCH ' SELECT MEMBER=(IKJGG001,IKJGGE00,IKJGGE01)'            75000021
         MEND                                                           84000020
